%!PS-Adobe-3.0 EPSF-3.0
%%BoundingBox: (atend)
%%LanguageLevel: 2
%%Creator: Grace-5.1.22
%%CreationDate: Thu Mar 29 11:41:22 2012
%%DocumentData: Clean8Bit
%%Orientation: Portrait
%%Title: /home/xavier/files/papers/2012_octopus_psik/img/cache.agr
%%For: xavier
%%DocumentNeededResources: (atend)
%%EndComments
%%BeginProlog
/m {moveto} def
/l {lineto} def
/s {stroke} def
/n {newpath} def
/c {closepath} def
/RL {rlineto} def
/SLW {setlinewidth} def
/GS {gsave} def
/GR {grestore} def
/SC {setcolor} def
/SGRY {setgray} def
/SRGB {setrgbcolor} def
/SD {setdash} def
/SLC {setlinecap} def
/SLJ {setlinejoin} def
/SCS {setcolorspace} def
/FFSF {findfont setfont} def
/CC {concat} def
/PXL {n m 0 0 RL s} def
/Color0 {1.0000 1.0000 1.0000} def
/Color1 {0.0000 0.0000 0.0000} def
/Color2 {1.0000 0.0000 0.0000} def
/Color3 {0.0000 1.0000 0.0000} def
/Color4 {0.0000 0.0000 1.0000} def
/Color5 {1.0000 1.0000 0.0000} def
/Color6 {0.7373 0.5608 0.5608} def
/Color7 {0.8627 0.8627 0.8627} def
/Color8 {0.5804 0.0000 0.8275} def
/Color9 {0.0000 1.0000 1.0000} def
/Color10 {1.0000 0.0000 1.0000} def
/Color11 {1.0000 0.6471 0.0000} def
/Color12 {0.4471 0.1294 0.7373} def
/Color13 {0.4039 0.0275 0.2824} def
/Color14 {0.2510 0.8784 0.8157} def
/Color15 {0.0000 0.5451 0.0000} def
/Color16 {0.7529 0.7529 0.7529} def
/Color17 {0.5059 0.5059 0.5059} def
/Color18 {0.2588 0.2588 0.2588} def
/PTRN {
 /pat_bits exch def 
 <<
  /PaintType 2
  /PatternType 1 /TilingType 1
  /BBox[0 0 16 16]
  /XStep 16 /YStep 16
  /PaintProc {
   pop
   16 16 true [-1 0 0 -1 16 16] pat_bits imagemask
  }
 >>
 [0.0016 0 0 0.0016 0 0]
 makepattern
} def
/Pattern0 {<0000000000000000000000000000000000000000000000000000000000000000> PTRN} bind def
/Pattern1 {<ffffffffffffffffffffffffffffffffffffffffffffffffffffffffffffffff> PTRN} bind def
/Pattern2 {<eeeeffffbbbbffffeeeeffffbbbbffffeeeeffffbbbbffffeeeeffffbbbbffff> PTRN} bind def
/Pattern3 {<eeeebbbbeeeebbbbeeeebbbbeeeebbbbeeeebbbbeeeebbbbeeeebbbbeeeebbbb> PTRN} bind def
/Pattern4 {<5555aaaa5555aaaa5555aaaa5555aaaa5555aaaa5555aaaa5555aaaa5555aaaa> PTRN} bind def
/Pattern5 {<1111444411114444111144441111444411114444111144441111444411114444> PTRN} bind def
/Pattern6 {<1111000044440000111100004444000011110000444400001111000044440000> PTRN} bind def
/Pattern7 {<1010000000000000010100000000000010100000000000000101000000000000> PTRN} bind def
/Pattern8 {<0000000000000000000000000000000000000000000000000000000000000000> PTRN} bind def
/Pattern9 {<1e1e0f0f8787c3c3e1e1f0f078783c3c1e1e0f0f8787c3c3e1e1f0f078783c3c> PTRN} bind def
/Pattern10 {<7878f0f0e1e1c3c387870f0f1e1e3c3c7878f0f0e1e1c3c387870f0f1e1e3c3c> PTRN} bind def
/Pattern11 {<3333333333333333333333333333333333333333333333333333333333333333> PTRN} bind def
/Pattern12 {<ffffffff00000000ffffffff00000000ffffffff00000000ffffffff00000000> PTRN} bind def
/Pattern13 {<8181424224241818181824244242818181814242242418181818242442428181> PTRN} bind def
/Pattern14 {<8080404020201010080804040202010180804040202010100808040402020101> PTRN} bind def
/Pattern15 {<0101020204040808101020204040808001010202040408081010202040408080> PTRN} bind def
/Pattern16 {<2222222222222222222222222222222222222222222222222222222222222222> PTRN} bind def
/Pattern17 {<0000ffff000000000000ffff000000000000ffff000000000000ffff00000000> PTRN} bind def
/Pattern18 {<2222ffff222222222222ffff222222222222ffff222222222222ffff22222222> PTRN} bind def
/Pattern19 {<ffffffff33333333ffffffff33333333ffffffff33333333ffffffff33333333> PTRN} bind def
/Pattern20 {<0f0f0f0f0f0f0f0ff0f0f0f0f0f0f0f00f0f0f0f0f0f0f0ff0f0f0f0f0f0f0f0> PTRN} bind def
/Pattern21 {<ff00ff00ff00ff00ff00ff00ff00ff0000ff00ff00ff00ff00ff00ff00ff00ff> PTRN} bind def
/Pattern22 {<8001800180018001800180018001ffffffff8001800180018001800180018001> PTRN} bind def
/Pattern23 {<c003c003c003c003c003c003ffffffffffffffffc003c003c003c003c003c003> PTRN} bind def
/Pattern24 {<040404040404ffff404040404040ffff040404040404ffff404040404040ffff> PTRN} bind def
/Pattern25 {<180018001800180018001800ffffffff001800180018001800180018ffffffff> PTRN} bind def
/Pattern26 {<1111b8b87c7c3a3a1111a3a3c7c78b8b1111b8b87c7c3a3a1111a3a3c7c78b8b> PTRN} bind def
/Pattern27 {<101010102828c7c70101010182827c7c101010102828c7c70101010182827c7c> PTRN} bind def
/Pattern28 {<1c1c121211112121c1c12121111112121c1c121211112121c1c1212111111212> PTRN} bind def
/Pattern29 {<3e3e414180808080e3e31414080808083e3e414180808080e3e3141408080808> PTRN} bind def
/Pattern30 {<4848888884848383848488884848383848488888848483838484888848483838> PTRN} bind def
/Pattern31 {<03030404080808080c0c12122121c0c003030404080808080c0c12122121c0c0> PTRN} bind def
/ellipsedict 8 dict def
ellipsedict /mtrx matrix put
/EARC {
 ellipsedict begin
  /endangle exch def
  /startangle exch def
  /yrad exch def
  /xrad exch def
  /y exch def
  /x exch def
  /savematrix mtrx currentmatrix def
  x y translate
  xrad yrad scale
  0 0 1 startangle endangle arc
  savematrix setmatrix
 end
} def
/TL {
  /kcomp exch def
  /linewidth exch def
  /offset exch def
  GS
  0 offset rmoveto
  linewidth SLW
  dup stringwidth exch kcomp add exch RL s
  GR
} def
/KINIT
{
 /kvector exch def
 /kid 0 def
} def
/KPROC
{
 pop pop
 kvector kid get
 0 rmoveto
 /kid 1 kid add def
} def
/DefEncoding [
 /.notdef
 /.notdef
 /.notdef
 /.notdef
 /.notdef
 /.notdef
 /.notdef
 /.notdef
 /.notdef
 /.notdef
 /.notdef
 /.notdef
 /.notdef
 /.notdef
 /.notdef
 /.notdef
 /.notdef
 /.notdef
 /.notdef
 /.notdef
 /.notdef
 /.notdef
 /.notdef
 /.notdef
 /.notdef
 /.notdef
 /.notdef
 /.notdef
 /.notdef
 /.notdef
 /.notdef
 /.notdef
 /space
 /exclam
 /quotedbl
 /numbersign
 /dollar
 /percent
 /ampersand
 /quoteright
 /parenleft
 /parenright
 /asterisk
 /plus
 /comma
 /hyphen
 /period
 /slash
 /zero
 /one
 /two
 /three
 /four
 /five
 /six
 /seven
 /eight
 /nine
 /colon
 /semicolon
 /less
 /equal
 /greater
 /question
 /at
 /A
 /B
 /C
 /D
 /E
 /F
 /G
 /H
 /I
 /J
 /K
 /L
 /M
 /N
 /O
 /P
 /Q
 /R
 /S
 /T
 /U
 /V
 /W
 /X
 /Y
 /Z
 /bracketleft
 /backslash
 /bracketright
 /asciicircum
 /underscore
 /grave
 /a
 /b
 /c
 /d
 /e
 /f
 /g
 /h
 /i
 /j
 /k
 /l
 /m
 /n
 /o
 /p
 /q
 /r
 /s
 /t
 /u
 /v
 /w
 /x
 /y
 /z
 /braceleft
 /bar
 /braceright
 /asciitilde
 /.notdef
 /.notdef
 /.notdef
 /.notdef
 /.notdef
 /.notdef
 /.notdef
 /.notdef
 /.notdef
 /.notdef
 /.notdef
 /.notdef
 /.notdef
 /.notdef
 /.notdef
 /.notdef
 /.notdef
 /.notdef
 /.notdef
 /.notdef
 /.notdef
 /.notdef
 /.notdef
 /.notdef
 /.notdef
 /.notdef
 /.notdef
 /.notdef
 /.notdef
 /.notdef
 /.notdef
 /.notdef
 /.notdef
 /space
 /exclamdown
 /cent
 /sterling
 /currency
 /yen
 /brokenbar
 /section
 /dieresis
 /copyright
 /ordfeminine
 /guillemotleft
 /logicalnot
 /hyphen
 /registered
 /macron
 /degree
 /plusminus
 /twosuperior
 /threesuperior
 /acute
 /mu
 /paragraph
 /periodcentered
 /cedilla
 /onesuperior
 /ordmasculine
 /guillemotright
 /onequarter
 /onehalf
 /threequarters
 /questiondown
 /Agrave
 /Aacute
 /Acircumflex
 /Atilde
 /Adieresis
 /Aring
 /AE
 /Ccedilla
 /Egrave
 /Eacute
 /Ecircumflex
 /Edieresis
 /Igrave
 /Iacute
 /Icircumflex
 /Idieresis
 /Eth
 /Ntilde
 /Ograve
 /Oacute
 /Ocircumflex
 /Otilde
 /Odieresis
 /multiply
 /Oslash
 /Ugrave
 /Uacute
 /Ucircumflex
 /Udieresis
 /Yacute
 /Thorn
 /germandbls
 /agrave
 /aacute
 /acircumflex
 /atilde
 /adieresis
 /aring
 /ae
 /ccedilla
 /egrave
 /eacute
 /ecircumflex
 /edieresis
 /igrave
 /iacute
 /icircumflex
 /idieresis
 /eth
 /ntilde
 /ograve
 /oacute
 /ocircumflex
 /otilde
 /odieresis
 /divide
 /oslash
 /ugrave
 /uacute
 /ucircumflex
 /udieresis
 /yacute
 /thorn
 /ydieresis
] def
%%EndProlog
%%BeginSetup
%%EndSetup
612.00 612.00 scale
n
0.0000 0.0000 m
0.0000 1.0000 l
1.2941 1.0000 l
1.2941 0.0000 l
c
[/DeviceRGB] SCS
Color0 SC
fill
[/DeviceRGB] SCS
Color1 SC
[] 0 SD
0.0045 SLW
0 SLC
0 SLJ
n
0.1709 0.5875 m
0.3082 0.5316 l
0.4456 0.4475 l
0.5829 0.4224 l
0.7202 0.4123 l
0.8576 0.4125 l
0.9949 0.4052 l
1.1322 0.3589 l
s
n
0.1709 0.5875 0.0100 0.0100 0 360 EARC c
fill
[] 0 SD
0.0015 SLW
n 0.1709 0.5875 0.0100 0.0100 0 360 EARC s
n
0.3082 0.5316 0.0100 0.0100 0 360 EARC c
fill
n 0.3082 0.5316 0.0100 0.0100 0 360 EARC s
n
0.4456 0.4475 0.0100 0.0100 0 360 EARC c
fill
n 0.4456 0.4475 0.0100 0.0100 0 360 EARC s
n
0.5829 0.4224 0.0100 0.0100 0 360 EARC c
fill
n 0.5829 0.4224 0.0100 0.0100 0 360 EARC s
n
0.7202 0.4123 0.0100 0.0100 0 360 EARC c
fill
n 0.7202 0.4123 0.0100 0.0100 0 360 EARC s
n
0.8576 0.4125 0.0100 0.0100 0 360 EARC c
fill
n 0.8576 0.4125 0.0100 0.0100 0 360 EARC s
n
0.9949 0.4052 0.0100 0.0100 0 360 EARC c
fill
n 0.9949 0.4052 0.0100 0.0100 0 360 EARC s
n
1.1322 0.3589 0.0100 0.0100 0 360 EARC c
fill
n 1.1322 0.3589 0.0100 0.0100 0 360 EARC s
[/DeviceRGB] SCS
Color4 SC
[0.0225 0.0135 ] 0 SD
0.0045 SLW
n
0.1709 0.6171 m
0.3082 0.6859 l
0.4456 0.7384 l
0.5829 0.7597 l
0.7202 0.7352 l
0.8576 0.7321 l
0.9949 0.6953 l
1.1322 0.6325 l
s
n
0.1624 0.6086 m
0.1624 0.6256 l
0.1794 0.6256 l
0.1794 0.6086 l
c
fill
[] 0 SD
0.0015 SLW
n
0.1624 0.6086 m
0.1624 0.6256 l
0.1794 0.6256 l
0.1794 0.6086 l
0.1624 0.6086 l
c
s
n
0.2997 0.6774 m
0.2997 0.6944 l
0.3167 0.6944 l
0.3167 0.6774 l
c
fill
n
0.2997 0.6774 m
0.2997 0.6944 l
0.3167 0.6944 l
0.3167 0.6774 l
0.2997 0.6774 l
c
s
n
0.4371 0.7299 m
0.4371 0.7469 l
0.4541 0.7469 l
0.4541 0.7299 l
c
fill
n
0.4371 0.7299 m
0.4371 0.7469 l
0.4541 0.7469 l
0.4541 0.7299 l
0.4371 0.7299 l
c
s
n
0.5744 0.7512 m
0.5744 0.7682 l
0.5914 0.7682 l
0.5914 0.7512 l
c
fill
n
0.5744 0.7512 m
0.5744 0.7682 l
0.5914 0.7682 l
0.5914 0.7512 l
0.5744 0.7512 l
c
s
n
0.7117 0.7267 m
0.7117 0.7437 l
0.7287 0.7437 l
0.7287 0.7267 l
c
fill
n
0.7117 0.7267 m
0.7117 0.7437 l
0.7287 0.7437 l
0.7287 0.7267 l
0.7117 0.7267 l
c
s
n
0.8491 0.7236 m
0.8491 0.7406 l
0.8661 0.7406 l
0.8661 0.7236 l
c
fill
n
0.8491 0.7236 m
0.8491 0.7406 l
0.8661 0.7406 l
0.8661 0.7236 l
0.8491 0.7236 l
c
s
n
0.9864 0.6868 m
0.9864 0.7038 l
1.0034 0.7038 l
1.0034 0.6868 l
c
fill
n
0.9864 0.6868 m
0.9864 0.7038 l
1.0034 0.7038 l
1.0034 0.6868 l
0.9864 0.6868 l
c
s
n
1.1237 0.6240 m
1.1237 0.6410 l
1.1407 0.6410 l
1.1407 0.6240 l
c
fill
n
1.1237 0.6240 m
1.1237 0.6410 l
1.1407 0.6410 l
1.1407 0.6240 l
1.1237 0.6240 l
c
s
[/DeviceRGB] SCS
Color1 SC
n
0.1500 0.1500 m
1.1500 0.1500 l
s
n
0.1500 0.8500 m
1.1500 0.8500 l
s
n
0.1709 0.1500 m
0.1709 0.1600 l
s
n
0.1709 0.8500 m
0.1709 0.8400 l
s
n
0.2512 0.1500 m
0.2512 0.1600 l
s
n
0.2512 0.8500 m
0.2512 0.8400 l
s
n
0.3082 0.1500 m
0.3082 0.1600 l
s
n
0.3082 0.8500 m
0.3082 0.8400 l
s
n
0.3524 0.1500 m
0.3524 0.1600 l
s
n
0.3524 0.8500 m
0.3524 0.8400 l
s
n
0.3886 0.1500 m
0.3886 0.1600 l
s
n
0.3886 0.8500 m
0.3886 0.8400 l
s
n
0.4191 0.1500 m
0.4191 0.1600 l
s
n
0.4191 0.8500 m
0.4191 0.8400 l
s
n
0.4456 0.1500 m
0.4456 0.1600 l
s
n
0.4456 0.8500 m
0.4456 0.8400 l
s
n
0.4689 0.1500 m
0.4689 0.1600 l
s
n
0.4689 0.8500 m
0.4689 0.8400 l
s
n
0.4898 0.1500 m
0.4898 0.1600 l
s
n
0.4898 0.8500 m
0.4898 0.8400 l
s
n
0.3082 0.1500 m
0.3082 0.1600 l
s
n
0.3082 0.8500 m
0.3082 0.8400 l
s
n
0.3886 0.1500 m
0.3886 0.1600 l
s
n
0.3886 0.8500 m
0.3886 0.8400 l
s
n
0.4456 0.1500 m
0.4456 0.1600 l
s
n
0.4456 0.8500 m
0.4456 0.8400 l
s
n
0.4898 0.1500 m
0.4898 0.1600 l
s
n
0.4898 0.8500 m
0.4898 0.8400 l
s
n
0.5259 0.1500 m
0.5259 0.1600 l
s
n
0.5259 0.8500 m
0.5259 0.8400 l
s
n
0.5564 0.1500 m
0.5564 0.1600 l
s
n
0.5564 0.8500 m
0.5564 0.8400 l
s
n
0.5829 0.1500 m
0.5829 0.1600 l
s
n
0.5829 0.8500 m
0.5829 0.8400 l
s
n
0.6062 0.1500 m
0.6062 0.1600 l
s
n
0.6062 0.8500 m
0.6062 0.8400 l
s
n
0.6271 0.1500 m
0.6271 0.1600 l
s
n
0.6271 0.8500 m
0.6271 0.8400 l
s
n
0.4456 0.1500 m
0.4456 0.1600 l
s
n
0.4456 0.8500 m
0.4456 0.8400 l
s
n
0.5259 0.1500 m
0.5259 0.1600 l
s
n
0.5259 0.8500 m
0.5259 0.8400 l
s
n
0.5829 0.1500 m
0.5829 0.1600 l
s
n
0.5829 0.8500 m
0.5829 0.8400 l
s
n
0.6271 0.1500 m
0.6271 0.1600 l
s
n
0.6271 0.8500 m
0.6271 0.8400 l
s
n
0.6632 0.1500 m
0.6632 0.1600 l
s
n
0.6632 0.8500 m
0.6632 0.8400 l
s
n
0.6938 0.1500 m
0.6938 0.1600 l
s
n
0.6938 0.8500 m
0.6938 0.8400 l
s
n
0.7202 0.1500 m
0.7202 0.1600 l
s
n
0.7202 0.8500 m
0.7202 0.8400 l
s
n
0.7436 0.1500 m
0.7436 0.1600 l
s
n
0.7436 0.8500 m
0.7436 0.8400 l
s
n
0.7644 0.1500 m
0.7644 0.1600 l
s
n
0.7644 0.8500 m
0.7644 0.8400 l
s
n
0.5829 0.1500 m
0.5829 0.1600 l
s
n
0.5829 0.8500 m
0.5829 0.8400 l
s
n
0.6632 0.1500 m
0.6632 0.1600 l
s
n
0.6632 0.8500 m
0.6632 0.8400 l
s
n
0.7202 0.1500 m
0.7202 0.1600 l
s
n
0.7202 0.8500 m
0.7202 0.8400 l
s
n
0.7644 0.1500 m
0.7644 0.1600 l
s
n
0.7644 0.8500 m
0.7644 0.8400 l
s
n
0.8006 0.1500 m
0.8006 0.1600 l
s
n
0.8006 0.8500 m
0.8006 0.8400 l
s
n
0.8311 0.1500 m
0.8311 0.1600 l
s
n
0.8311 0.8500 m
0.8311 0.8400 l
s
n
0.8576 0.1500 m
0.8576 0.1600 l
s
n
0.8576 0.8500 m
0.8576 0.8400 l
s
n
0.8809 0.1500 m
0.8809 0.1600 l
s
n
0.8809 0.8500 m
0.8809 0.8400 l
s
n
0.9018 0.1500 m
0.9018 0.1600 l
s
n
0.9018 0.8500 m
0.9018 0.8400 l
s
n
0.7202 0.1500 m
0.7202 0.1600 l
s
n
0.7202 0.8500 m
0.7202 0.8400 l
s
n
0.8006 0.1500 m
0.8006 0.1600 l
s
n
0.8006 0.8500 m
0.8006 0.8400 l
s
n
0.8576 0.1500 m
0.8576 0.1600 l
s
n
0.8576 0.8500 m
0.8576 0.8400 l
s
n
0.9018 0.1500 m
0.9018 0.1600 l
s
n
0.9018 0.8500 m
0.9018 0.8400 l
s
n
0.9379 0.1500 m
0.9379 0.1600 l
s
n
0.9379 0.8500 m
0.9379 0.8400 l
s
n
0.9684 0.1500 m
0.9684 0.1600 l
s
n
0.9684 0.8500 m
0.9684 0.8400 l
s
n
0.9949 0.1500 m
0.9949 0.1600 l
s
n
0.9949 0.8500 m
0.9949 0.8400 l
s
n
1.0182 0.1500 m
1.0182 0.1600 l
s
n
1.0182 0.8500 m
1.0182 0.8400 l
s
n
1.0391 0.1500 m
1.0391 0.1600 l
s
n
1.0391 0.8500 m
1.0391 0.8400 l
s
n
0.8576 0.1500 m
0.8576 0.1600 l
s
n
0.8576 0.8500 m
0.8576 0.8400 l
s
n
0.9379 0.1500 m
0.9379 0.1600 l
s
n
0.9379 0.8500 m
0.9379 0.8400 l
s
n
0.9949 0.1500 m
0.9949 0.1600 l
s
n
0.9949 0.8500 m
0.9949 0.8400 l
s
n
1.0391 0.1500 m
1.0391 0.1600 l
s
n
1.0391 0.8500 m
1.0391 0.8400 l
s
n
1.0752 0.1500 m
1.0752 0.1600 l
s
n
1.0752 0.8500 m
1.0752 0.8400 l
s
n
1.1058 0.1500 m
1.1058 0.1600 l
s
n
1.1058 0.8500 m
1.1058 0.8400 l
s
n
1.1322 0.1500 m
1.1322 0.1600 l
s
n
1.1322 0.8500 m
1.1322 0.8400 l
s
n
0.9949 0.1500 m
0.9949 0.1600 l
s
n
0.9949 0.8500 m
0.9949 0.8400 l
s
n
1.0752 0.1500 m
1.0752 0.1600 l
s
n
1.0752 0.8500 m
1.0752 0.8400 l
s
n
1.1322 0.1500 m
1.1322 0.1600 l
s
n
1.1322 0.8500 m
1.1322 0.8400 l
s
n
1.1322 0.1500 m
1.1322 0.1600 l
s
n
1.1322 0.8500 m
1.1322 0.8400 l
s
n
0.1709 0.1500 m
0.1709 0.1700 l
s
n
0.1709 0.8500 m
0.1709 0.8300 l
s
n
0.3082 0.1500 m
0.3082 0.1700 l
s
n
0.3082 0.8500 m
0.3082 0.8300 l
s
n
0.4456 0.1500 m
0.4456 0.1700 l
s
n
0.4456 0.8500 m
0.4456 0.8300 l
s
n
0.5829 0.1500 m
0.5829 0.1700 l
s
n
0.5829 0.8500 m
0.5829 0.8300 l
s
n
0.7202 0.1500 m
0.7202 0.1700 l
s
n
0.7202 0.8500 m
0.7202 0.8300 l
s
n
0.8576 0.1500 m
0.8576 0.1700 l
s
n
0.8576 0.8500 m
0.8576 0.8300 l
s
n
0.9949 0.1500 m
0.9949 0.1700 l
s
n
0.9949 0.8500 m
0.9949 0.8300 l
s
n
1.1322 0.1500 m
1.1322 0.1700 l
s
n
1.1322 0.8500 m
1.1322 0.8300 l
s
/Times-Roman findfont
dup length dict begin
 {1 index /FID ne {def} {pop pop} ifelse} forall
 /Encoding DefEncoding def
 currentdict
end
/Font35 exch definefont pop
/Font35 FFSF
0.1613 0.1067 m
GS
[0.0490 0.0000 0.0000 0.0490 0 0] CC
(1) show
GR
/Font35 FFSF
0.2966 0.1067 m
GS
[0.0490 0.0000 0.0000 0.0490 0 0] CC
(2) show
GR
/Font35 FFSF
0.4340 0.1067 m
GS
[0.0490 0.0000 0.0000 0.0490 0 0] CC
(4) show
GR
/Font35 FFSF
0.5719 0.1067 m
GS
[0.0490 0.0000 0.0000 0.0490 0 0] CC
(8) show
GR
/Font35 FFSF
0.6967 0.1067 m
GS
[0.0490 0.0000 0.0000 0.0490 0 0] CC
(16) show
GR
/Font35 FFSF
0.8338 0.1067 m
GS
[0.0490 0.0000 0.0000 0.0490 0 0] CC
(32) show
GR
/Font35 FFSF
0.9712 0.1067 m
GS
[0.0490 0.0000 0.0000 0.0490 0 0] CC
(64) show
GR
/Font35 FFSF
1.0968 0.1067 m
GS
[0.0490 0.0000 0.0000 0.0490 0 0] CC
(128) show
GR
/Font35 FFSF
0.5476 0.0625 m
GS
[0.0490 0.0000 0.0000 0.0490 0 0] CC
(Block size) show
GR
n
0.1500 0.1500 m
0.1500 0.8500 l
s
n
1.1500 0.1500 m
1.1500 0.8500 l
s
n
0.1500 0.2214 m
0.1600 0.2214 l
s
n
1.1500 0.2214 m
1.1400 0.2214 l
s
n
0.1500 0.3643 m
0.1600 0.3643 l
s
n
1.1500 0.3643 m
1.1400 0.3643 l
s
n
0.1500 0.5071 m
0.1600 0.5071 l
s
n
1.1500 0.5071 m
1.1400 0.5071 l
s
n
0.1500 0.6500 m
0.1600 0.6500 l
s
n
1.1500 0.6500 m
1.1400 0.6500 l
s
n
0.1500 0.7929 m
0.1600 0.7929 l
s
n
1.1500 0.7929 m
1.1400 0.7929 l
s
n
0.1500 0.1500 m
0.1700 0.1500 l
s
n
1.1500 0.1500 m
1.1300 0.1500 l
s
n
0.1500 0.2929 m
0.1700 0.2929 l
s
n
1.1500 0.2929 m
1.1300 0.2929 l
s
n
0.1500 0.4357 m
0.1700 0.4357 l
s
n
1.1500 0.4357 m
1.1300 0.4357 l
s
n
0.1500 0.5786 m
0.1700 0.5786 l
s
n
1.1500 0.5786 m
1.1300 0.5786 l
s
n
0.1500 0.7214 m
0.1700 0.7214 l
s
n
1.1500 0.7214 m
1.1300 0.7214 l
s
/Font35 FFSF
0.1169 0.1337 m
GS
[0.0490 0.0000 0.0000 0.0490 0 0] CC
(0) show
GR
/Font35 FFSF
0.1184 0.2764 m
GS
[0.0490 0.0000 0.0000 0.0490 0 0] CC
(5) show
GR
/Font35 FFSF
0.0925 0.4194 m
GS
[0.0490 0.0000 0.0000 0.0490 0 0] CC
(10) show
GR
/Font35 FFSF
0.0941 0.5621 m
GS
[0.0490 0.0000 0.0000 0.0490 0 0] CC
(15) show
GR
/Font35 FFSF
0.0925 0.7052 m
GS
[0.0490 0.0000 0.0000 0.0490 0 0] CC
(20) show
GR
/Font35 FFSF
0.0720 0.2918 m
GS
[0.0000 0.0490 -0.0490 0.0000 0 0] CC
(Throughput [GFlops]) show
GR
n
0.1500 0.1500 m
0.1500 0.8500 l
1.1500 0.8500 l
1.1500 0.1500 l
0.1500 0.1500 l
c
s
n
0.4300 0.3000 m
0.4300 0.1822 l
1.1262 0.1822 l
1.1262 0.3000 l
c
[/DeviceRGB] SCS
Color0 SC
fill
[/DeviceRGB] SCS
Color1 SC
n
0.4300 0.3000 m
0.4300 0.1822 l
1.1262 0.1822 l
1.1262 0.3000 l
0.4300 0.3000 l
c
s
/Font35 FFSF
0.5107 0.2567 m
GS
[0.0490 0.0000 0.0000 0.0490 0 0] CC
(Standard grid mapping) show
GR
[] 0 SD
0.0045 SLW
n
0.4507 0.2680 m
0.4907 0.2680 l
s
n
0.4507 0.2680 0.0100 0.0100 0 360 EARC c
fill
[] 0 SD
0.0015 SLW
n 0.4507 0.2680 0.0100 0.0100 0 360 EARC s
n
0.4907 0.2680 0.0100 0.0100 0 360 EARC c
fill
n 0.4907 0.2680 0.0100 0.0100 0 360 EARC s
/Font35 FFSF
0.5107 0.2027 m
GS
[0.0490 0.0000 0.0000 0.0490 0 0] CC
(Cache-optimised grid mapping) show
GR
[/DeviceRGB] SCS
Color4 SC
[0.0225 0.0135 ] 0 SD
0.0045 SLW
n
0.4507 0.2141 m
0.4907 0.2141 l
s
n
0.4422 0.2056 m
0.4422 0.2226 l
0.4592 0.2226 l
0.4592 0.2056 l
c
fill
[] 0 SD
0.0015 SLW
n
0.4422 0.2056 m
0.4422 0.2226 l
0.4592 0.2226 l
0.4592 0.2056 l
0.4422 0.2056 l
c
s
n
0.4822 0.2056 m
0.4822 0.2226 l
0.4992 0.2226 l
0.4992 0.2056 l
c
fill
n
0.4822 0.2056 m
0.4822 0.2226 l
0.4992 0.2226 l
0.4992 0.2056 l
0.4822 0.2056 l
c
s
/Font35 FFSF
[/DeviceRGB] SCS
Color1 SC
0.1800 0.7900 m
GS
[0.0490 0.0000 0.0000 0.0490 0 0] CC
(CPU AMD FX 8150 \(8 threads\)) show
GR
%%Trailer
%%BoundingBox: 22 37 716 522
%%DocumentNeededResources: font Times-Roman
%%EOF
