%!PS-Adobe-3.0 EPSF-3.0
%%BoundingBox: (atend)
%%LanguageLevel: 2
%%Creator: Grace-5.1.22
%%CreationDate: Wed Mar 28 13:26:49 2012
%%DocumentData: Clean8Bit
%%Orientation: Portrait
%%Title: /home/xavier/files/papers/2012_octopus_psik/img/gpu_td.agr
%%For: xavier
%%DocumentNeededResources: (atend)
%%EndComments
%%BeginProlog
/m {moveto} def
/l {lineto} def
/s {stroke} def
/n {newpath} def
/c {closepath} def
/RL {rlineto} def
/SLW {setlinewidth} def
/GS {gsave} def
/GR {grestore} def
/SC {setcolor} def
/SGRY {setgray} def
/SRGB {setrgbcolor} def
/SD {setdash} def
/SLC {setlinecap} def
/SLJ {setlinejoin} def
/SCS {setcolorspace} def
/FFSF {findfont setfont} def
/CC {concat} def
/PXL {n m 0 0 RL s} def
/Color0 {1.0000 1.0000 1.0000} def
/Color1 {0.0000 0.0000 0.0000} def
/Color2 {1.0000 0.0000 0.0000} def
/Color3 {0.0000 1.0000 0.0000} def
/Color4 {0.0000 0.0000 1.0000} def
/Color5 {1.0000 1.0000 0.0000} def
/Color6 {0.7373 0.5608 0.5608} def
/Color7 {0.8627 0.8627 0.8627} def
/Color8 {0.5804 0.0000 0.8275} def
/Color9 {0.0000 1.0000 1.0000} def
/Color10 {1.0000 0.0000 1.0000} def
/Color11 {1.0000 0.6471 0.0000} def
/Color12 {0.4471 0.1294 0.7373} def
/Color13 {0.4039 0.0275 0.2824} def
/Color14 {0.2510 0.8784 0.8157} def
/Color15 {0.0000 0.5451 0.0000} def
/Color16 {0.7529 0.7529 0.7529} def
/Color17 {0.5059 0.5059 0.5059} def
/Color18 {0.2588 0.2588 0.2588} def
/PTRN {
 /pat_bits exch def 
 <<
  /PaintType 2
  /PatternType 1 /TilingType 1
  /BBox[0 0 16 16]
  /XStep 16 /YStep 16
  /PaintProc {
   pop
   16 16 true [-1 0 0 -1 16 16] pat_bits imagemask
  }
 >>
 [0.0016 0 0 0.0016 0 0]
 makepattern
} def
/Pattern0 {<0000000000000000000000000000000000000000000000000000000000000000> PTRN} bind def
/Pattern1 {<ffffffffffffffffffffffffffffffffffffffffffffffffffffffffffffffff> PTRN} bind def
/Pattern2 {<eeeeffffbbbbffffeeeeffffbbbbffffeeeeffffbbbbffffeeeeffffbbbbffff> PTRN} bind def
/Pattern3 {<eeeebbbbeeeebbbbeeeebbbbeeeebbbbeeeebbbbeeeebbbbeeeebbbbeeeebbbb> PTRN} bind def
/Pattern4 {<5555aaaa5555aaaa5555aaaa5555aaaa5555aaaa5555aaaa5555aaaa5555aaaa> PTRN} bind def
/Pattern5 {<1111444411114444111144441111444411114444111144441111444411114444> PTRN} bind def
/Pattern6 {<1111000044440000111100004444000011110000444400001111000044440000> PTRN} bind def
/Pattern7 {<1010000000000000010100000000000010100000000000000101000000000000> PTRN} bind def
/Pattern8 {<0000000000000000000000000000000000000000000000000000000000000000> PTRN} bind def
/Pattern9 {<1e1e0f0f8787c3c3e1e1f0f078783c3c1e1e0f0f8787c3c3e1e1f0f078783c3c> PTRN} bind def
/Pattern10 {<7878f0f0e1e1c3c387870f0f1e1e3c3c7878f0f0e1e1c3c387870f0f1e1e3c3c> PTRN} bind def
/Pattern11 {<3333333333333333333333333333333333333333333333333333333333333333> PTRN} bind def
/Pattern12 {<ffffffff00000000ffffffff00000000ffffffff00000000ffffffff00000000> PTRN} bind def
/Pattern13 {<8181424224241818181824244242818181814242242418181818242442428181> PTRN} bind def
/Pattern14 {<8080404020201010080804040202010180804040202010100808040402020101> PTRN} bind def
/Pattern15 {<0101020204040808101020204040808001010202040408081010202040408080> PTRN} bind def
/Pattern16 {<2222222222222222222222222222222222222222222222222222222222222222> PTRN} bind def
/Pattern17 {<0000ffff000000000000ffff000000000000ffff000000000000ffff00000000> PTRN} bind def
/Pattern18 {<2222ffff222222222222ffff222222222222ffff222222222222ffff22222222> PTRN} bind def
/Pattern19 {<ffffffff33333333ffffffff33333333ffffffff33333333ffffffff33333333> PTRN} bind def
/Pattern20 {<0f0f0f0f0f0f0f0ff0f0f0f0f0f0f0f00f0f0f0f0f0f0f0ff0f0f0f0f0f0f0f0> PTRN} bind def
/Pattern21 {<ff00ff00ff00ff00ff00ff00ff00ff0000ff00ff00ff00ff00ff00ff00ff00ff> PTRN} bind def
/Pattern22 {<8001800180018001800180018001ffffffff8001800180018001800180018001> PTRN} bind def
/Pattern23 {<c003c003c003c003c003c003ffffffffffffffffc003c003c003c003c003c003> PTRN} bind def
/Pattern24 {<040404040404ffff404040404040ffff040404040404ffff404040404040ffff> PTRN} bind def
/Pattern25 {<180018001800180018001800ffffffff001800180018001800180018ffffffff> PTRN} bind def
/Pattern26 {<1111b8b87c7c3a3a1111a3a3c7c78b8b1111b8b87c7c3a3a1111a3a3c7c78b8b> PTRN} bind def
/Pattern27 {<101010102828c7c70101010182827c7c101010102828c7c70101010182827c7c> PTRN} bind def
/Pattern28 {<1c1c121211112121c1c12121111112121c1c121211112121c1c1212111111212> PTRN} bind def
/Pattern29 {<3e3e414180808080e3e31414080808083e3e414180808080e3e3141408080808> PTRN} bind def
/Pattern30 {<4848888884848383848488884848383848488888848483838484888848483838> PTRN} bind def
/Pattern31 {<03030404080808080c0c12122121c0c003030404080808080c0c12122121c0c0> PTRN} bind def
/ellipsedict 8 dict def
ellipsedict /mtrx matrix put
/EARC {
 ellipsedict begin
  /endangle exch def
  /startangle exch def
  /yrad exch def
  /xrad exch def
  /y exch def
  /x exch def
  /savematrix mtrx currentmatrix def
  x y translate
  xrad yrad scale
  0 0 1 startangle endangle arc
  savematrix setmatrix
 end
} def
/TL {
  /kcomp exch def
  /linewidth exch def
  /offset exch def
  GS
  0 offset rmoveto
  linewidth SLW
  dup stringwidth exch kcomp add exch RL s
  GR
} def
/KINIT
{
 /kvector exch def
 /kid 0 def
} def
/KPROC
{
 pop pop
 kvector kid get
 0 rmoveto
 /kid 1 kid add def
} def
/DefEncoding [
 /.notdef
 /.notdef
 /.notdef
 /.notdef
 /.notdef
 /.notdef
 /.notdef
 /.notdef
 /.notdef
 /.notdef
 /.notdef
 /.notdef
 /.notdef
 /.notdef
 /.notdef
 /.notdef
 /.notdef
 /.notdef
 /.notdef
 /.notdef
 /.notdef
 /.notdef
 /.notdef
 /.notdef
 /.notdef
 /.notdef
 /.notdef
 /.notdef
 /.notdef
 /.notdef
 /.notdef
 /.notdef
 /space
 /exclam
 /quotedbl
 /numbersign
 /dollar
 /percent
 /ampersand
 /quoteright
 /parenleft
 /parenright
 /asterisk
 /plus
 /comma
 /hyphen
 /period
 /slash
 /zero
 /one
 /two
 /three
 /four
 /five
 /six
 /seven
 /eight
 /nine
 /colon
 /semicolon
 /less
 /equal
 /greater
 /question
 /at
 /A
 /B
 /C
 /D
 /E
 /F
 /G
 /H
 /I
 /J
 /K
 /L
 /M
 /N
 /O
 /P
 /Q
 /R
 /S
 /T
 /U
 /V
 /W
 /X
 /Y
 /Z
 /bracketleft
 /backslash
 /bracketright
 /asciicircum
 /underscore
 /grave
 /a
 /b
 /c
 /d
 /e
 /f
 /g
 /h
 /i
 /j
 /k
 /l
 /m
 /n
 /o
 /p
 /q
 /r
 /s
 /t
 /u
 /v
 /w
 /x
 /y
 /z
 /braceleft
 /bar
 /braceright
 /asciitilde
 /.notdef
 /.notdef
 /.notdef
 /.notdef
 /.notdef
 /.notdef
 /.notdef
 /.notdef
 /.notdef
 /.notdef
 /.notdef
 /.notdef
 /.notdef
 /.notdef
 /.notdef
 /.notdef
 /.notdef
 /.notdef
 /.notdef
 /.notdef
 /.notdef
 /.notdef
 /.notdef
 /.notdef
 /.notdef
 /.notdef
 /.notdef
 /.notdef
 /.notdef
 /.notdef
 /.notdef
 /.notdef
 /.notdef
 /space
 /exclamdown
 /cent
 /sterling
 /currency
 /yen
 /brokenbar
 /section
 /dieresis
 /copyright
 /ordfeminine
 /guillemotleft
 /logicalnot
 /hyphen
 /registered
 /macron
 /degree
 /plusminus
 /twosuperior
 /threesuperior
 /acute
 /mu
 /paragraph
 /periodcentered
 /cedilla
 /onesuperior
 /ordmasculine
 /guillemotright
 /onequarter
 /onehalf
 /threequarters
 /questiondown
 /Agrave
 /Aacute
 /Acircumflex
 /Atilde
 /Adieresis
 /Aring
 /AE
 /Ccedilla
 /Egrave
 /Eacute
 /Ecircumflex
 /Edieresis
 /Igrave
 /Iacute
 /Icircumflex
 /Idieresis
 /Eth
 /Ntilde
 /Ograve
 /Oacute
 /Ocircumflex
 /Otilde
 /Odieresis
 /multiply
 /Oslash
 /Ugrave
 /Uacute
 /Ucircumflex
 /Udieresis
 /Yacute
 /Thorn
 /germandbls
 /agrave
 /aacute
 /acircumflex
 /atilde
 /adieresis
 /aring
 /ae
 /ccedilla
 /egrave
 /eacute
 /ecircumflex
 /edieresis
 /igrave
 /iacute
 /icircumflex
 /idieresis
 /eth
 /ntilde
 /ograve
 /oacute
 /ocircumflex
 /otilde
 /odieresis
 /divide
 /oslash
 /ugrave
 /uacute
 /ucircumflex
 /udieresis
 /yacute
 /thorn
 /ydieresis
] def
%%EndProlog
%%BeginSetup
%%EndSetup
612.00 612.00 scale
n
0.0000 0.0000 m
0.0000 1.0000 l
1.2941 1.0000 l
1.2941 0.0000 l
c
[/DeviceRGB] SCS
Color0 SC
fill
[/DeviceRGB] SCS
Color1 SC
[] 0 SD
0.0037 SLW
0 SLC
0 SLJ
n
0.1862 0.1782 m
0.3741 0.1903 l
0.5620 0.2018 l
0.7499 0.2109 l
0.9378 0.2178 l
1.1257 0.2191 l
s
n
0.1862 0.1782 0.0100 0.0100 0 360 EARC c
fill
[] 0 SD
0.0015 SLW
n 0.1862 0.1782 0.0100 0.0100 0 360 EARC s
n
0.3741 0.1903 0.0100 0.0100 0 360 EARC c
fill
n 0.3741 0.1903 0.0100 0.0100 0 360 EARC s
n
0.5620 0.2018 0.0100 0.0100 0 360 EARC c
fill
n 0.5620 0.2018 0.0100 0.0100 0 360 EARC s
n
0.7499 0.2109 0.0100 0.0100 0 360 EARC c
fill
n 0.7499 0.2109 0.0100 0.0100 0 360 EARC s
n
0.9378 0.2178 0.0100 0.0100 0 360 EARC c
fill
n 0.9378 0.2178 0.0100 0.0100 0 360 EARC s
n
1.1257 0.2191 0.0100 0.0100 0 360 EARC c
fill
n 1.1257 0.2191 0.0100 0.0100 0 360 EARC s
[/DeviceRGB] SCS
Color4 SC
[0.0187 0.0112 ] 0 SD
0.0037 SLW
n
0.1862 0.3049 m
0.3741 0.4242 l
0.5620 0.5300 l
0.7499 0.5951 l
0.9378 0.6304 l
1.1257 0.6186 l
s
n
0.1777 0.2964 m
0.1777 0.3134 l
0.1947 0.3134 l
0.1947 0.2964 l
c
fill
[] 0 SD
0.0015 SLW
n
0.1777 0.2964 m
0.1777 0.3134 l
0.1947 0.3134 l
0.1947 0.2964 l
0.1777 0.2964 l
c
s
n
0.3656 0.4157 m
0.3656 0.4327 l
0.3826 0.4327 l
0.3826 0.4157 l
c
fill
n
0.3656 0.4157 m
0.3656 0.4327 l
0.3826 0.4327 l
0.3826 0.4157 l
0.3656 0.4157 l
c
s
n
0.5535 0.5215 m
0.5535 0.5385 l
0.5705 0.5385 l
0.5705 0.5215 l
c
fill
n
0.5535 0.5215 m
0.5535 0.5385 l
0.5705 0.5385 l
0.5705 0.5215 l
0.5535 0.5215 l
c
s
n
0.7414 0.5866 m
0.7414 0.6036 l
0.7584 0.6036 l
0.7584 0.5866 l
c
fill
n
0.7414 0.5866 m
0.7414 0.6036 l
0.7584 0.6036 l
0.7584 0.5866 l
0.7414 0.5866 l
c
s
n
0.9293 0.6219 m
0.9293 0.6389 l
0.9463 0.6389 l
0.9463 0.6219 l
c
fill
n
0.9293 0.6219 m
0.9293 0.6389 l
0.9463 0.6389 l
0.9463 0.6219 l
0.9293 0.6219 l
c
s
n
1.1172 0.6101 m
1.1172 0.6271 l
1.1342 0.6271 l
1.1342 0.6101 l
c
fill
n
1.1172 0.6101 m
1.1172 0.6271 l
1.1342 0.6271 l
1.1342 0.6101 l
1.1172 0.6101 l
c
s
[/DeviceRGB] SCS
Color2 SC
[0.0053 0.0158 ] 0 SD
0.0053 SLW
n
0.1862 0.4025 m
0.3741 0.4783 l
0.5620 0.5734 l
0.7499 0.6736 l
0.9378 0.6886 l
1.1257 0.6787 l
s
n
0.1862 0.4125 m
0.1762 0.4025 l
0.1862 0.3925 l
0.1962 0.4025 l
c
fill
[] 0 SD
0.0015 SLW
n
0.1862 0.4125 m
0.1762 0.4025 l
0.1862 0.3925 l
0.1962 0.4025 l
0.1862 0.4125 l
c
s
n
0.3741 0.4883 m
0.3641 0.4783 l
0.3741 0.4683 l
0.3841 0.4783 l
c
fill
n
0.3741 0.4883 m
0.3641 0.4783 l
0.3741 0.4683 l
0.3841 0.4783 l
0.3741 0.4883 l
c
s
n
0.5620 0.5834 m
0.5520 0.5734 l
0.5620 0.5634 l
0.5720 0.5734 l
c
fill
n
0.5620 0.5834 m
0.5520 0.5734 l
0.5620 0.5634 l
0.5720 0.5734 l
0.5620 0.5834 l
c
s
n
0.7499 0.6836 m
0.7399 0.6736 l
0.7499 0.6636 l
0.7599 0.6736 l
c
fill
n
0.7499 0.6836 m
0.7399 0.6736 l
0.7499 0.6636 l
0.7599 0.6736 l
0.7499 0.6836 l
c
s
n
0.9378 0.6986 m
0.9278 0.6886 l
0.9378 0.6786 l
0.9478 0.6886 l
c
fill
n
0.9378 0.6986 m
0.9278 0.6886 l
0.9378 0.6786 l
0.9478 0.6886 l
0.9378 0.6986 l
c
s
n
1.1257 0.6887 m
1.1157 0.6787 l
1.1257 0.6687 l
1.1357 0.6787 l
c
fill
n
1.1257 0.6887 m
1.1157 0.6787 l
1.1257 0.6687 l
1.1357 0.6787 l
1.1257 0.6887 l
c
s
[/DeviceRGB] SCS
Color1 SC
n
0.1500 0.1500 m
1.1500 0.1500 l
s
n
0.1500 0.8500 m
1.1500 0.8500 l
s
n
0.1862 0.1500 m
0.1862 0.1600 l
s
n
0.1862 0.8500 m
0.1862 0.8400 l
s
n
0.2961 0.1500 m
0.2961 0.1600 l
s
n
0.2961 0.8500 m
0.2961 0.8400 l
s
n
0.3741 0.1500 m
0.3741 0.1600 l
s
n
0.3741 0.8500 m
0.3741 0.8400 l
s
n
0.4346 0.1500 m
0.4346 0.1600 l
s
n
0.4346 0.8500 m
0.4346 0.8400 l
s
n
0.4840 0.1500 m
0.4840 0.1600 l
s
n
0.4840 0.8500 m
0.4840 0.8400 l
s
n
0.5258 0.1500 m
0.5258 0.1600 l
s
n
0.5258 0.8500 m
0.5258 0.8400 l
s
n
0.5620 0.1500 m
0.5620 0.1600 l
s
n
0.5620 0.8500 m
0.5620 0.8400 l
s
n
0.5939 0.1500 m
0.5939 0.1600 l
s
n
0.5939 0.8500 m
0.5939 0.8400 l
s
n
0.6225 0.1500 m
0.6225 0.1600 l
s
n
0.6225 0.8500 m
0.6225 0.8400 l
s
n
0.3741 0.1500 m
0.3741 0.1600 l
s
n
0.3741 0.8500 m
0.3741 0.8400 l
s
n
0.4840 0.1500 m
0.4840 0.1600 l
s
n
0.4840 0.8500 m
0.4840 0.8400 l
s
n
0.5620 0.1500 m
0.5620 0.1600 l
s
n
0.5620 0.8500 m
0.5620 0.8400 l
s
n
0.6225 0.1500 m
0.6225 0.1600 l
s
n
0.6225 0.8500 m
0.6225 0.8400 l
s
n
0.6719 0.1500 m
0.6719 0.1600 l
s
n
0.6719 0.8500 m
0.6719 0.8400 l
s
n
0.7137 0.1500 m
0.7137 0.1600 l
s
n
0.7137 0.8500 m
0.7137 0.8400 l
s
n
0.7499 0.1500 m
0.7499 0.1600 l
s
n
0.7499 0.8500 m
0.7499 0.8400 l
s
n
0.7818 0.1500 m
0.7818 0.1600 l
s
n
0.7818 0.8500 m
0.7818 0.8400 l
s
n
0.8104 0.1500 m
0.8104 0.1600 l
s
n
0.8104 0.8500 m
0.8104 0.8400 l
s
n
0.5620 0.1500 m
0.5620 0.1600 l
s
n
0.5620 0.8500 m
0.5620 0.8400 l
s
n
0.6719 0.1500 m
0.6719 0.1600 l
s
n
0.6719 0.8500 m
0.6719 0.8400 l
s
n
0.7499 0.1500 m
0.7499 0.1600 l
s
n
0.7499 0.8500 m
0.7499 0.8400 l
s
n
0.8104 0.1500 m
0.8104 0.1600 l
s
n
0.8104 0.8500 m
0.8104 0.8400 l
s
n
0.8598 0.1500 m
0.8598 0.1600 l
s
n
0.8598 0.8500 m
0.8598 0.8400 l
s
n
0.9016 0.1500 m
0.9016 0.1600 l
s
n
0.9016 0.8500 m
0.9016 0.8400 l
s
n
0.9378 0.1500 m
0.9378 0.1600 l
s
n
0.9378 0.8500 m
0.9378 0.8400 l
s
n
0.9697 0.1500 m
0.9697 0.1600 l
s
n
0.9697 0.8500 m
0.9697 0.8400 l
s
n
0.9983 0.1500 m
0.9983 0.1600 l
s
n
0.9983 0.8500 m
0.9983 0.8400 l
s
n
0.7499 0.1500 m
0.7499 0.1600 l
s
n
0.7499 0.8500 m
0.7499 0.8400 l
s
n
0.8598 0.1500 m
0.8598 0.1600 l
s
n
0.8598 0.8500 m
0.8598 0.8400 l
s
n
0.9378 0.1500 m
0.9378 0.1600 l
s
n
0.9378 0.8500 m
0.9378 0.8400 l
s
n
0.9983 0.1500 m
0.9983 0.1600 l
s
n
0.9983 0.8500 m
0.9983 0.8400 l
s
n
1.0477 0.1500 m
1.0477 0.1600 l
s
n
1.0477 0.8500 m
1.0477 0.8400 l
s
n
1.0895 0.1500 m
1.0895 0.1600 l
s
n
1.0895 0.8500 m
1.0895 0.8400 l
s
n
1.1257 0.1500 m
1.1257 0.1600 l
s
n
1.1257 0.8500 m
1.1257 0.8400 l
s
n
0.9378 0.1500 m
0.9378 0.1600 l
s
n
0.9378 0.8500 m
0.9378 0.8400 l
s
n
1.0477 0.1500 m
1.0477 0.1600 l
s
n
1.0477 0.8500 m
1.0477 0.8400 l
s
n
1.1257 0.1500 m
1.1257 0.1600 l
s
n
1.1257 0.8500 m
1.1257 0.8400 l
s
n
1.1257 0.1500 m
1.1257 0.1600 l
s
n
1.1257 0.8500 m
1.1257 0.8400 l
s
n
0.1862 0.1500 m
0.1862 0.1700 l
s
n
0.1862 0.8500 m
0.1862 0.8300 l
s
n
0.3741 0.1500 m
0.3741 0.1700 l
s
n
0.3741 0.8500 m
0.3741 0.8300 l
s
n
0.5620 0.1500 m
0.5620 0.1700 l
s
n
0.5620 0.8500 m
0.5620 0.8300 l
s
n
0.7499 0.1500 m
0.7499 0.1700 l
s
n
0.7499 0.8500 m
0.7499 0.8300 l
s
n
0.9378 0.1500 m
0.9378 0.1700 l
s
n
0.9378 0.8500 m
0.9378 0.8300 l
s
n
1.1257 0.1500 m
1.1257 0.1700 l
s
n
1.1257 0.8500 m
1.1257 0.8300 l
s
/Times-Roman findfont
dup length dict begin
 {1 index /FID ne {def} {pop pop} ifelse} forall
 /Encoding DefEncoding def
 currentdict
end
/Font35 exch definefont pop
/Font35 FFSF
0.1776 0.1153 m
GS
[0.0367 0.0000 0.0000 0.0367 0 0] CC
(2) show
GR
/Font35 FFSF
0.3655 0.1153 m
GS
[0.0367 0.0000 0.0000 0.0367 0 0] CC
(4) show
GR
/Font35 FFSF
0.5538 0.1153 m
GS
[0.0367 0.0000 0.0000 0.0367 0 0] CC
(8) show
GR
/Font35 FFSF
0.7321 0.1149 m
GS
[0.0367 0.0000 0.0000 0.0367 0 0] CC
(16) show
GR
/Font35 FFSF
0.9200 0.1153 m
GS
[0.0367 0.0000 0.0000 0.0367 0 0] CC
(32) show
GR
/Font35 FFSF
1.1079 0.1149 m
GS
[0.0367 0.0000 0.0000 0.0367 0 0] CC
(64) show
GR
/Font35 FFSF
0.5733 0.0794 m
GS
[0.0367 0.0000 0.0000 0.0367 0 0] CC
(Block size) show
GR
n
0.1500 0.1500 m
0.1500 0.8500 l
s
n
1.1500 0.1500 m
1.1500 0.8500 l
s
n
0.1500 0.1880 m
0.1600 0.1880 l
s
n
1.1500 0.1880 m
1.1400 0.1880 l
s
n
0.1500 0.2641 m
0.1600 0.2641 l
s
n
1.1500 0.2641 m
1.1400 0.2641 l
s
n
0.1500 0.3402 m
0.1600 0.3402 l
s
n
1.1500 0.3402 m
1.1400 0.3402 l
s
n
0.1500 0.4163 m
0.1600 0.4163 l
s
n
1.1500 0.4163 m
1.1400 0.4163 l
s
n
0.1500 0.4924 m
0.1600 0.4924 l
s
n
1.1500 0.4924 m
1.1400 0.4924 l
s
n
0.1500 0.5685 m
0.1600 0.5685 l
s
n
1.1500 0.5685 m
1.1400 0.5685 l
s
n
0.1500 0.6446 m
0.1600 0.6446 l
s
n
1.1500 0.6446 m
1.1400 0.6446 l
s
n
0.1500 0.7207 m
0.1600 0.7207 l
s
n
1.1500 0.7207 m
1.1400 0.7207 l
s
n
0.1500 0.7967 m
0.1600 0.7967 l
s
n
1.1500 0.7967 m
1.1400 0.7967 l
s
n
0.1500 0.1500 m
0.1700 0.1500 l
s
n
1.1500 0.1500 m
1.1300 0.1500 l
s
n
0.1500 0.2261 m
0.1700 0.2261 l
s
n
1.1500 0.2261 m
1.1300 0.2261 l
s
n
0.1500 0.3022 m
0.1700 0.3022 l
s
n
1.1500 0.3022 m
1.1300 0.3022 l
s
n
0.1500 0.3783 m
0.1700 0.3783 l
s
n
1.1500 0.3783 m
1.1300 0.3783 l
s
n
0.1500 0.4543 m
0.1700 0.4543 l
s
n
1.1500 0.4543 m
1.1300 0.4543 l
s
n
0.1500 0.5304 m
0.1700 0.5304 l
s
n
1.1500 0.5304 m
1.1300 0.5304 l
s
n
0.1500 0.6065 m
0.1700 0.6065 l
s
n
1.1500 0.6065 m
1.1300 0.6065 l
s
n
0.1500 0.6826 m
0.1700 0.6826 l
s
n
1.1500 0.6826 m
1.1300 0.6826 l
s
n
0.1500 0.7587 m
0.1700 0.7587 l
s
n
1.1500 0.7587 m
1.1300 0.7587 l
s
n
0.1500 0.8348 m
0.1700 0.8348 l
s
n
1.1500 0.8348 m
1.1300 0.8348 l
s
/Font35 FFSF
0.1224 0.1378 m
GS
[0.0367 0.0000 0.0000 0.0367 0 0] CC
(0) show
GR
/Font35 FFSF
0.1239 0.2137 m
GS
[0.0367 0.0000 0.0000 0.0367 0 0] CC
(5) show
GR
/Font35 FFSF
0.1039 0.2900 m
GS
[0.0367 0.0000 0.0000 0.0367 0 0] CC
(10) show
GR
/Font35 FFSF
0.1055 0.3659 m
GS
[0.0367 0.0000 0.0000 0.0367 0 0] CC
(15) show
GR
/Font35 FFSF
0.1039 0.4422 m
GS
[0.0367 0.0000 0.0000 0.0367 0 0] CC
(20) show
GR
/Font35 FFSF
0.1055 0.5181 m
GS
[0.0367 0.0000 0.0000 0.0367 0 0] CC
(25) show
GR
/Font35 FFSF
0.1039 0.5944 m
GS
[0.0367 0.0000 0.0000 0.0367 0 0] CC
(30) show
GR
/Font35 FFSF
0.1055 0.6703 m
GS
[0.0367 0.0000 0.0000 0.0367 0 0] CC
(35) show
GR
/Font35 FFSF
0.1039 0.7465 m
GS
[0.0367 0.0000 0.0000 0.0367 0 0] CC
(40) show
GR
/Font35 FFSF
0.1055 0.8224 m
GS
[0.0367 0.0000 0.0000 0.0367 0 0] CC
(45) show
GR
/Font35 FFSF
0.0857 0.3441 m
GS
[0.0000 0.0367 -0.0367 0.0000 0 0] CC
(Throughput [GFlops]) show
GR
n
0.1500 0.1500 m
0.1500 0.8500 l
1.1500 0.8500 l
1.1500 0.1500 l
0.1500 0.1500 l
c
s
n
0.1800 0.8200 m
0.1800 0.6973 l
0.8162 0.6973 l
0.8162 0.8200 l
c
[/DeviceRGB] SCS
Color0 SC
fill
[/DeviceRGB] SCS
Color1 SC
n
0.1800 0.8200 m
0.1800 0.6973 l
0.8162 0.6973 l
0.8162 0.8200 l
0.1800 0.8200 l
c
s
/Font35 FFSF
0.2608 0.7849 m
GS
[0.0367 0.0000 0.0000 0.0367 0 0] CC
(CPU AMD FX 8150 \(8 threads\)) show
GR
[] 0 SD
0.0037 SLW
n
0.2008 0.7941 m
0.2408 0.7941 l
s
n
0.2008 0.7941 0.0100 0.0100 0 360 EARC c
fill
[] 0 SD
0.0015 SLW
n 0.2008 0.7941 0.0100 0.0100 0 360 EARC s
n
0.2408 0.7941 0.0100 0.0100 0 360 EARC c
fill
n 0.2408 0.7941 0.0100 0.0100 0 360 EARC s
/Font35 FFSF
0.2608 0.7431 m
GS
[0.0367 0.0000 0.0000 0.0367 0 0] CC
(GPU AMD/ATI RADEON HD 5870) show
GR
[/DeviceRGB] SCS
Color4 SC
[0.0187 0.0112 ] 0 SD
0.0037 SLW
n
0.2008 0.7555 m
0.2408 0.7555 l
s
n
0.1923 0.7470 m
0.1923 0.7640 l
0.2093 0.7640 l
0.2093 0.7470 l
c
fill
[] 0 SD
0.0015 SLW
n
0.1923 0.7470 m
0.1923 0.7640 l
0.2093 0.7640 l
0.2093 0.7470 l
0.1923 0.7470 l
c
s
n
0.2323 0.7470 m
0.2323 0.7640 l
0.2493 0.7640 l
0.2493 0.7470 l
c
fill
n
0.2323 0.7470 m
0.2323 0.7640 l
0.2493 0.7640 l
0.2493 0.7470 l
0.2323 0.7470 l
c
s
/Font35 FFSF
[/DeviceRGB] SCS
Color1 SC
0.2608 0.7076 m
GS
[0.0367 0.0000 0.0000 0.0367 0 0] CC
(GPU Nvidia GeForce GTX 480) show
GR
[/DeviceRGB] SCS
Color2 SC
[0.0053 0.0158 ] 0 SD
0.0053 SLW
n
0.2008 0.7200 m
0.2408 0.7200 l
s
n
0.2008 0.7300 m
0.1908 0.7200 l
0.2008 0.7100 l
0.2108 0.7200 l
c
fill
[] 0 SD
0.0015 SLW
n
0.2008 0.7300 m
0.1908 0.7200 l
0.2008 0.7100 l
0.2108 0.7200 l
0.2008 0.7300 l
c
s
n
0.2408 0.7300 m
0.2308 0.7200 l
0.2408 0.7100 l
0.2508 0.7200 l
c
fill
n
0.2408 0.7300 m
0.2308 0.7200 l
0.2408 0.7100 l
0.2508 0.7200 l
0.2408 0.7300 l
c
s
%%Trailer
%%BoundingBox: 36 47 706 522
%%DocumentNeededResources: font Times-Roman
%%EOF
