%!PS-Adobe-3.0 EPSF-3.0
%%BoundingBox: (atend)
%%LanguageLevel: 2
%%Creator: Grace-5.1.22
%%CreationDate: Wed Mar 28 12:02:37 2012
%%DocumentData: Clean8Bit
%%Orientation: Portrait
%%Title: groundstate2.agr
%%For: xavier
%%DocumentNeededResources: (atend)
%%EndComments
%%BeginProlog
/m {moveto} def
/l {lineto} def
/s {stroke} def
/n {newpath} def
/c {closepath} def
/RL {rlineto} def
/SLW {setlinewidth} def
/GS {gsave} def
/GR {grestore} def
/SC {setcolor} def
/SGRY {setgray} def
/SRGB {setrgbcolor} def
/SD {setdash} def
/SLC {setlinecap} def
/SLJ {setlinejoin} def
/SCS {setcolorspace} def
/FFSF {findfont setfont} def
/CC {concat} def
/PXL {n m 0 0 RL s} def
/Color0 {1.0000 1.0000 1.0000} def
/Color1 {0.0000 0.0000 0.0000} def
/Color2 {1.0000 0.0000 0.0000} def
/Color3 {0.0000 1.0000 0.0000} def
/Color4 {0.0000 0.0000 1.0000} def
/Color5 {1.0000 1.0000 0.0000} def
/Color6 {0.7373 0.5608 0.5608} def
/Color7 {0.8627 0.8627 0.8627} def
/Color8 {0.5804 0.0000 0.8275} def
/Color9 {0.0000 1.0000 1.0000} def
/Color10 {1.0000 0.0000 1.0000} def
/Color11 {1.0000 0.6471 0.0000} def
/Color12 {0.4471 0.1294 0.7373} def
/Color13 {0.4039 0.0275 0.2824} def
/Color14 {0.2510 0.8784 0.8157} def
/Color15 {0.0000 0.5451 0.0000} def
/Color16 {0.7529 0.7529 0.7529} def
/Color17 {0.5059 0.5059 0.5059} def
/Color18 {0.2588 0.2588 0.2588} def
/PTRN {
 /pat_bits exch def 
 <<
  /PaintType 2
  /PatternType 1 /TilingType 1
  /BBox[0 0 16 16]
  /XStep 16 /YStep 16
  /PaintProc {
   pop
   16 16 true [-1 0 0 -1 16 16] pat_bits imagemask
  }
 >>
 [0.0016 0 0 0.0016 0 0]
 makepattern
} def
/Pattern0 {<0000000000000000000000000000000000000000000000000000000000000000> PTRN} bind def
/Pattern1 {<ffffffffffffffffffffffffffffffffffffffffffffffffffffffffffffffff> PTRN} bind def
/Pattern2 {<eeeeffffbbbbffffeeeeffffbbbbffffeeeeffffbbbbffffeeeeffffbbbbffff> PTRN} bind def
/Pattern3 {<eeeebbbbeeeebbbbeeeebbbbeeeebbbbeeeebbbbeeeebbbbeeeebbbbeeeebbbb> PTRN} bind def
/Pattern4 {<5555aaaa5555aaaa5555aaaa5555aaaa5555aaaa5555aaaa5555aaaa5555aaaa> PTRN} bind def
/Pattern5 {<1111444411114444111144441111444411114444111144441111444411114444> PTRN} bind def
/Pattern6 {<1111000044440000111100004444000011110000444400001111000044440000> PTRN} bind def
/Pattern7 {<1010000000000000010100000000000010100000000000000101000000000000> PTRN} bind def
/Pattern8 {<0000000000000000000000000000000000000000000000000000000000000000> PTRN} bind def
/Pattern9 {<1e1e0f0f8787c3c3e1e1f0f078783c3c1e1e0f0f8787c3c3e1e1f0f078783c3c> PTRN} bind def
/Pattern10 {<7878f0f0e1e1c3c387870f0f1e1e3c3c7878f0f0e1e1c3c387870f0f1e1e3c3c> PTRN} bind def
/Pattern11 {<3333333333333333333333333333333333333333333333333333333333333333> PTRN} bind def
/Pattern12 {<ffffffff00000000ffffffff00000000ffffffff00000000ffffffff00000000> PTRN} bind def
/Pattern13 {<8181424224241818181824244242818181814242242418181818242442428181> PTRN} bind def
/Pattern14 {<8080404020201010080804040202010180804040202010100808040402020101> PTRN} bind def
/Pattern15 {<0101020204040808101020204040808001010202040408081010202040408080> PTRN} bind def
/Pattern16 {<2222222222222222222222222222222222222222222222222222222222222222> PTRN} bind def
/Pattern17 {<0000ffff000000000000ffff000000000000ffff000000000000ffff00000000> PTRN} bind def
/Pattern18 {<2222ffff222222222222ffff222222222222ffff222222222222ffff22222222> PTRN} bind def
/Pattern19 {<ffffffff33333333ffffffff33333333ffffffff33333333ffffffff33333333> PTRN} bind def
/Pattern20 {<0f0f0f0f0f0f0f0ff0f0f0f0f0f0f0f00f0f0f0f0f0f0f0ff0f0f0f0f0f0f0f0> PTRN} bind def
/Pattern21 {<ff00ff00ff00ff00ff00ff00ff00ff0000ff00ff00ff00ff00ff00ff00ff00ff> PTRN} bind def
/Pattern22 {<8001800180018001800180018001ffffffff8001800180018001800180018001> PTRN} bind def
/Pattern23 {<c003c003c003c003c003c003ffffffffffffffffc003c003c003c003c003c003> PTRN} bind def
/Pattern24 {<040404040404ffff404040404040ffff040404040404ffff404040404040ffff> PTRN} bind def
/Pattern25 {<180018001800180018001800ffffffff001800180018001800180018ffffffff> PTRN} bind def
/Pattern26 {<1111b8b87c7c3a3a1111a3a3c7c78b8b1111b8b87c7c3a3a1111a3a3c7c78b8b> PTRN} bind def
/Pattern27 {<101010102828c7c70101010182827c7c101010102828c7c70101010182827c7c> PTRN} bind def
/Pattern28 {<1c1c121211112121c1c12121111112121c1c121211112121c1c1212111111212> PTRN} bind def
/Pattern29 {<3e3e414180808080e3e31414080808083e3e414180808080e3e3141408080808> PTRN} bind def
/Pattern30 {<4848888884848383848488884848383848488888848483838484888848483838> PTRN} bind def
/Pattern31 {<03030404080808080c0c12122121c0c003030404080808080c0c12122121c0c0> PTRN} bind def
/ellipsedict 8 dict def
ellipsedict /mtrx matrix put
/EARC {
 ellipsedict begin
  /endangle exch def
  /startangle exch def
  /yrad exch def
  /xrad exch def
  /y exch def
  /x exch def
  /savematrix mtrx currentmatrix def
  x y translate
  xrad yrad scale
  0 0 1 startangle endangle arc
  savematrix setmatrix
 end
} def
/TL {
  /kcomp exch def
  /linewidth exch def
  /offset exch def
  GS
  0 offset rmoveto
  linewidth SLW
  dup stringwidth exch kcomp add exch RL s
  GR
} def
/KINIT
{
 /kvector exch def
 /kid 0 def
} def
/KPROC
{
 pop pop
 kvector kid get
 0 rmoveto
 /kid 1 kid add def
} def
/DefEncoding [
 /.notdef
 /.notdef
 /.notdef
 /.notdef
 /.notdef
 /.notdef
 /.notdef
 /.notdef
 /.notdef
 /.notdef
 /.notdef
 /.notdef
 /.notdef
 /.notdef
 /.notdef
 /.notdef
 /.notdef
 /.notdef
 /.notdef
 /.notdef
 /.notdef
 /.notdef
 /.notdef
 /.notdef
 /.notdef
 /.notdef
 /.notdef
 /.notdef
 /.notdef
 /.notdef
 /.notdef
 /.notdef
 /space
 /exclam
 /quotedbl
 /numbersign
 /dollar
 /percent
 /ampersand
 /quoteright
 /parenleft
 /parenright
 /asterisk
 /plus
 /comma
 /hyphen
 /period
 /slash
 /zero
 /one
 /two
 /three
 /four
 /five
 /six
 /seven
 /eight
 /nine
 /colon
 /semicolon
 /less
 /equal
 /greater
 /question
 /at
 /A
 /B
 /C
 /D
 /E
 /F
 /G
 /H
 /I
 /J
 /K
 /L
 /M
 /N
 /O
 /P
 /Q
 /R
 /S
 /T
 /U
 /V
 /W
 /X
 /Y
 /Z
 /bracketleft
 /backslash
 /bracketright
 /asciicircum
 /underscore
 /grave
 /a
 /b
 /c
 /d
 /e
 /f
 /g
 /h
 /i
 /j
 /k
 /l
 /m
 /n
 /o
 /p
 /q
 /r
 /s
 /t
 /u
 /v
 /w
 /x
 /y
 /z
 /braceleft
 /bar
 /braceright
 /asciitilde
 /.notdef
 /.notdef
 /.notdef
 /.notdef
 /.notdef
 /.notdef
 /.notdef
 /.notdef
 /.notdef
 /.notdef
 /.notdef
 /.notdef
 /.notdef
 /.notdef
 /.notdef
 /.notdef
 /.notdef
 /.notdef
 /.notdef
 /.notdef
 /.notdef
 /.notdef
 /.notdef
 /.notdef
 /.notdef
 /.notdef
 /.notdef
 /.notdef
 /.notdef
 /.notdef
 /.notdef
 /.notdef
 /.notdef
 /space
 /exclamdown
 /cent
 /sterling
 /currency
 /yen
 /brokenbar
 /section
 /dieresis
 /copyright
 /ordfeminine
 /guillemotleft
 /logicalnot
 /hyphen
 /registered
 /macron
 /degree
 /plusminus
 /twosuperior
 /threesuperior
 /acute
 /mu
 /paragraph
 /periodcentered
 /cedilla
 /onesuperior
 /ordmasculine
 /guillemotright
 /onequarter
 /onehalf
 /threequarters
 /questiondown
 /Agrave
 /Aacute
 /Acircumflex
 /Atilde
 /Adieresis
 /Aring
 /AE
 /Ccedilla
 /Egrave
 /Eacute
 /Ecircumflex
 /Edieresis
 /Igrave
 /Iacute
 /Icircumflex
 /Idieresis
 /Eth
 /Ntilde
 /Ograve
 /Oacute
 /Ocircumflex
 /Otilde
 /Odieresis
 /multiply
 /Oslash
 /Ugrave
 /Uacute
 /Ucircumflex
 /Udieresis
 /Yacute
 /Thorn
 /germandbls
 /agrave
 /aacute
 /acircumflex
 /atilde
 /adieresis
 /aring
 /ae
 /ccedilla
 /egrave
 /eacute
 /ecircumflex
 /edieresis
 /igrave
 /iacute
 /icircumflex
 /idieresis
 /eth
 /ntilde
 /ograve
 /oacute
 /ocircumflex
 /otilde
 /odieresis
 /divide
 /oslash
 /ugrave
 /uacute
 /ucircumflex
 /udieresis
 /yacute
 /thorn
 /ydieresis
] def
%%EndProlog
%%BeginSetup
%%EndSetup
612.00 612.00 scale
n
0.0000 0.0000 m
0.0000 1.0000 l
1.2941 1.0000 l
1.2941 0.0000 l
c
[/DeviceRGB] SCS
Color0 SC
fill
[/DeviceRGB] SCS
Color11 SC
[] 0 SD
0.0037 SLW
0 SLC
0 SLJ
n
0.1510 0.1629 m
0.2481 0.2297 l
0.3452 0.2965 l
0.4423 0.3632 l
0.5394 0.4300 l
0.6365 0.4968 l
0.7336 0.5636 l
0.8307 0.6304 l
0.9278 0.6972 l
1.0250 0.7640 l
1.1221 0.8308 l
s
[/DeviceRGB] SCS
Color1 SC
[] 0 SD
0.0045 SLW
n
0.1510 0.1629 m
0.2481 0.2275 l
0.3452 0.2906 l
0.4423 0.3521 l
0.5394 0.4067 l
0.6365 0.4593 l
0.7336 0.5044 l
0.8307 0.5362 l
0.9278 0.5600 l
1.0250 0.5798 l
1.1221 0.5602 l
s
n
0.1510 0.1629 0.0100 0.0100 0 360 EARC c
fill
[] 0 SD
0.0015 SLW
n 0.1510 0.1629 0.0100 0.0100 0 360 EARC s
n
0.2481 0.2275 0.0100 0.0100 0 360 EARC c
fill
n 0.2481 0.2275 0.0100 0.0100 0 360 EARC s
n
0.3452 0.2906 0.0100 0.0100 0 360 EARC c
fill
n 0.3452 0.2906 0.0100 0.0100 0 360 EARC s
n
0.4423 0.3521 0.0100 0.0100 0 360 EARC c
fill
n 0.4423 0.3521 0.0100 0.0100 0 360 EARC s
n
0.5394 0.4067 0.0100 0.0100 0 360 EARC c
fill
n 0.5394 0.4067 0.0100 0.0100 0 360 EARC s
n
0.6365 0.4593 0.0100 0.0100 0 360 EARC c
fill
n 0.6365 0.4593 0.0100 0.0100 0 360 EARC s
n
0.7336 0.5044 0.0100 0.0100 0 360 EARC c
fill
n 0.7336 0.5044 0.0100 0.0100 0 360 EARC s
n
0.8307 0.5362 0.0100 0.0100 0 360 EARC c
fill
n 0.8307 0.5362 0.0100 0.0100 0 360 EARC s
n
0.9278 0.5600 0.0100 0.0100 0 360 EARC c
fill
n 0.9278 0.5600 0.0100 0.0100 0 360 EARC s
n
1.0250 0.5798 0.0100 0.0100 0 360 EARC c
fill
n 1.0250 0.5798 0.0100 0.0100 0 360 EARC s
n
1.1221 0.5602 0.0100 0.0100 0 360 EARC c
fill
n 1.1221 0.5602 0.0100 0.0100 0 360 EARC s
[/DeviceRGB] SCS
Color4 SC
[0.0225 0.0135 ] 0 SD
0.0045 SLW
n
0.4423 0.3632 m
0.5394 0.4226 l
0.6365 0.4818 l
0.7336 0.5325 l
0.8307 0.5731 l
0.9278 0.6060 l
1.0250 0.6254 l
1.1221 0.6337 l
s
n
0.4338 0.3547 m
0.4338 0.3717 l
0.4508 0.3717 l
0.4508 0.3547 l
c
fill
[] 0 SD
0.0015 SLW
n
0.4338 0.3547 m
0.4338 0.3717 l
0.4508 0.3717 l
0.4508 0.3547 l
0.4338 0.3547 l
c
s
n
0.5309 0.4141 m
0.5309 0.4311 l
0.5479 0.4311 l
0.5479 0.4141 l
c
fill
n
0.5309 0.4141 m
0.5309 0.4311 l
0.5479 0.4311 l
0.5479 0.4141 l
0.5309 0.4141 l
c
s
n
0.6280 0.4733 m
0.6280 0.4903 l
0.6450 0.4903 l
0.6450 0.4733 l
c
fill
n
0.6280 0.4733 m
0.6280 0.4903 l
0.6450 0.4903 l
0.6450 0.4733 l
0.6280 0.4733 l
c
s
n
0.7251 0.5240 m
0.7251 0.5410 l
0.7421 0.5410 l
0.7421 0.5240 l
c
fill
n
0.7251 0.5240 m
0.7251 0.5410 l
0.7421 0.5410 l
0.7421 0.5240 l
0.7251 0.5240 l
c
s
n
0.8222 0.5646 m
0.8222 0.5816 l
0.8392 0.5816 l
0.8392 0.5646 l
c
fill
n
0.8222 0.5646 m
0.8222 0.5816 l
0.8392 0.5816 l
0.8392 0.5646 l
0.8222 0.5646 l
c
s
n
0.9193 0.5975 m
0.9193 0.6145 l
0.9363 0.6145 l
0.9363 0.5975 l
c
fill
n
0.9193 0.5975 m
0.9193 0.6145 l
0.9363 0.6145 l
0.9363 0.5975 l
0.9193 0.5975 l
c
s
n
1.0165 0.6169 m
1.0165 0.6339 l
1.0335 0.6339 l
1.0335 0.6169 l
c
fill
n
1.0165 0.6169 m
1.0165 0.6339 l
1.0335 0.6339 l
1.0335 0.6169 l
1.0165 0.6169 l
c
s
n
1.1136 0.6252 m
1.1136 0.6422 l
1.1306 0.6422 l
1.1306 0.6252 l
c
fill
n
1.1136 0.6252 m
1.1136 0.6422 l
1.1306 0.6422 l
1.1306 0.6252 l
1.1136 0.6252 l
c
s
[/DeviceRGB] SCS
Color1 SC
n
0.1500 0.1500 m
1.1500 0.1500 l
s
n
0.1500 0.8500 m
1.1500 0.8500 l
s
n
0.1510 0.1500 m
0.1510 0.1600 l
s
n
0.1510 0.8500 m
0.1510 0.8400 l
s
n
0.2078 0.1500 m
0.2078 0.1600 l
s
n
0.2078 0.8500 m
0.2078 0.8400 l
s
n
0.2481 0.1500 m
0.2481 0.1600 l
s
n
0.2481 0.8500 m
0.2481 0.8400 l
s
n
0.2794 0.1500 m
0.2794 0.1600 l
s
n
0.2794 0.8500 m
0.2794 0.8400 l
s
n
0.3049 0.1500 m
0.3049 0.1600 l
s
n
0.3049 0.8500 m
0.3049 0.8400 l
s
n
0.3265 0.1500 m
0.3265 0.1600 l
s
n
0.3265 0.8500 m
0.3265 0.8400 l
s
n
0.3452 0.1500 m
0.3452 0.1600 l
s
n
0.3452 0.8500 m
0.3452 0.8400 l
s
n
0.3617 0.1500 m
0.3617 0.1600 l
s
n
0.3617 0.8500 m
0.3617 0.8400 l
s
n
0.3765 0.1500 m
0.3765 0.1600 l
s
n
0.3765 0.8500 m
0.3765 0.8400 l
s
n
0.2481 0.1500 m
0.2481 0.1600 l
s
n
0.2481 0.8500 m
0.2481 0.8400 l
s
n
0.3049 0.1500 m
0.3049 0.1600 l
s
n
0.3049 0.8500 m
0.3049 0.8400 l
s
n
0.3452 0.1500 m
0.3452 0.1600 l
s
n
0.3452 0.8500 m
0.3452 0.8400 l
s
n
0.3765 0.1500 m
0.3765 0.1600 l
s
n
0.3765 0.8500 m
0.3765 0.8400 l
s
n
0.4020 0.1500 m
0.4020 0.1600 l
s
n
0.4020 0.8500 m
0.4020 0.8400 l
s
n
0.4236 0.1500 m
0.4236 0.1600 l
s
n
0.4236 0.8500 m
0.4236 0.8400 l
s
n
0.4423 0.1500 m
0.4423 0.1600 l
s
n
0.4423 0.8500 m
0.4423 0.8400 l
s
n
0.4588 0.1500 m
0.4588 0.1600 l
s
n
0.4588 0.8500 m
0.4588 0.8400 l
s
n
0.4736 0.1500 m
0.4736 0.1600 l
s
n
0.4736 0.8500 m
0.4736 0.8400 l
s
n
0.2481 0.1500 m
0.2481 0.1600 l
s
n
0.2481 0.8500 m
0.2481 0.8400 l
s
n
0.3452 0.1500 m
0.3452 0.1600 l
s
n
0.3452 0.8500 m
0.3452 0.8400 l
s
n
0.4020 0.1500 m
0.4020 0.1600 l
s
n
0.4020 0.8500 m
0.4020 0.8400 l
s
n
0.4423 0.1500 m
0.4423 0.1600 l
s
n
0.4423 0.8500 m
0.4423 0.8400 l
s
n
0.4736 0.1500 m
0.4736 0.1600 l
s
n
0.4736 0.8500 m
0.4736 0.8400 l
s
n
0.4991 0.1500 m
0.4991 0.1600 l
s
n
0.4991 0.8500 m
0.4991 0.8400 l
s
n
0.5207 0.1500 m
0.5207 0.1600 l
s
n
0.5207 0.8500 m
0.5207 0.8400 l
s
n
0.5394 0.1500 m
0.5394 0.1600 l
s
n
0.5394 0.8500 m
0.5394 0.8400 l
s
n
0.5559 0.1500 m
0.5559 0.1600 l
s
n
0.5559 0.8500 m
0.5559 0.8400 l
s
n
0.5707 0.1500 m
0.5707 0.1600 l
s
n
0.5707 0.8500 m
0.5707 0.8400 l
s
n
0.4423 0.1500 m
0.4423 0.1600 l
s
n
0.4423 0.8500 m
0.4423 0.8400 l
s
n
0.4991 0.1500 m
0.4991 0.1600 l
s
n
0.4991 0.8500 m
0.4991 0.8400 l
s
n
0.5394 0.1500 m
0.5394 0.1600 l
s
n
0.5394 0.8500 m
0.5394 0.8400 l
s
n
0.5707 0.1500 m
0.5707 0.1600 l
s
n
0.5707 0.8500 m
0.5707 0.8400 l
s
n
0.5962 0.1500 m
0.5962 0.1600 l
s
n
0.5962 0.8500 m
0.5962 0.8400 l
s
n
0.6178 0.1500 m
0.6178 0.1600 l
s
n
0.6178 0.8500 m
0.6178 0.8400 l
s
n
0.6365 0.1500 m
0.6365 0.1600 l
s
n
0.6365 0.8500 m
0.6365 0.8400 l
s
n
0.6530 0.1500 m
0.6530 0.1600 l
s
n
0.6530 0.8500 m
0.6530 0.8400 l
s
n
0.6678 0.1500 m
0.6678 0.1600 l
s
n
0.6678 0.8500 m
0.6678 0.8400 l
s
n
0.4423 0.1500 m
0.4423 0.1600 l
s
n
0.4423 0.8500 m
0.4423 0.8400 l
s
n
0.5394 0.1500 m
0.5394 0.1600 l
s
n
0.5394 0.8500 m
0.5394 0.8400 l
s
n
0.5962 0.1500 m
0.5962 0.1600 l
s
n
0.5962 0.8500 m
0.5962 0.8400 l
s
n
0.6365 0.1500 m
0.6365 0.1600 l
s
n
0.6365 0.8500 m
0.6365 0.8400 l
s
n
0.6678 0.1500 m
0.6678 0.1600 l
s
n
0.6678 0.8500 m
0.6678 0.8400 l
s
n
0.6933 0.1500 m
0.6933 0.1600 l
s
n
0.6933 0.8500 m
0.6933 0.8400 l
s
n
0.7149 0.1500 m
0.7149 0.1600 l
s
n
0.7149 0.8500 m
0.7149 0.8400 l
s
n
0.7336 0.1500 m
0.7336 0.1600 l
s
n
0.7336 0.8500 m
0.7336 0.8400 l
s
n
0.7501 0.1500 m
0.7501 0.1600 l
s
n
0.7501 0.8500 m
0.7501 0.8400 l
s
n
0.7649 0.1500 m
0.7649 0.1600 l
s
n
0.7649 0.8500 m
0.7649 0.8400 l
s
n
0.6365 0.1500 m
0.6365 0.1600 l
s
n
0.6365 0.8500 m
0.6365 0.8400 l
s
n
0.6933 0.1500 m
0.6933 0.1600 l
s
n
0.6933 0.8500 m
0.6933 0.8400 l
s
n
0.7336 0.1500 m
0.7336 0.1600 l
s
n
0.7336 0.8500 m
0.7336 0.8400 l
s
n
0.7649 0.1500 m
0.7649 0.1600 l
s
n
0.7649 0.8500 m
0.7649 0.8400 l
s
n
0.7904 0.1500 m
0.7904 0.1600 l
s
n
0.7904 0.8500 m
0.7904 0.8400 l
s
n
0.8120 0.1500 m
0.8120 0.1600 l
s
n
0.8120 0.8500 m
0.8120 0.8400 l
s
n
0.8307 0.1500 m
0.8307 0.1600 l
s
n
0.8307 0.8500 m
0.8307 0.8400 l
s
n
0.8472 0.1500 m
0.8472 0.1600 l
s
n
0.8472 0.8500 m
0.8472 0.8400 l
s
n
0.8620 0.1500 m
0.8620 0.1600 l
s
n
0.8620 0.8500 m
0.8620 0.8400 l
s
n
0.6365 0.1500 m
0.6365 0.1600 l
s
n
0.6365 0.8500 m
0.6365 0.8400 l
s
n
0.7336 0.1500 m
0.7336 0.1600 l
s
n
0.7336 0.8500 m
0.7336 0.8400 l
s
n
0.7904 0.1500 m
0.7904 0.1600 l
s
n
0.7904 0.8500 m
0.7904 0.8400 l
s
n
0.8307 0.1500 m
0.8307 0.1600 l
s
n
0.8307 0.8500 m
0.8307 0.8400 l
s
n
0.8620 0.1500 m
0.8620 0.1600 l
s
n
0.8620 0.8500 m
0.8620 0.8400 l
s
n
0.8875 0.1500 m
0.8875 0.1600 l
s
n
0.8875 0.8500 m
0.8875 0.8400 l
s
n
0.9091 0.1500 m
0.9091 0.1600 l
s
n
0.9091 0.8500 m
0.9091 0.8400 l
s
n
0.9278 0.1500 m
0.9278 0.1600 l
s
n
0.9278 0.8500 m
0.9278 0.8400 l
s
n
0.9443 0.1500 m
0.9443 0.1600 l
s
n
0.9443 0.8500 m
0.9443 0.8400 l
s
n
0.9591 0.1500 m
0.9591 0.1600 l
s
n
0.9591 0.8500 m
0.9591 0.8400 l
s
n
0.8307 0.1500 m
0.8307 0.1600 l
s
n
0.8307 0.8500 m
0.8307 0.8400 l
s
n
0.8875 0.1500 m
0.8875 0.1600 l
s
n
0.8875 0.8500 m
0.8875 0.8400 l
s
n
0.9278 0.1500 m
0.9278 0.1600 l
s
n
0.9278 0.8500 m
0.9278 0.8400 l
s
n
0.9591 0.1500 m
0.9591 0.1600 l
s
n
0.9591 0.8500 m
0.9591 0.8400 l
s
n
0.9847 0.1500 m
0.9847 0.1600 l
s
n
0.9847 0.8500 m
0.9847 0.8400 l
s
n
1.0062 0.1500 m
1.0062 0.1600 l
s
n
1.0062 0.8500 m
1.0062 0.8400 l
s
n
1.0250 0.1500 m
1.0250 0.1600 l
s
n
1.0250 0.8500 m
1.0250 0.8400 l
s
n
1.0415 0.1500 m
1.0415 0.1600 l
s
n
1.0415 0.8500 m
1.0415 0.8400 l
s
n
1.0562 0.1500 m
1.0562 0.1600 l
s
n
1.0562 0.8500 m
1.0562 0.8400 l
s
n
0.8307 0.1500 m
0.8307 0.1600 l
s
n
0.8307 0.8500 m
0.8307 0.8400 l
s
n
0.9278 0.1500 m
0.9278 0.1600 l
s
n
0.9278 0.8500 m
0.9278 0.8400 l
s
n
0.9847 0.1500 m
0.9847 0.1600 l
s
n
0.9847 0.8500 m
0.9847 0.8400 l
s
n
1.0250 0.1500 m
1.0250 0.1600 l
s
n
1.0250 0.8500 m
1.0250 0.8400 l
s
n
1.0562 0.1500 m
1.0562 0.1600 l
s
n
1.0562 0.8500 m
1.0562 0.8400 l
s
n
1.0818 0.1500 m
1.0818 0.1600 l
s
n
1.0818 0.8500 m
1.0818 0.8400 l
s
n
1.1034 0.1500 m
1.1034 0.1600 l
s
n
1.1034 0.8500 m
1.1034 0.8400 l
s
n
1.1221 0.1500 m
1.1221 0.1600 l
s
n
1.1221 0.8500 m
1.1221 0.8400 l
s
n
1.1386 0.1500 m
1.1386 0.1600 l
s
n
1.1386 0.8500 m
1.1386 0.8400 l
s
n
1.0250 0.1500 m
1.0250 0.1600 l
s
n
1.0250 0.8500 m
1.0250 0.8400 l
s
n
1.0818 0.1500 m
1.0818 0.1600 l
s
n
1.0818 0.8500 m
1.0818 0.8400 l
s
n
1.1221 0.1500 m
1.1221 0.1600 l
s
n
1.1221 0.8500 m
1.1221 0.8400 l
s
n
1.0250 0.1500 m
1.0250 0.1600 l
s
n
1.0250 0.8500 m
1.0250 0.8400 l
s
n
1.1221 0.1500 m
1.1221 0.1600 l
s
n
1.1221 0.8500 m
1.1221 0.8400 l
s
n
0.1510 0.1500 m
0.1510 0.1700 l
s
n
0.1510 0.8500 m
0.1510 0.8300 l
s
n
0.3452 0.1500 m
0.3452 0.1700 l
s
n
0.3452 0.8500 m
0.3452 0.8300 l
s
n
0.5394 0.1500 m
0.5394 0.1700 l
s
n
0.5394 0.8500 m
0.5394 0.8300 l
s
n
0.7336 0.1500 m
0.7336 0.1700 l
s
n
0.7336 0.8500 m
0.7336 0.8300 l
s
n
0.9278 0.1500 m
0.9278 0.1700 l
s
n
0.9278 0.8500 m
0.9278 0.8300 l
s
n
1.1221 0.1500 m
1.1221 0.1700 l
s
n
1.1221 0.8500 m
1.1221 0.8300 l
s
/Times-Roman findfont
dup length dict begin
 {1 index /FID ne {def} {pop pop} ifelse} forall
 /Encoding DefEncoding def
 currentdict
end
/Font35 exch definefont pop
/Font35 FFSF
0.1400 0.1067 m
GS
[0.0490 0.0000 0.0000 0.0490 0 0] CC
(8) show
GR
/Font35 FFSF
0.3215 0.1067 m
GS
[0.0490 0.0000 0.0000 0.0490 0 0] CC
(32) show
GR
/Font35 FFSF
0.5039 0.1067 m
GS
[0.0490 0.0000 0.0000 0.0490 0 0] CC
(128) show
GR
/Font35 FFSF
0.6976 0.1063 m
GS
[0.0490 0.0000 0.0000 0.0490 0 0] CC
(512) show
GR
/Font35 FFSF
0.8802 0.1067 m
GS
[0.0490 0.0000 0.0000 0.0490 0 0] CC
(2048) show
GR
/Font35 FFSF
1.0738 0.1067 m
GS
[0.0490 0.0000 0.0000 0.0490 0 0] CC
(8192) show
GR
/Font35 FFSF
0.4863 0.0618 m
GS
[0.0490 0.0000 0.0000 0.0490 0 0] CC
(Number of cores) show
GR
n
0.1500 0.1500 m
0.1500 0.8500 l
s
n
1.1500 0.1500 m
1.1500 0.8500 l
s
n
0.1500 0.1500 m
0.1600 0.1500 l
s
n
1.1500 0.1500 m
1.1400 0.1500 l
s
n
0.1500 0.1629 m
0.1600 0.1629 l
s
n
1.1500 0.1629 m
1.1400 0.1629 l
s
n
0.1500 0.1742 m
0.1600 0.1742 l
s
n
1.1500 0.1742 m
1.1400 0.1742 l
s
n
0.1500 0.1844 m
0.1600 0.1844 l
s
n
1.1500 0.1844 m
1.1400 0.1844 l
s
n
0.1500 0.2512 m
0.1600 0.2512 l
s
n
1.1500 0.2512 m
1.1400 0.2512 l
s
n
0.1500 0.2902 m
0.1600 0.2902 l
s
n
1.1500 0.2902 m
1.1400 0.2902 l
s
n
0.1500 0.3180 m
0.1600 0.3180 l
s
n
1.1500 0.3180 m
1.1400 0.3180 l
s
n
0.1500 0.3395 m
0.1600 0.3395 l
s
n
1.1500 0.3395 m
1.1400 0.3395 l
s
n
0.1500 0.3570 m
0.1600 0.3570 l
s
n
1.1500 0.3570 m
1.1400 0.3570 l
s
n
0.1500 0.3719 m
0.1600 0.3719 l
s
n
1.1500 0.3719 m
1.1400 0.3719 l
s
n
0.1500 0.3847 m
0.1600 0.3847 l
s
n
1.1500 0.3847 m
1.1400 0.3847 l
s
n
0.1500 0.3961 m
0.1600 0.3961 l
s
n
1.1500 0.3961 m
1.1400 0.3961 l
s
n
0.1500 0.4062 m
0.1600 0.4062 l
s
n
1.1500 0.4062 m
1.1400 0.4062 l
s
n
0.1500 0.4730 m
0.1600 0.4730 l
s
n
1.1500 0.4730 m
1.1400 0.4730 l
s
n
0.1500 0.5121 m
0.1600 0.5121 l
s
n
1.1500 0.5121 m
1.1400 0.5121 l
s
n
0.1500 0.5398 m
0.1600 0.5398 l
s
n
1.1500 0.5398 m
1.1400 0.5398 l
s
n
0.1500 0.5613 m
0.1600 0.5613 l
s
n
1.1500 0.5613 m
1.1400 0.5613 l
s
n
0.1500 0.5789 m
0.1600 0.5789 l
s
n
1.1500 0.5789 m
1.1400 0.5789 l
s
n
0.1500 0.5938 m
0.1600 0.5938 l
s
n
1.1500 0.5938 m
1.1400 0.5938 l
s
n
0.1500 0.6066 m
0.1600 0.6066 l
s
n
1.1500 0.6066 m
1.1400 0.6066 l
s
n
0.1500 0.6180 m
0.1600 0.6180 l
s
n
1.1500 0.6180 m
1.1400 0.6180 l
s
n
0.1500 0.6281 m
0.1600 0.6281 l
s
n
1.1500 0.6281 m
1.1400 0.6281 l
s
n
0.1500 0.6949 m
0.1600 0.6949 l
s
n
1.1500 0.6949 m
1.1400 0.6949 l
s
n
0.1500 0.7340 m
0.1600 0.7340 l
s
n
1.1500 0.7340 m
1.1400 0.7340 l
s
n
0.1500 0.7617 m
0.1600 0.7617 l
s
n
1.1500 0.7617 m
1.1400 0.7617 l
s
n
0.1500 0.7832 m
0.1600 0.7832 l
s
n
1.1500 0.7832 m
1.1400 0.7832 l
s
n
0.1500 0.8008 m
0.1600 0.8008 l
s
n
1.1500 0.8008 m
1.1400 0.8008 l
s
n
0.1500 0.8156 m
0.1600 0.8156 l
s
n
1.1500 0.8156 m
1.1400 0.8156 l
s
n
0.1500 0.8285 m
0.1600 0.8285 l
s
n
1.1500 0.8285 m
1.1400 0.8285 l
s
n
0.1500 0.8398 m
0.1600 0.8398 l
s
n
1.1500 0.8398 m
1.1400 0.8398 l
s
n
0.1500 0.8500 m
0.1600 0.8500 l
s
n
1.1500 0.8500 m
1.1400 0.8500 l
s
n
0.1500 0.1844 m
0.1700 0.1844 l
s
n
1.1500 0.1844 m
1.1300 0.1844 l
s
n
0.1500 0.4062 m
0.1700 0.4062 l
s
n
1.1500 0.4062 m
1.1300 0.4062 l
s
n
0.1500 0.6281 m
0.1700 0.6281 l
s
n
1.1500 0.6281 m
1.1300 0.6281 l
s
n
0.1500 0.8500 m
0.1700 0.8500 l
s
n
1.1500 0.8500 m
1.1300 0.8500 l
s
/Font35 FFSF
0.0773 0.1583 m
GS
[0.0490 0.0000 0.0000 0.0490 0 0] CC
(10) show
GR
/Font35 FFSF
0.1263 0.1877 m
GS
[0.0346 0.0000 0.0000 0.0346 0 0] CC
(1) show
GR
/Font35 FFSF
0.0745 0.3804 m
GS
[0.0490 0.0000 0.0000 0.0490 0 0] CC
(10) show
GR
/Font35 FFSF
0.1235 0.4098 m
GS
[0.0346 0.0000 0.0000 0.0346 0 0] CC
(2) show
GR
/Font35 FFSF
0.0761 0.6022 m
GS
[0.0490 0.0000 0.0000 0.0490 0 0] CC
(10) show
GR
/Font35 FFSF
0.1251 0.6316 m
GS
[0.0346 0.0000 0.0000 0.0346 0 0] CC
(3) show
GR
/Font35 FFSF
0.0745 0.8241 m
GS
[0.0490 0.0000 0.0000 0.0490 0 0] CC
(10) show
GR
/Font35 FFSF
0.1235 0.8535 m
GS
[0.0346 0.0000 0.0000 0.0346 0 0] CC
(4) show
GR
/Font35 FFSF
0.0539 0.4082 m
GS
[0.0000 0.0490 -0.0490 0.0000 0 0] CC
(Speed-up) show
GR
n
0.1500 0.1500 m
0.1500 0.8500 l
1.1500 0.8500 l
1.1500 0.1500 l
0.1500 0.1500 l
c
s
n
0.8100 0.3400 m
0.8100 0.1984 l
1.1019 0.1984 l
1.1019 0.3400 l
c
[/DeviceRGB] SCS
Color0 SC
fill
[/DeviceRGB] SCS
Color1 SC
n
0.8100 0.3400 m
0.8100 0.1984 l
1.1019 0.1984 l
1.1019 0.3400 l
0.8100 0.3400 l
c
s
/Font35 FFSF
0.8908 0.2967 m
GS
[0.0490 0.0000 0.0000 0.0490 0 0] CC
(Ideal) show
GR
[/DeviceRGB] SCS
Color11 SC
[] 0 SD
0.0037 SLW
n
0.8308 0.3131 m
0.8708 0.3131 l
s
/Font35 FFSF
[/DeviceRGB] SCS
Color1 SC
0.8908 0.2529 m
GS
[0.0490 0.0000 0.0000 0.0490 0 0] CC
(180 atoms) show
GR
[] 0 SD
0.0045 SLW
n
0.8308 0.2692 m
0.8708 0.2692 l
s
n
0.8308 0.2692 0.0100 0.0100 0 360 EARC c
fill
[] 0 SD
0.0015 SLW
n 0.8308 0.2692 0.0100 0.0100 0 360 EARC s
n
0.8708 0.2692 0.0100 0.0100 0 360 EARC c
fill
n 0.8708 0.2692 0.0100 0.0100 0 360 EARC s
/Font35 FFSF
0.8908 0.2088 m
GS
[0.0490 0.0000 0.0000 0.0490 0 0] CC
(441 atoms) show
GR
[/DeviceRGB] SCS
Color4 SC
[0.0225 0.0135 ] 0 SD
0.0045 SLW
n
0.8308 0.2253 m
0.8708 0.2253 l
s
n
0.8223 0.2168 m
0.8223 0.2338 l
0.8393 0.2338 l
0.8393 0.2168 l
c
fill
[] 0 SD
0.0015 SLW
n
0.8223 0.2168 m
0.8223 0.2338 l
0.8393 0.2338 l
0.8393 0.2168 l
0.8223 0.2168 l
c
s
n
0.8623 0.2168 m
0.8623 0.2338 l
0.8793 0.2338 l
0.8793 0.2168 l
c
fill
n
0.8623 0.2168 m
0.8623 0.2338 l
0.8793 0.2338 l
0.8793 0.2168 l
0.8623 0.2168 l
c
s
%%Trailer
%%BoundingBox: 11 36 718 538
%%DocumentNeededResources: font Times-Roman
%%EOF
