%!PS-Adobe-3.0 EPSF-3.0
%%BoundingBox: (atend)
%%LanguageLevel: 2
%%Creator: Grace-5.1.22
%%CreationDate: Wed Mar 28 13:28:33 2012
%%DocumentData: Clean8Bit
%%Orientation: Portrait
%%Title: /home/xavier/files/papers/2012_octopus_psik/img/gpu_laplacian.agr
%%For: xavier
%%DocumentNeededResources: (atend)
%%EndComments
%%BeginProlog
/m {moveto} def
/l {lineto} def
/s {stroke} def
/n {newpath} def
/c {closepath} def
/RL {rlineto} def
/SLW {setlinewidth} def
/GS {gsave} def
/GR {grestore} def
/SC {setcolor} def
/SGRY {setgray} def
/SRGB {setrgbcolor} def
/SD {setdash} def
/SLC {setlinecap} def
/SLJ {setlinejoin} def
/SCS {setcolorspace} def
/FFSF {findfont setfont} def
/CC {concat} def
/PXL {n m 0 0 RL s} def
/Color0 {1.0000 1.0000 1.0000} def
/Color1 {0.0000 0.0000 0.0000} def
/Color2 {1.0000 0.0000 0.0000} def
/Color3 {0.0000 1.0000 0.0000} def
/Color4 {0.0000 0.0000 1.0000} def
/Color5 {1.0000 1.0000 0.0000} def
/Color6 {0.7373 0.5608 0.5608} def
/Color7 {0.8627 0.8627 0.8627} def
/Color8 {0.5804 0.0000 0.8275} def
/Color9 {0.0000 1.0000 1.0000} def
/Color10 {1.0000 0.0000 1.0000} def
/Color11 {1.0000 0.6471 0.0000} def
/Color12 {0.4471 0.1294 0.7373} def
/Color13 {0.4039 0.0275 0.2824} def
/Color14 {0.2510 0.8784 0.8157} def
/Color15 {0.0000 0.5451 0.0000} def
/Color16 {0.7529 0.7529 0.7529} def
/Color17 {0.5059 0.5059 0.5059} def
/Color18 {0.2588 0.2588 0.2588} def
/PTRN {
 /pat_bits exch def 
 <<
  /PaintType 2
  /PatternType 1 /TilingType 1
  /BBox[0 0 16 16]
  /XStep 16 /YStep 16
  /PaintProc {
   pop
   16 16 true [-1 0 0 -1 16 16] pat_bits imagemask
  }
 >>
 [0.0016 0 0 0.0016 0 0]
 makepattern
} def
/Pattern0 {<0000000000000000000000000000000000000000000000000000000000000000> PTRN} bind def
/Pattern1 {<ffffffffffffffffffffffffffffffffffffffffffffffffffffffffffffffff> PTRN} bind def
/Pattern2 {<eeeeffffbbbbffffeeeeffffbbbbffffeeeeffffbbbbffffeeeeffffbbbbffff> PTRN} bind def
/Pattern3 {<eeeebbbbeeeebbbbeeeebbbbeeeebbbbeeeebbbbeeeebbbbeeeebbbbeeeebbbb> PTRN} bind def
/Pattern4 {<5555aaaa5555aaaa5555aaaa5555aaaa5555aaaa5555aaaa5555aaaa5555aaaa> PTRN} bind def
/Pattern5 {<1111444411114444111144441111444411114444111144441111444411114444> PTRN} bind def
/Pattern6 {<1111000044440000111100004444000011110000444400001111000044440000> PTRN} bind def
/Pattern7 {<1010000000000000010100000000000010100000000000000101000000000000> PTRN} bind def
/Pattern8 {<0000000000000000000000000000000000000000000000000000000000000000> PTRN} bind def
/Pattern9 {<1e1e0f0f8787c3c3e1e1f0f078783c3c1e1e0f0f8787c3c3e1e1f0f078783c3c> PTRN} bind def
/Pattern10 {<7878f0f0e1e1c3c387870f0f1e1e3c3c7878f0f0e1e1c3c387870f0f1e1e3c3c> PTRN} bind def
/Pattern11 {<3333333333333333333333333333333333333333333333333333333333333333> PTRN} bind def
/Pattern12 {<ffffffff00000000ffffffff00000000ffffffff00000000ffffffff00000000> PTRN} bind def
/Pattern13 {<8181424224241818181824244242818181814242242418181818242442428181> PTRN} bind def
/Pattern14 {<8080404020201010080804040202010180804040202010100808040402020101> PTRN} bind def
/Pattern15 {<0101020204040808101020204040808001010202040408081010202040408080> PTRN} bind def
/Pattern16 {<2222222222222222222222222222222222222222222222222222222222222222> PTRN} bind def
/Pattern17 {<0000ffff000000000000ffff000000000000ffff000000000000ffff00000000> PTRN} bind def
/Pattern18 {<2222ffff222222222222ffff222222222222ffff222222222222ffff22222222> PTRN} bind def
/Pattern19 {<ffffffff33333333ffffffff33333333ffffffff33333333ffffffff33333333> PTRN} bind def
/Pattern20 {<0f0f0f0f0f0f0f0ff0f0f0f0f0f0f0f00f0f0f0f0f0f0f0ff0f0f0f0f0f0f0f0> PTRN} bind def
/Pattern21 {<ff00ff00ff00ff00ff00ff00ff00ff0000ff00ff00ff00ff00ff00ff00ff00ff> PTRN} bind def
/Pattern22 {<8001800180018001800180018001ffffffff8001800180018001800180018001> PTRN} bind def
/Pattern23 {<c003c003c003c003c003c003ffffffffffffffffc003c003c003c003c003c003> PTRN} bind def
/Pattern24 {<040404040404ffff404040404040ffff040404040404ffff404040404040ffff> PTRN} bind def
/Pattern25 {<180018001800180018001800ffffffff001800180018001800180018ffffffff> PTRN} bind def
/Pattern26 {<1111b8b87c7c3a3a1111a3a3c7c78b8b1111b8b87c7c3a3a1111a3a3c7c78b8b> PTRN} bind def
/Pattern27 {<101010102828c7c70101010182827c7c101010102828c7c70101010182827c7c> PTRN} bind def
/Pattern28 {<1c1c121211112121c1c12121111112121c1c121211112121c1c1212111111212> PTRN} bind def
/Pattern29 {<3e3e414180808080e3e31414080808083e3e414180808080e3e3141408080808> PTRN} bind def
/Pattern30 {<4848888884848383848488884848383848488888848483838484888848483838> PTRN} bind def
/Pattern31 {<03030404080808080c0c12122121c0c003030404080808080c0c12122121c0c0> PTRN} bind def
/ellipsedict 8 dict def
ellipsedict /mtrx matrix put
/EARC {
 ellipsedict begin
  /endangle exch def
  /startangle exch def
  /yrad exch def
  /xrad exch def
  /y exch def
  /x exch def
  /savematrix mtrx currentmatrix def
  x y translate
  xrad yrad scale
  0 0 1 startangle endangle arc
  savematrix setmatrix
 end
} def
/TL {
  /kcomp exch def
  /linewidth exch def
  /offset exch def
  GS
  0 offset rmoveto
  linewidth SLW
  dup stringwidth exch kcomp add exch RL s
  GR
} def
/KINIT
{
 /kvector exch def
 /kid 0 def
} def
/KPROC
{
 pop pop
 kvector kid get
 0 rmoveto
 /kid 1 kid add def
} def
/DefEncoding [
 /.notdef
 /.notdef
 /.notdef
 /.notdef
 /.notdef
 /.notdef
 /.notdef
 /.notdef
 /.notdef
 /.notdef
 /.notdef
 /.notdef
 /.notdef
 /.notdef
 /.notdef
 /.notdef
 /.notdef
 /.notdef
 /.notdef
 /.notdef
 /.notdef
 /.notdef
 /.notdef
 /.notdef
 /.notdef
 /.notdef
 /.notdef
 /.notdef
 /.notdef
 /.notdef
 /.notdef
 /.notdef
 /space
 /exclam
 /quotedbl
 /numbersign
 /dollar
 /percent
 /ampersand
 /quoteright
 /parenleft
 /parenright
 /asterisk
 /plus
 /comma
 /hyphen
 /period
 /slash
 /zero
 /one
 /two
 /three
 /four
 /five
 /six
 /seven
 /eight
 /nine
 /colon
 /semicolon
 /less
 /equal
 /greater
 /question
 /at
 /A
 /B
 /C
 /D
 /E
 /F
 /G
 /H
 /I
 /J
 /K
 /L
 /M
 /N
 /O
 /P
 /Q
 /R
 /S
 /T
 /U
 /V
 /W
 /X
 /Y
 /Z
 /bracketleft
 /backslash
 /bracketright
 /asciicircum
 /underscore
 /grave
 /a
 /b
 /c
 /d
 /e
 /f
 /g
 /h
 /i
 /j
 /k
 /l
 /m
 /n
 /o
 /p
 /q
 /r
 /s
 /t
 /u
 /v
 /w
 /x
 /y
 /z
 /braceleft
 /bar
 /braceright
 /asciitilde
 /.notdef
 /.notdef
 /.notdef
 /.notdef
 /.notdef
 /.notdef
 /.notdef
 /.notdef
 /.notdef
 /.notdef
 /.notdef
 /.notdef
 /.notdef
 /.notdef
 /.notdef
 /.notdef
 /.notdef
 /.notdef
 /.notdef
 /.notdef
 /.notdef
 /.notdef
 /.notdef
 /.notdef
 /.notdef
 /.notdef
 /.notdef
 /.notdef
 /.notdef
 /.notdef
 /.notdef
 /.notdef
 /.notdef
 /space
 /exclamdown
 /cent
 /sterling
 /currency
 /yen
 /brokenbar
 /section
 /dieresis
 /copyright
 /ordfeminine
 /guillemotleft
 /logicalnot
 /hyphen
 /registered
 /macron
 /degree
 /plusminus
 /twosuperior
 /threesuperior
 /acute
 /mu
 /paragraph
 /periodcentered
 /cedilla
 /onesuperior
 /ordmasculine
 /guillemotright
 /onequarter
 /onehalf
 /threequarters
 /questiondown
 /Agrave
 /Aacute
 /Acircumflex
 /Atilde
 /Adieresis
 /Aring
 /AE
 /Ccedilla
 /Egrave
 /Eacute
 /Ecircumflex
 /Edieresis
 /Igrave
 /Iacute
 /Icircumflex
 /Idieresis
 /Eth
 /Ntilde
 /Ograve
 /Oacute
 /Ocircumflex
 /Otilde
 /Odieresis
 /multiply
 /Oslash
 /Ugrave
 /Uacute
 /Ucircumflex
 /Udieresis
 /Yacute
 /Thorn
 /germandbls
 /agrave
 /aacute
 /acircumflex
 /atilde
 /adieresis
 /aring
 /ae
 /ccedilla
 /egrave
 /eacute
 /ecircumflex
 /edieresis
 /igrave
 /iacute
 /icircumflex
 /idieresis
 /eth
 /ntilde
 /ograve
 /oacute
 /ocircumflex
 /otilde
 /odieresis
 /divide
 /oslash
 /ugrave
 /uacute
 /ucircumflex
 /udieresis
 /yacute
 /thorn
 /ydieresis
] def
%%EndProlog
%%BeginSetup
%%EndSetup
612.00 612.00 scale
n
0.0000 0.0000 m
0.0000 1.0000 l
1.2941 1.0000 l
1.2941 0.0000 l
c
[/DeviceRGB] SCS
Color0 SC
fill
[/DeviceRGB] SCS
Color1 SC
[] 0 SD
0.0037 SLW
0 SLC
0 SLJ
n
0.1709 0.3208 m
0.3082 0.3460 l
0.4456 0.3652 l
0.5829 0.3729 l
0.7202 0.3640 l
0.8576 0.3629 l
0.9949 0.3491 l
1.1322 0.3261 l
s
n
0.1709 0.3208 0.0100 0.0100 0 360 EARC c
fill
[] 0 SD
0.0015 SLW
n 0.1709 0.3208 0.0100 0.0100 0 360 EARC s
n
0.3082 0.3460 0.0100 0.0100 0 360 EARC c
fill
n 0.3082 0.3460 0.0100 0.0100 0 360 EARC s
n
0.4456 0.3652 0.0100 0.0100 0 360 EARC c
fill
n 0.4456 0.3652 0.0100 0.0100 0 360 EARC s
n
0.5829 0.3729 0.0100 0.0100 0 360 EARC c
fill
n 0.5829 0.3729 0.0100 0.0100 0 360 EARC s
n
0.7202 0.3640 0.0100 0.0100 0 360 EARC c
fill
n 0.7202 0.3640 0.0100 0.0100 0 360 EARC s
n
0.8576 0.3629 0.0100 0.0100 0 360 EARC c
fill
n 0.8576 0.3629 0.0100 0.0100 0 360 EARC s
n
0.9949 0.3491 0.0100 0.0100 0 360 EARC c
fill
n 0.9949 0.3491 0.0100 0.0100 0 360 EARC s
n
1.1322 0.3261 0.0100 0.0100 0 360 EARC c
fill
n 1.1322 0.3261 0.0100 0.0100 0 360 EARC s
[/DeviceRGB] SCS
Color4 SC
[0.0187 0.0112 ] 0 SD
0.0037 SLW
n
0.1709 0.2871 m
0.3082 0.4979 l
0.4456 0.6679 l
0.5829 0.7335 l
0.7202 0.7762 l
0.8576 0.7560 l
0.9949 0.7347 l
s
n
0.1624 0.2786 m
0.1624 0.2956 l
0.1794 0.2956 l
0.1794 0.2786 l
c
fill
[] 0 SD
0.0015 SLW
n
0.1624 0.2786 m
0.1624 0.2956 l
0.1794 0.2956 l
0.1794 0.2786 l
0.1624 0.2786 l
c
s
n
0.2997 0.4894 m
0.2997 0.5064 l
0.3167 0.5064 l
0.3167 0.4894 l
c
fill
n
0.2997 0.4894 m
0.2997 0.5064 l
0.3167 0.5064 l
0.3167 0.4894 l
0.2997 0.4894 l
c
s
n
0.4371 0.6594 m
0.4371 0.6764 l
0.4541 0.6764 l
0.4541 0.6594 l
c
fill
n
0.4371 0.6594 m
0.4371 0.6764 l
0.4541 0.6764 l
0.4541 0.6594 l
0.4371 0.6594 l
c
s
n
0.5744 0.7250 m
0.5744 0.7420 l
0.5914 0.7420 l
0.5914 0.7250 l
c
fill
n
0.5744 0.7250 m
0.5744 0.7420 l
0.5914 0.7420 l
0.5914 0.7250 l
0.5744 0.7250 l
c
s
n
0.7117 0.7677 m
0.7117 0.7847 l
0.7287 0.7847 l
0.7287 0.7677 l
c
fill
n
0.7117 0.7677 m
0.7117 0.7847 l
0.7287 0.7847 l
0.7287 0.7677 l
0.7117 0.7677 l
c
s
n
0.8491 0.7475 m
0.8491 0.7645 l
0.8661 0.7645 l
0.8661 0.7475 l
c
fill
n
0.8491 0.7475 m
0.8491 0.7645 l
0.8661 0.7645 l
0.8661 0.7475 l
0.8491 0.7475 l
c
s
n
0.9864 0.7262 m
0.9864 0.7432 l
1.0034 0.7432 l
1.0034 0.7262 l
c
fill
n
0.9864 0.7262 m
0.9864 0.7432 l
1.0034 0.7432 l
1.0034 0.7262 l
0.9864 0.7262 l
c
s
[/DeviceRGB] SCS
Color2 SC
[0.0053 0.0158 ] 0 SD
0.0053 SLW
n
0.1709 0.3645 m
0.3082 0.4607 l
0.4456 0.5145 l
0.5829 0.6661 l
0.7202 0.8253 l
0.8576 0.8087 l
0.9949 0.7730 l
1.1322 0.7507 l
s
n
0.1709 0.3745 m
0.1609 0.3645 l
0.1709 0.3545 l
0.1809 0.3645 l
c
fill
[] 0 SD
0.0015 SLW
n
0.1709 0.3745 m
0.1609 0.3645 l
0.1709 0.3545 l
0.1809 0.3645 l
0.1709 0.3745 l
c
s
n
0.3082 0.4707 m
0.2982 0.4607 l
0.3082 0.4507 l
0.3182 0.4607 l
c
fill
n
0.3082 0.4707 m
0.2982 0.4607 l
0.3082 0.4507 l
0.3182 0.4607 l
0.3082 0.4707 l
c
s
n
0.4456 0.5245 m
0.4356 0.5145 l
0.4456 0.5045 l
0.4556 0.5145 l
c
fill
n
0.4456 0.5245 m
0.4356 0.5145 l
0.4456 0.5045 l
0.4556 0.5145 l
0.4456 0.5245 l
c
s
n
0.5829 0.6761 m
0.5729 0.6661 l
0.5829 0.6561 l
0.5929 0.6661 l
c
fill
n
0.5829 0.6761 m
0.5729 0.6661 l
0.5829 0.6561 l
0.5929 0.6661 l
0.5829 0.6761 l
c
s
n
0.7202 0.8353 m
0.7102 0.8253 l
0.7202 0.8153 l
0.7302 0.8253 l
c
fill
n
0.7202 0.8353 m
0.7102 0.8253 l
0.7202 0.8153 l
0.7302 0.8253 l
0.7202 0.8353 l
c
s
n
0.8576 0.8187 m
0.8476 0.8087 l
0.8576 0.7987 l
0.8676 0.8087 l
c
fill
n
0.8576 0.8187 m
0.8476 0.8087 l
0.8576 0.7987 l
0.8676 0.8087 l
0.8576 0.8187 l
c
s
n
0.9949 0.7830 m
0.9849 0.7730 l
0.9949 0.7630 l
1.0049 0.7730 l
c
fill
n
0.9949 0.7830 m
0.9849 0.7730 l
0.9949 0.7630 l
1.0049 0.7730 l
0.9949 0.7830 l
c
s
n
1.1322 0.7607 m
1.1222 0.7507 l
1.1322 0.7407 l
1.1422 0.7507 l
c
fill
n
1.1322 0.7607 m
1.1222 0.7507 l
1.1322 0.7407 l
1.1422 0.7507 l
1.1322 0.7607 l
c
s
[/DeviceRGB] SCS
Color1 SC
n
0.1500 0.1500 m
1.1500 0.1500 l
s
n
0.1500 0.8500 m
1.1500 0.8500 l
s
n
0.1709 0.1500 m
0.1709 0.1600 l
s
n
0.1709 0.8500 m
0.1709 0.8400 l
s
n
0.2512 0.1500 m
0.2512 0.1600 l
s
n
0.2512 0.8500 m
0.2512 0.8400 l
s
n
0.3082 0.1500 m
0.3082 0.1600 l
s
n
0.3082 0.8500 m
0.3082 0.8400 l
s
n
0.3524 0.1500 m
0.3524 0.1600 l
s
n
0.3524 0.8500 m
0.3524 0.8400 l
s
n
0.3886 0.1500 m
0.3886 0.1600 l
s
n
0.3886 0.8500 m
0.3886 0.8400 l
s
n
0.4191 0.1500 m
0.4191 0.1600 l
s
n
0.4191 0.8500 m
0.4191 0.8400 l
s
n
0.4456 0.1500 m
0.4456 0.1600 l
s
n
0.4456 0.8500 m
0.4456 0.8400 l
s
n
0.4689 0.1500 m
0.4689 0.1600 l
s
n
0.4689 0.8500 m
0.4689 0.8400 l
s
n
0.4898 0.1500 m
0.4898 0.1600 l
s
n
0.4898 0.8500 m
0.4898 0.8400 l
s
n
0.3082 0.1500 m
0.3082 0.1600 l
s
n
0.3082 0.8500 m
0.3082 0.8400 l
s
n
0.3886 0.1500 m
0.3886 0.1600 l
s
n
0.3886 0.8500 m
0.3886 0.8400 l
s
n
0.4456 0.1500 m
0.4456 0.1600 l
s
n
0.4456 0.8500 m
0.4456 0.8400 l
s
n
0.4898 0.1500 m
0.4898 0.1600 l
s
n
0.4898 0.8500 m
0.4898 0.8400 l
s
n
0.5259 0.1500 m
0.5259 0.1600 l
s
n
0.5259 0.8500 m
0.5259 0.8400 l
s
n
0.5564 0.1500 m
0.5564 0.1600 l
s
n
0.5564 0.8500 m
0.5564 0.8400 l
s
n
0.5829 0.1500 m
0.5829 0.1600 l
s
n
0.5829 0.8500 m
0.5829 0.8400 l
s
n
0.6062 0.1500 m
0.6062 0.1600 l
s
n
0.6062 0.8500 m
0.6062 0.8400 l
s
n
0.6271 0.1500 m
0.6271 0.1600 l
s
n
0.6271 0.8500 m
0.6271 0.8400 l
s
n
0.4456 0.1500 m
0.4456 0.1600 l
s
n
0.4456 0.8500 m
0.4456 0.8400 l
s
n
0.5259 0.1500 m
0.5259 0.1600 l
s
n
0.5259 0.8500 m
0.5259 0.8400 l
s
n
0.5829 0.1500 m
0.5829 0.1600 l
s
n
0.5829 0.8500 m
0.5829 0.8400 l
s
n
0.6271 0.1500 m
0.6271 0.1600 l
s
n
0.6271 0.8500 m
0.6271 0.8400 l
s
n
0.6632 0.1500 m
0.6632 0.1600 l
s
n
0.6632 0.8500 m
0.6632 0.8400 l
s
n
0.6938 0.1500 m
0.6938 0.1600 l
s
n
0.6938 0.8500 m
0.6938 0.8400 l
s
n
0.7202 0.1500 m
0.7202 0.1600 l
s
n
0.7202 0.8500 m
0.7202 0.8400 l
s
n
0.7436 0.1500 m
0.7436 0.1600 l
s
n
0.7436 0.8500 m
0.7436 0.8400 l
s
n
0.7644 0.1500 m
0.7644 0.1600 l
s
n
0.7644 0.8500 m
0.7644 0.8400 l
s
n
0.5829 0.1500 m
0.5829 0.1600 l
s
n
0.5829 0.8500 m
0.5829 0.8400 l
s
n
0.6632 0.1500 m
0.6632 0.1600 l
s
n
0.6632 0.8500 m
0.6632 0.8400 l
s
n
0.7202 0.1500 m
0.7202 0.1600 l
s
n
0.7202 0.8500 m
0.7202 0.8400 l
s
n
0.7644 0.1500 m
0.7644 0.1600 l
s
n
0.7644 0.8500 m
0.7644 0.8400 l
s
n
0.8006 0.1500 m
0.8006 0.1600 l
s
n
0.8006 0.8500 m
0.8006 0.8400 l
s
n
0.8311 0.1500 m
0.8311 0.1600 l
s
n
0.8311 0.8500 m
0.8311 0.8400 l
s
n
0.8576 0.1500 m
0.8576 0.1600 l
s
n
0.8576 0.8500 m
0.8576 0.8400 l
s
n
0.8809 0.1500 m
0.8809 0.1600 l
s
n
0.8809 0.8500 m
0.8809 0.8400 l
s
n
0.9018 0.1500 m
0.9018 0.1600 l
s
n
0.9018 0.8500 m
0.9018 0.8400 l
s
n
0.7202 0.1500 m
0.7202 0.1600 l
s
n
0.7202 0.8500 m
0.7202 0.8400 l
s
n
0.8006 0.1500 m
0.8006 0.1600 l
s
n
0.8006 0.8500 m
0.8006 0.8400 l
s
n
0.8576 0.1500 m
0.8576 0.1600 l
s
n
0.8576 0.8500 m
0.8576 0.8400 l
s
n
0.9018 0.1500 m
0.9018 0.1600 l
s
n
0.9018 0.8500 m
0.9018 0.8400 l
s
n
0.9379 0.1500 m
0.9379 0.1600 l
s
n
0.9379 0.8500 m
0.9379 0.8400 l
s
n
0.9684 0.1500 m
0.9684 0.1600 l
s
n
0.9684 0.8500 m
0.9684 0.8400 l
s
n
0.9949 0.1500 m
0.9949 0.1600 l
s
n
0.9949 0.8500 m
0.9949 0.8400 l
s
n
1.0182 0.1500 m
1.0182 0.1600 l
s
n
1.0182 0.8500 m
1.0182 0.8400 l
s
n
1.0391 0.1500 m
1.0391 0.1600 l
s
n
1.0391 0.8500 m
1.0391 0.8400 l
s
n
0.8576 0.1500 m
0.8576 0.1600 l
s
n
0.8576 0.8500 m
0.8576 0.8400 l
s
n
0.9379 0.1500 m
0.9379 0.1600 l
s
n
0.9379 0.8500 m
0.9379 0.8400 l
s
n
0.9949 0.1500 m
0.9949 0.1600 l
s
n
0.9949 0.8500 m
0.9949 0.8400 l
s
n
1.0391 0.1500 m
1.0391 0.1600 l
s
n
1.0391 0.8500 m
1.0391 0.8400 l
s
n
1.0752 0.1500 m
1.0752 0.1600 l
s
n
1.0752 0.8500 m
1.0752 0.8400 l
s
n
1.1058 0.1500 m
1.1058 0.1600 l
s
n
1.1058 0.8500 m
1.1058 0.8400 l
s
n
1.1322 0.1500 m
1.1322 0.1600 l
s
n
1.1322 0.8500 m
1.1322 0.8400 l
s
n
0.9949 0.1500 m
0.9949 0.1600 l
s
n
0.9949 0.8500 m
0.9949 0.8400 l
s
n
1.0752 0.1500 m
1.0752 0.1600 l
s
n
1.0752 0.8500 m
1.0752 0.8400 l
s
n
1.1322 0.1500 m
1.1322 0.1600 l
s
n
1.1322 0.8500 m
1.1322 0.8400 l
s
n
1.1322 0.1500 m
1.1322 0.1600 l
s
n
1.1322 0.8500 m
1.1322 0.8400 l
s
n
0.1709 0.1500 m
0.1709 0.1700 l
s
n
0.1709 0.8500 m
0.1709 0.8300 l
s
n
0.3082 0.1500 m
0.3082 0.1700 l
s
n
0.3082 0.8500 m
0.3082 0.8300 l
s
n
0.4456 0.1500 m
0.4456 0.1700 l
s
n
0.4456 0.8500 m
0.4456 0.8300 l
s
n
0.5829 0.1500 m
0.5829 0.1700 l
s
n
0.5829 0.8500 m
0.5829 0.8300 l
s
n
0.7202 0.1500 m
0.7202 0.1700 l
s
n
0.7202 0.8500 m
0.7202 0.8300 l
s
n
0.8576 0.1500 m
0.8576 0.1700 l
s
n
0.8576 0.8500 m
0.8576 0.8300 l
s
n
0.9949 0.1500 m
0.9949 0.1700 l
s
n
0.9949 0.8500 m
0.9949 0.8300 l
s
n
1.1322 0.1500 m
1.1322 0.1700 l
s
n
1.1322 0.8500 m
1.1322 0.8300 l
s
/Times-Roman findfont
dup length dict begin
 {1 index /FID ne {def} {pop pop} ifelse} forall
 /Encoding DefEncoding def
 currentdict
end
/Font35 exch definefont pop
/Font35 FFSF
0.1636 0.1153 m
GS
[0.0367 0.0000 0.0000 0.0367 0 0] CC
(1) show
GR
/Font35 FFSF
0.2996 0.1153 m
GS
[0.0367 0.0000 0.0000 0.0367 0 0] CC
(2) show
GR
/Font35 FFSF
0.4369 0.1153 m
GS
[0.0367 0.0000 0.0000 0.0367 0 0] CC
(4) show
GR
/Font35 FFSF
0.5747 0.1153 m
GS
[0.0367 0.0000 0.0000 0.0367 0 0] CC
(8) show
GR
/Font35 FFSF
0.7024 0.1149 m
GS
[0.0367 0.0000 0.0000 0.0367 0 0] CC
(16) show
GR
/Font35 FFSF
0.8397 0.1153 m
GS
[0.0367 0.0000 0.0000 0.0367 0 0] CC
(32) show
GR
/Font35 FFSF
0.9771 0.1149 m
GS
[0.0367 0.0000 0.0000 0.0367 0 0] CC
(64) show
GR
/Font35 FFSF
1.1056 0.1153 m
GS
[0.0367 0.0000 0.0000 0.0367 0 0] CC
(128) show
GR
/Font35 FFSF
0.5733 0.0794 m
GS
[0.0367 0.0000 0.0000 0.0367 0 0] CC
(Block size) show
GR
n
0.1500 0.1500 m
0.1500 0.8500 l
s
n
1.1500 0.1500 m
1.1500 0.8500 l
s
n
0.1500 0.2022 m
0.1600 0.2022 l
s
n
1.1500 0.2022 m
1.1400 0.2022 l
s
n
0.1500 0.3067 m
0.1600 0.3067 l
s
n
1.1500 0.3067 m
1.1400 0.3067 l
s
n
0.1500 0.4112 m
0.1600 0.4112 l
s
n
1.1500 0.4112 m
1.1400 0.4112 l
s
n
0.1500 0.5157 m
0.1600 0.5157 l
s
n
1.1500 0.5157 m
1.1400 0.5157 l
s
n
0.1500 0.6201 m
0.1600 0.6201 l
s
n
1.1500 0.6201 m
1.1400 0.6201 l
s
n
0.1500 0.7246 m
0.1600 0.7246 l
s
n
1.1500 0.7246 m
1.1400 0.7246 l
s
n
0.1500 0.8291 m
0.1600 0.8291 l
s
n
1.1500 0.8291 m
1.1400 0.8291 l
s
n
0.1500 0.1500 m
0.1700 0.1500 l
s
n
1.1500 0.1500 m
1.1300 0.1500 l
s
n
0.1500 0.2545 m
0.1700 0.2545 l
s
n
1.1500 0.2545 m
1.1300 0.2545 l
s
n
0.1500 0.3590 m
0.1700 0.3590 l
s
n
1.1500 0.3590 m
1.1300 0.3590 l
s
n
0.1500 0.4634 m
0.1700 0.4634 l
s
n
1.1500 0.4634 m
1.1300 0.4634 l
s
n
0.1500 0.5679 m
0.1700 0.5679 l
s
n
1.1500 0.5679 m
1.1300 0.5679 l
s
n
0.1500 0.6724 m
0.1700 0.6724 l
s
n
1.1500 0.6724 m
1.1300 0.6724 l
s
n
0.1500 0.7769 m
0.1700 0.7769 l
s
n
1.1500 0.7769 m
1.1300 0.7769 l
s
/Font35 FFSF
0.1224 0.1378 m
GS
[0.0367 0.0000 0.0000 0.0367 0 0] CC
(0) show
GR
/Font35 FFSF
0.1039 0.2423 m
GS
[0.0367 0.0000 0.0000 0.0367 0 0] CC
(10) show
GR
/Font35 FFSF
0.1039 0.3468 m
GS
[0.0367 0.0000 0.0000 0.0367 0 0] CC
(20) show
GR
/Font35 FFSF
0.1039 0.4513 m
GS
[0.0367 0.0000 0.0000 0.0367 0 0] CC
(30) show
GR
/Font35 FFSF
0.1039 0.5558 m
GS
[0.0367 0.0000 0.0000 0.0367 0 0] CC
(40) show
GR
/Font35 FFSF
0.1039 0.6600 m
GS
[0.0367 0.0000 0.0000 0.0367 0 0] CC
(50) show
GR
/Font35 FFSF
0.1039 0.7645 m
GS
[0.0367 0.0000 0.0000 0.0367 0 0] CC
(60) show
GR
/Font35 FFSF
0.0857 0.3441 m
GS
[0.0000 0.0367 -0.0367 0.0000 0 0] CC
(Throughput [GFlops]) show
GR
n
0.1500 0.1500 m
0.1500 0.8500 l
1.1500 0.8500 l
1.1500 0.1500 l
0.1500 0.1500 l
c
s
n
0.4850 0.3100 m
0.4850 0.1873 l
1.1212 0.1873 l
1.1212 0.3100 l
c
[/DeviceRGB] SCS
Color0 SC
fill
[/DeviceRGB] SCS
Color1 SC
n
0.4850 0.3100 m
0.4850 0.1873 l
1.1212 0.1873 l
1.1212 0.3100 l
0.4850 0.3100 l
c
s
/Font35 FFSF
0.5657 0.2749 m
GS
[0.0367 0.0000 0.0000 0.0367 0 0] CC
(CPU AMD FX 8150 \(8 threads\)) show
GR
[] 0 SD
0.0037 SLW
n
0.5057 0.2841 m
0.5457 0.2841 l
s
n
0.5057 0.2841 0.0100 0.0100 0 360 EARC c
fill
[] 0 SD
0.0015 SLW
n 0.5057 0.2841 0.0100 0.0100 0 360 EARC s
n
0.5457 0.2841 0.0100 0.0100 0 360 EARC c
fill
n 0.5457 0.2841 0.0100 0.0100 0 360 EARC s
/Font35 FFSF
0.5657 0.2331 m
GS
[0.0367 0.0000 0.0000 0.0367 0 0] CC
(GPU AMD/ATI RADEON HD 5870) show
GR
[/DeviceRGB] SCS
Color4 SC
[0.0187 0.0112 ] 0 SD
0.0037 SLW
n
0.5057 0.2455 m
0.5457 0.2455 l
s
n
0.4972 0.2370 m
0.4972 0.2540 l
0.5142 0.2540 l
0.5142 0.2370 l
c
fill
[] 0 SD
0.0015 SLW
n
0.4972 0.2370 m
0.4972 0.2540 l
0.5142 0.2540 l
0.5142 0.2370 l
0.4972 0.2370 l
c
s
n
0.5373 0.2370 m
0.5373 0.2540 l
0.5542 0.2540 l
0.5542 0.2370 l
c
fill
n
0.5373 0.2370 m
0.5373 0.2540 l
0.5542 0.2540 l
0.5542 0.2370 l
0.5373 0.2370 l
c
s
/Font35 FFSF
[/DeviceRGB] SCS
Color1 SC
0.5657 0.1976 m
GS
[0.0367 0.0000 0.0000 0.0367 0 0] CC
(GPU Nvidia GeForce GTX 480) show
GR
[/DeviceRGB] SCS
Color2 SC
[0.0053 0.0158 ] 0 SD
0.0053 SLW
n
0.5057 0.2100 m
0.5457 0.2100 l
s
n
0.5057 0.2200 m
0.4957 0.2100 l
0.5057 0.2000 l
0.5157 0.2100 l
c
fill
[] 0 SD
0.0015 SLW
n
0.5057 0.2200 m
0.4957 0.2100 l
0.5057 0.2000 l
0.5157 0.2100 l
0.5057 0.2200 l
c
s
n
0.5457 0.2200 m
0.5357 0.2100 l
0.5457 0.2000 l
0.5557 0.2100 l
c
fill
n
0.5457 0.2200 m
0.5357 0.2100 l
0.5457 0.2000 l
0.5557 0.2100 l
0.5457 0.2200 l
c
s
%%Trailer
%%BoundingBox: 36 47 711 522
%%DocumentNeededResources: font Times-Roman
%%EOF
