%!PS-Adobe-3.0 EPSF-3.0
%%BoundingBox: (atend)
%%LanguageLevel: 2
%%Creator: Grace-5.1.22
%%CreationDate: Thu Mar 29 07:21:27 2012
%%DocumentData: Clean8Bit
%%Orientation: Portrait
%%Title: tdcurie1.agr
%%For: xavier
%%DocumentNeededResources: (atend)
%%EndComments
%%BeginProlog
/m {moveto} def
/l {lineto} def
/s {stroke} def
/n {newpath} def
/c {closepath} def
/RL {rlineto} def
/SLW {setlinewidth} def
/GS {gsave} def
/GR {grestore} def
/SC {setcolor} def
/SGRY {setgray} def
/SRGB {setrgbcolor} def
/SD {setdash} def
/SLC {setlinecap} def
/SLJ {setlinejoin} def
/SCS {setcolorspace} def
/FFSF {findfont setfont} def
/CC {concat} def
/PXL {n m 0 0 RL s} def
/Color0 {1.0000 1.0000 1.0000} def
/Color1 {0.0000 0.0000 0.0000} def
/Color2 {1.0000 0.0000 0.0000} def
/Color3 {0.0000 1.0000 0.0000} def
/Color4 {0.0000 0.0000 1.0000} def
/Color5 {1.0000 1.0000 0.0000} def
/Color6 {0.7373 0.5608 0.5608} def
/Color7 {0.8627 0.8627 0.8627} def
/Color8 {0.5804 0.0000 0.8275} def
/Color9 {0.0000 1.0000 1.0000} def
/Color10 {1.0000 0.0000 1.0000} def
/Color11 {1.0000 0.6471 0.0000} def
/Color12 {0.4471 0.1294 0.7373} def
/Color13 {0.4039 0.0275 0.2824} def
/Color14 {0.2510 0.8784 0.8157} def
/Color15 {0.0000 0.5451 0.0000} def
/Color16 {0.7529 0.7529 0.7529} def
/Color17 {0.5059 0.5059 0.5059} def
/Color18 {0.2588 0.2588 0.2588} def
/PTRN {
 /pat_bits exch def 
 <<
  /PaintType 2
  /PatternType 1 /TilingType 1
  /BBox[0 0 16 16]
  /XStep 16 /YStep 16
  /PaintProc {
   pop
   16 16 true [-1 0 0 -1 16 16] pat_bits imagemask
  }
 >>
 [0.0016 0 0 0.0016 0 0]
 makepattern
} def
/Pattern0 {<0000000000000000000000000000000000000000000000000000000000000000> PTRN} bind def
/Pattern1 {<ffffffffffffffffffffffffffffffffffffffffffffffffffffffffffffffff> PTRN} bind def
/Pattern2 {<eeeeffffbbbbffffeeeeffffbbbbffffeeeeffffbbbbffffeeeeffffbbbbffff> PTRN} bind def
/Pattern3 {<eeeebbbbeeeebbbbeeeebbbbeeeebbbbeeeebbbbeeeebbbbeeeebbbbeeeebbbb> PTRN} bind def
/Pattern4 {<5555aaaa5555aaaa5555aaaa5555aaaa5555aaaa5555aaaa5555aaaa5555aaaa> PTRN} bind def
/Pattern5 {<1111444411114444111144441111444411114444111144441111444411114444> PTRN} bind def
/Pattern6 {<1111000044440000111100004444000011110000444400001111000044440000> PTRN} bind def
/Pattern7 {<1010000000000000010100000000000010100000000000000101000000000000> PTRN} bind def
/Pattern8 {<0000000000000000000000000000000000000000000000000000000000000000> PTRN} bind def
/Pattern9 {<1e1e0f0f8787c3c3e1e1f0f078783c3c1e1e0f0f8787c3c3e1e1f0f078783c3c> PTRN} bind def
/Pattern10 {<7878f0f0e1e1c3c387870f0f1e1e3c3c7878f0f0e1e1c3c387870f0f1e1e3c3c> PTRN} bind def
/Pattern11 {<3333333333333333333333333333333333333333333333333333333333333333> PTRN} bind def
/Pattern12 {<ffffffff00000000ffffffff00000000ffffffff00000000ffffffff00000000> PTRN} bind def
/Pattern13 {<8181424224241818181824244242818181814242242418181818242442428181> PTRN} bind def
/Pattern14 {<8080404020201010080804040202010180804040202010100808040402020101> PTRN} bind def
/Pattern15 {<0101020204040808101020204040808001010202040408081010202040408080> PTRN} bind def
/Pattern16 {<2222222222222222222222222222222222222222222222222222222222222222> PTRN} bind def
/Pattern17 {<0000ffff000000000000ffff000000000000ffff000000000000ffff00000000> PTRN} bind def
/Pattern18 {<2222ffff222222222222ffff222222222222ffff222222222222ffff22222222> PTRN} bind def
/Pattern19 {<ffffffff33333333ffffffff33333333ffffffff33333333ffffffff33333333> PTRN} bind def
/Pattern20 {<0f0f0f0f0f0f0f0ff0f0f0f0f0f0f0f00f0f0f0f0f0f0f0ff0f0f0f0f0f0f0f0> PTRN} bind def
/Pattern21 {<ff00ff00ff00ff00ff00ff00ff00ff0000ff00ff00ff00ff00ff00ff00ff00ff> PTRN} bind def
/Pattern22 {<8001800180018001800180018001ffffffff8001800180018001800180018001> PTRN} bind def
/Pattern23 {<c003c003c003c003c003c003ffffffffffffffffc003c003c003c003c003c003> PTRN} bind def
/Pattern24 {<040404040404ffff404040404040ffff040404040404ffff404040404040ffff> PTRN} bind def
/Pattern25 {<180018001800180018001800ffffffff001800180018001800180018ffffffff> PTRN} bind def
/Pattern26 {<1111b8b87c7c3a3a1111a3a3c7c78b8b1111b8b87c7c3a3a1111a3a3c7c78b8b> PTRN} bind def
/Pattern27 {<101010102828c7c70101010182827c7c101010102828c7c70101010182827c7c> PTRN} bind def
/Pattern28 {<1c1c121211112121c1c12121111112121c1c121211112121c1c1212111111212> PTRN} bind def
/Pattern29 {<3e3e414180808080e3e31414080808083e3e414180808080e3e3141408080808> PTRN} bind def
/Pattern30 {<4848888884848383848488884848383848488888848483838484888848483838> PTRN} bind def
/Pattern31 {<03030404080808080c0c12122121c0c003030404080808080c0c12122121c0c0> PTRN} bind def
/ellipsedict 8 dict def
ellipsedict /mtrx matrix put
/EARC {
 ellipsedict begin
  /endangle exch def
  /startangle exch def
  /yrad exch def
  /xrad exch def
  /y exch def
  /x exch def
  /savematrix mtrx currentmatrix def
  x y translate
  xrad yrad scale
  0 0 1 startangle endangle arc
  savematrix setmatrix
 end
} def
/TL {
  /kcomp exch def
  /linewidth exch def
  /offset exch def
  GS
  0 offset rmoveto
  linewidth SLW
  dup stringwidth exch kcomp add exch RL s
  GR
} def
/KINIT
{
 /kvector exch def
 /kid 0 def
} def
/KPROC
{
 pop pop
 kvector kid get
 0 rmoveto
 /kid 1 kid add def
} def
/DefEncoding [
 /.notdef
 /.notdef
 /.notdef
 /.notdef
 /.notdef
 /.notdef
 /.notdef
 /.notdef
 /.notdef
 /.notdef
 /.notdef
 /.notdef
 /.notdef
 /.notdef
 /.notdef
 /.notdef
 /.notdef
 /.notdef
 /.notdef
 /.notdef
 /.notdef
 /.notdef
 /.notdef
 /.notdef
 /.notdef
 /.notdef
 /.notdef
 /.notdef
 /.notdef
 /.notdef
 /.notdef
 /.notdef
 /space
 /exclam
 /quotedbl
 /numbersign
 /dollar
 /percent
 /ampersand
 /quoteright
 /parenleft
 /parenright
 /asterisk
 /plus
 /comma
 /hyphen
 /period
 /slash
 /zero
 /one
 /two
 /three
 /four
 /five
 /six
 /seven
 /eight
 /nine
 /colon
 /semicolon
 /less
 /equal
 /greater
 /question
 /at
 /A
 /B
 /C
 /D
 /E
 /F
 /G
 /H
 /I
 /J
 /K
 /L
 /M
 /N
 /O
 /P
 /Q
 /R
 /S
 /T
 /U
 /V
 /W
 /X
 /Y
 /Z
 /bracketleft
 /backslash
 /bracketright
 /asciicircum
 /underscore
 /grave
 /a
 /b
 /c
 /d
 /e
 /f
 /g
 /h
 /i
 /j
 /k
 /l
 /m
 /n
 /o
 /p
 /q
 /r
 /s
 /t
 /u
 /v
 /w
 /x
 /y
 /z
 /braceleft
 /bar
 /braceright
 /asciitilde
 /.notdef
 /.notdef
 /.notdef
 /.notdef
 /.notdef
 /.notdef
 /.notdef
 /.notdef
 /.notdef
 /.notdef
 /.notdef
 /.notdef
 /.notdef
 /.notdef
 /.notdef
 /.notdef
 /.notdef
 /.notdef
 /.notdef
 /.notdef
 /.notdef
 /.notdef
 /.notdef
 /.notdef
 /.notdef
 /.notdef
 /.notdef
 /.notdef
 /.notdef
 /.notdef
 /.notdef
 /.notdef
 /.notdef
 /space
 /exclamdown
 /cent
 /sterling
 /currency
 /yen
 /brokenbar
 /section
 /dieresis
 /copyright
 /ordfeminine
 /guillemotleft
 /logicalnot
 /hyphen
 /registered
 /macron
 /degree
 /plusminus
 /twosuperior
 /threesuperior
 /acute
 /mu
 /paragraph
 /periodcentered
 /cedilla
 /onesuperior
 /ordmasculine
 /guillemotright
 /onequarter
 /onehalf
 /threequarters
 /questiondown
 /Agrave
 /Aacute
 /Acircumflex
 /Atilde
 /Adieresis
 /Aring
 /AE
 /Ccedilla
 /Egrave
 /Eacute
 /Ecircumflex
 /Edieresis
 /Igrave
 /Iacute
 /Icircumflex
 /Idieresis
 /Eth
 /Ntilde
 /Ograve
 /Oacute
 /Ocircumflex
 /Otilde
 /Odieresis
 /multiply
 /Oslash
 /Ugrave
 /Uacute
 /Ucircumflex
 /Udieresis
 /Yacute
 /Thorn
 /germandbls
 /agrave
 /aacute
 /acircumflex
 /atilde
 /adieresis
 /aring
 /ae
 /ccedilla
 /egrave
 /eacute
 /ecircumflex
 /edieresis
 /igrave
 /iacute
 /icircumflex
 /idieresis
 /eth
 /ntilde
 /ograve
 /oacute
 /ocircumflex
 /otilde
 /odieresis
 /divide
 /oslash
 /ugrave
 /uacute
 /ucircumflex
 /udieresis
 /yacute
 /thorn
 /ydieresis
] def
%%EndProlog
%%BeginSetup
%%EndSetup
612.00 612.00 scale
n
0.0000 0.0000 m
0.0000 1.0000 l
1.2941 1.0000 l
1.2941 0.0000 l
c
[/DeviceRGB] SCS
Color0 SC
fill
[/DeviceRGB] SCS
Color1 SC
[] 0 SD
0.0045 SLW
0 SLC
0 SLJ
n
0.2036 0.7174 m
0.3541 0.6608 l
0.5046 0.5587 l
0.6551 0.4680 l
0.8057 0.3865 l
0.9562 0.3438 l
1.1067 0.2489 l
s
n
0.2036 0.7174 0.0100 0.0100 0 360 EARC c
fill
[] 0 SD
0.0015 SLW
n 0.2036 0.7174 0.0100 0.0100 0 360 EARC s
n
0.3541 0.6608 0.0100 0.0100 0 360 EARC c
fill
n 0.3541 0.6608 0.0100 0.0100 0 360 EARC s
n
0.5046 0.5587 0.0100 0.0100 0 360 EARC c
fill
n 0.5046 0.5587 0.0100 0.0100 0 360 EARC s
n
0.6551 0.4680 0.0100 0.0100 0 360 EARC c
fill
n 0.6551 0.4680 0.0100 0.0100 0 360 EARC s
n
0.8057 0.3865 0.0100 0.0100 0 360 EARC c
fill
n 0.8057 0.3865 0.0100 0.0100 0 360 EARC s
n
0.9562 0.3438 0.0100 0.0100 0 360 EARC c
fill
n 0.9562 0.3438 0.0100 0.0100 0 360 EARC s
n
1.1067 0.2489 0.0100 0.0100 0 360 EARC c
fill
n 1.1067 0.2489 0.0100 0.0100 0 360 EARC s
[/DeviceRGB] SCS
Color4 SC
[0.0225 0.0135 ] 0 SD
0.0045 SLW
n
0.3541 0.8261 m
0.5046 0.7251 l
0.6551 0.6194 l
0.8057 0.5346 l
0.9562 0.4468 l
1.1067 0.4061 l
s
n
0.3456 0.8176 m
0.3456 0.8346 l
0.3626 0.8346 l
0.3626 0.8176 l
c
fill
[] 0 SD
0.0015 SLW
n
0.3456 0.8176 m
0.3456 0.8346 l
0.3626 0.8346 l
0.3626 0.8176 l
0.3456 0.8176 l
c
s
n
0.4961 0.7166 m
0.4961 0.7336 l
0.5131 0.7336 l
0.5131 0.7166 l
c
fill
n
0.4961 0.7166 m
0.4961 0.7336 l
0.5131 0.7336 l
0.5131 0.7166 l
0.4961 0.7166 l
c
s
n
0.6466 0.6109 m
0.6466 0.6279 l
0.6636 0.6279 l
0.6636 0.6109 l
c
fill
n
0.6466 0.6109 m
0.6466 0.6279 l
0.6636 0.6279 l
0.6636 0.6109 l
0.6466 0.6109 l
c
s
n
0.7972 0.5261 m
0.7972 0.5431 l
0.8142 0.5431 l
0.8142 0.5261 l
c
fill
n
0.7972 0.5261 m
0.7972 0.5431 l
0.8142 0.5431 l
0.8142 0.5261 l
0.7972 0.5261 l
c
s
n
0.9477 0.4383 m
0.9477 0.4553 l
0.9647 0.4553 l
0.9647 0.4383 l
c
fill
n
0.9477 0.4383 m
0.9477 0.4553 l
0.9647 0.4553 l
0.9647 0.4383 l
0.9477 0.4383 l
c
s
n
1.0982 0.3976 m
1.0982 0.4146 l
1.1152 0.4146 l
1.1152 0.3976 l
c
fill
n
1.0982 0.3976 m
1.0982 0.4146 l
1.1152 0.4146 l
1.1152 0.3976 l
1.0982 0.3976 l
c
s
[/DeviceRGB] SCS
Color1 SC
n
0.1500 0.1500 m
1.1500 0.1500 l
s
n
0.1500 0.8500 m
1.1500 0.8500 l
s
n
0.1746 0.1500 m
0.1746 0.1600 l
s
n
0.1746 0.8500 m
0.1746 0.8400 l
s
n
0.2036 0.1500 m
0.2036 0.1600 l
s
n
0.2036 0.8500 m
0.2036 0.8400 l
s
n
0.2292 0.1500 m
0.2292 0.1600 l
s
n
0.2292 0.8500 m
0.2292 0.8400 l
s
n
0.2521 0.1500 m
0.2521 0.1600 l
s
n
0.2521 0.8500 m
0.2521 0.8400 l
s
n
0.2036 0.1500 m
0.2036 0.1600 l
s
n
0.2036 0.8500 m
0.2036 0.8400 l
s
n
0.2521 0.1500 m
0.2521 0.1600 l
s
n
0.2521 0.8500 m
0.2521 0.8400 l
s
n
0.2917 0.1500 m
0.2917 0.1600 l
s
n
0.2917 0.8500 m
0.2917 0.8400 l
s
n
0.3251 0.1500 m
0.3251 0.1600 l
s
n
0.3251 0.8500 m
0.3251 0.8400 l
s
n
0.3541 0.1500 m
0.3541 0.1600 l
s
n
0.3541 0.8500 m
0.3541 0.8400 l
s
n
0.3797 0.1500 m
0.3797 0.1600 l
s
n
0.3797 0.8500 m
0.3797 0.8400 l
s
n
0.4026 0.1500 m
0.4026 0.1600 l
s
n
0.4026 0.8500 m
0.4026 0.8400 l
s
n
0.2036 0.1500 m
0.2036 0.1600 l
s
n
0.2036 0.8500 m
0.2036 0.8400 l
s
n
0.2917 0.1500 m
0.2917 0.1600 l
s
n
0.2917 0.8500 m
0.2917 0.8400 l
s
n
0.3541 0.1500 m
0.3541 0.1600 l
s
n
0.3541 0.8500 m
0.3541 0.8400 l
s
n
0.4026 0.1500 m
0.4026 0.1600 l
s
n
0.4026 0.8500 m
0.4026 0.8400 l
s
n
0.4422 0.1500 m
0.4422 0.1600 l
s
n
0.4422 0.8500 m
0.4422 0.8400 l
s
n
0.4756 0.1500 m
0.4756 0.1600 l
s
n
0.4756 0.8500 m
0.4756 0.8400 l
s
n
0.5046 0.1500 m
0.5046 0.1600 l
s
n
0.5046 0.8500 m
0.5046 0.8400 l
s
n
0.5302 0.1500 m
0.5302 0.1600 l
s
n
0.5302 0.8500 m
0.5302 0.8400 l
s
n
0.5531 0.1500 m
0.5531 0.1600 l
s
n
0.5531 0.8500 m
0.5531 0.8400 l
s
n
0.3541 0.1500 m
0.3541 0.1600 l
s
n
0.3541 0.8500 m
0.3541 0.8400 l
s
n
0.4422 0.1500 m
0.4422 0.1600 l
s
n
0.4422 0.8500 m
0.4422 0.8400 l
s
n
0.5046 0.1500 m
0.5046 0.1600 l
s
n
0.5046 0.8500 m
0.5046 0.8400 l
s
n
0.5531 0.1500 m
0.5531 0.1600 l
s
n
0.5531 0.8500 m
0.5531 0.8400 l
s
n
0.5927 0.1500 m
0.5927 0.1600 l
s
n
0.5927 0.8500 m
0.5927 0.8400 l
s
n
0.6262 0.1500 m
0.6262 0.1600 l
s
n
0.6262 0.8500 m
0.6262 0.8400 l
s
n
0.6551 0.1500 m
0.6551 0.1600 l
s
n
0.6551 0.8500 m
0.6551 0.8400 l
s
n
0.6807 0.1500 m
0.6807 0.1600 l
s
n
0.6807 0.8500 m
0.6807 0.8400 l
s
n
0.7036 0.1500 m
0.7036 0.1600 l
s
n
0.7036 0.8500 m
0.7036 0.8400 l
s
n
0.3541 0.1500 m
0.3541 0.1600 l
s
n
0.3541 0.8500 m
0.3541 0.8400 l
s
n
0.5046 0.1500 m
0.5046 0.1600 l
s
n
0.5046 0.8500 m
0.5046 0.8400 l
s
n
0.5927 0.1500 m
0.5927 0.1600 l
s
n
0.5927 0.8500 m
0.5927 0.8400 l
s
n
0.6551 0.1500 m
0.6551 0.1600 l
s
n
0.6551 0.8500 m
0.6551 0.8400 l
s
n
0.7036 0.1500 m
0.7036 0.1600 l
s
n
0.7036 0.8500 m
0.7036 0.8400 l
s
n
0.7432 0.1500 m
0.7432 0.1600 l
s
n
0.7432 0.8500 m
0.7432 0.8400 l
s
n
0.7767 0.1500 m
0.7767 0.1600 l
s
n
0.7767 0.8500 m
0.7767 0.8400 l
s
n
0.8057 0.1500 m
0.8057 0.1600 l
s
n
0.8057 0.8500 m
0.8057 0.8400 l
s
n
0.8312 0.1500 m
0.8312 0.1600 l
s
n
0.8312 0.8500 m
0.8312 0.8400 l
s
n
0.8541 0.1500 m
0.8541 0.1600 l
s
n
0.8541 0.8500 m
0.8541 0.8400 l
s
n
0.6551 0.1500 m
0.6551 0.1600 l
s
n
0.6551 0.8500 m
0.6551 0.8400 l
s
n
0.7432 0.1500 m
0.7432 0.1600 l
s
n
0.7432 0.8500 m
0.7432 0.8400 l
s
n
0.8057 0.1500 m
0.8057 0.1600 l
s
n
0.8057 0.8500 m
0.8057 0.8400 l
s
n
0.8541 0.1500 m
0.8541 0.1600 l
s
n
0.8541 0.8500 m
0.8541 0.8400 l
s
n
0.8937 0.1500 m
0.8937 0.1600 l
s
n
0.8937 0.8500 m
0.8937 0.8400 l
s
n
0.9272 0.1500 m
0.9272 0.1600 l
s
n
0.9272 0.8500 m
0.9272 0.8400 l
s
n
0.9562 0.1500 m
0.9562 0.1600 l
s
n
0.9562 0.8500 m
0.9562 0.8400 l
s
n
0.9818 0.1500 m
0.9818 0.1600 l
s
n
0.9818 0.8500 m
0.9818 0.8400 l
s
n
1.0046 0.1500 m
1.0046 0.1600 l
s
n
1.0046 0.8500 m
1.0046 0.8400 l
s
n
0.6551 0.1500 m
0.6551 0.1600 l
s
n
0.6551 0.8500 m
0.6551 0.8400 l
s
n
0.8057 0.1500 m
0.8057 0.1600 l
s
n
0.8057 0.8500 m
0.8057 0.8400 l
s
n
0.8937 0.1500 m
0.8937 0.1600 l
s
n
0.8937 0.8500 m
0.8937 0.8400 l
s
n
0.9562 0.1500 m
0.9562 0.1600 l
s
n
0.9562 0.8500 m
0.9562 0.8400 l
s
n
1.0046 0.1500 m
1.0046 0.1600 l
s
n
1.0046 0.8500 m
1.0046 0.8400 l
s
n
1.0442 0.1500 m
1.0442 0.1600 l
s
n
1.0442 0.8500 m
1.0442 0.8400 l
s
n
1.0777 0.1500 m
1.0777 0.1600 l
s
n
1.0777 0.8500 m
1.0777 0.8400 l
s
n
1.1067 0.1500 m
1.1067 0.1600 l
s
n
1.1067 0.8500 m
1.1067 0.8400 l
s
n
1.1323 0.1500 m
1.1323 0.1600 l
s
n
1.1323 0.8500 m
1.1323 0.8400 l
s
n
0.9562 0.1500 m
0.9562 0.1600 l
s
n
0.9562 0.8500 m
0.9562 0.8400 l
s
n
1.0442 0.1500 m
1.0442 0.1600 l
s
n
1.0442 0.8500 m
1.0442 0.8400 l
s
n
1.1067 0.1500 m
1.1067 0.1600 l
s
n
1.1067 0.8500 m
1.1067 0.8400 l
s
n
0.9562 0.1500 m
0.9562 0.1600 l
s
n
0.9562 0.8500 m
0.9562 0.8400 l
s
n
1.1067 0.1500 m
1.1067 0.1600 l
s
n
1.1067 0.8500 m
1.1067 0.8400 l
s
n
0.2036 0.1500 m
0.2036 0.1700 l
s
n
0.2036 0.8500 m
0.2036 0.8300 l
s
n
0.5046 0.1500 m
0.5046 0.1700 l
s
n
0.5046 0.8500 m
0.5046 0.8300 l
s
n
0.8057 0.1500 m
0.8057 0.1700 l
s
n
0.8057 0.8500 m
0.8057 0.8300 l
s
n
1.1067 0.1500 m
1.1067 0.1700 l
s
n
1.1067 0.8500 m
1.1067 0.8300 l
s
/Times-Roman findfont
dup length dict begin
 {1 index /FID ne {def} {pop pop} ifelse} forall
 /Encoding DefEncoding def
 currentdict
end
/Font35 exch definefont pop
/Font35 FFSF
0.1681 0.1067 m
GS
[0.0490 0.0000 0.0000 0.0490 0 0] CC
(128) show
GR
/Font35 FFSF
0.4686 0.1063 m
GS
[0.0490 0.0000 0.0000 0.0490 0 0] CC
(512) show
GR
/Font35 FFSF
0.7580 0.1067 m
GS
[0.0490 0.0000 0.0000 0.0490 0 0] CC
(2048) show
GR
/Font35 FFSF
1.0585 0.1067 m
GS
[0.0490 0.0000 0.0000 0.0490 0 0] CC
(8192) show
GR
/Font35 FFSF
0.4863 0.0618 m
GS
[0.0490 0.0000 0.0000 0.0490 0 0] CC
(Number of cores) show
GR
n
0.1500 0.1500 m
0.1500 0.8500 l
s
n
1.1500 0.1500 m
1.1500 0.8500 l
s
n
0.1500 0.2554 m
0.1600 0.2554 l
s
n
1.1500 0.2554 m
1.1400 0.2554 l
s
n
0.1500 0.3170 m
0.1600 0.3170 l
s
n
1.1500 0.3170 m
1.1400 0.3170 l
s
n
0.1500 0.3607 m
0.1600 0.3607 l
s
n
1.1500 0.3607 m
1.1400 0.3607 l
s
n
0.1500 0.3946 m
0.1600 0.3946 l
s
n
1.1500 0.3946 m
1.1400 0.3946 l
s
n
0.1500 0.4224 m
0.1600 0.4224 l
s
n
1.1500 0.4224 m
1.1400 0.4224 l
s
n
0.1500 0.4458 m
0.1600 0.4458 l
s
n
1.1500 0.4458 m
1.1400 0.4458 l
s
n
0.1500 0.4661 m
0.1600 0.4661 l
s
n
1.1500 0.4661 m
1.1400 0.4661 l
s
n
0.1500 0.4840 m
0.1600 0.4840 l
s
n
1.1500 0.4840 m
1.1400 0.4840 l
s
n
0.1500 0.5000 m
0.1600 0.5000 l
s
n
1.1500 0.5000 m
1.1400 0.5000 l
s
n
0.1500 0.6054 m
0.1600 0.6054 l
s
n
1.1500 0.6054 m
1.1400 0.6054 l
s
n
0.1500 0.6670 m
0.1600 0.6670 l
s
n
1.1500 0.6670 m
1.1400 0.6670 l
s
n
0.1500 0.7107 m
0.1600 0.7107 l
s
n
1.1500 0.7107 m
1.1400 0.7107 l
s
n
0.1500 0.7446 m
0.1600 0.7446 l
s
n
1.1500 0.7446 m
1.1400 0.7446 l
s
n
0.1500 0.7724 m
0.1600 0.7724 l
s
n
1.1500 0.7724 m
1.1400 0.7724 l
s
n
0.1500 0.7958 m
0.1600 0.7958 l
s
n
1.1500 0.7958 m
1.1400 0.7958 l
s
n
0.1500 0.8161 m
0.1600 0.8161 l
s
n
1.1500 0.8161 m
1.1400 0.8161 l
s
n
0.1500 0.8340 m
0.1600 0.8340 l
s
n
1.1500 0.8340 m
1.1400 0.8340 l
s
n
0.1500 0.8500 m
0.1600 0.8500 l
s
n
1.1500 0.8500 m
1.1400 0.8500 l
s
n
0.1500 0.1500 m
0.1700 0.1500 l
s
n
1.1500 0.1500 m
1.1300 0.1500 l
s
n
0.1500 0.5000 m
0.1700 0.5000 l
s
n
1.1500 0.5000 m
1.1300 0.5000 l
s
n
0.1500 0.8500 m
0.1700 0.8500 l
s
n
1.1500 0.8500 m
1.1300 0.8500 l
s
/Font35 FFSF
0.1208 0.1333 m
GS
[0.0490 0.0000 0.0000 0.0490 0 0] CC
(1) show
GR
/Font35 FFSF
0.0925 0.4837 m
GS
[0.0490 0.0000 0.0000 0.0490 0 0] CC
(10) show
GR
/Font35 FFSF
0.0678 0.8337 m
GS
[0.0490 0.0000 0.0000 0.0490 0 0] CC
(100) show
GR
/Font35 FFSF
0.0473 0.2122 m
GS
[0.0000 0.0490 -0.0490 0.0000 0 0] CC
(Time per propagation step [s]) show
GR
n
0.1500 0.1500 m
0.1500 0.8500 l
1.1500 0.8500 l
1.1500 0.1500 l
0.1500 0.1500 l
c
s
n
0.2000 0.3000 m
0.2000 0.2014 l
0.5162 0.2014 l
0.5162 0.3000 l
c
[/DeviceRGB] SCS
Color0 SC
fill
[/DeviceRGB] SCS
Color1 SC
n
0.2000 0.3000 m
0.2000 0.2014 l
0.5162 0.2014 l
0.5162 0.3000 l
0.2000 0.3000 l
c
s
/Font35 FFSF
0.2808 0.2563 m
GS
[0.0490 0.0000 0.0000 0.0490 0 0] CC
(1365 atoms) show
GR
[] 0 SD
0.0045 SLW
n
0.2208 0.2727 m
0.2608 0.2727 l
s
n
0.2208 0.2727 0.0100 0.0100 0 360 EARC c
fill
[] 0 SD
0.0015 SLW
n 0.2208 0.2727 0.0100 0.0100 0 360 EARC s
n
0.2608 0.2727 0.0100 0.0100 0 360 EARC c
fill
n 0.2608 0.2727 0.0100 0.0100 0 360 EARC s
/Font35 FFSF
0.2808 0.2122 m
GS
[0.0490 0.0000 0.0000 0.0490 0 0] CC
(2676 atoms) show
GR
[/DeviceRGB] SCS
Color4 SC
[0.0225 0.0135 ] 0 SD
0.0045 SLW
n
0.2208 0.2284 m
0.2608 0.2284 l
s
n
0.2123 0.2199 m
0.2123 0.2369 l
0.2293 0.2369 l
0.2293 0.2199 l
c
fill
[] 0 SD
0.0015 SLW
n
0.2123 0.2199 m
0.2123 0.2369 l
0.2293 0.2369 l
0.2293 0.2199 l
0.2123 0.2199 l
c
s
n
0.2523 0.2199 m
0.2523 0.2369 l
0.2693 0.2369 l
0.2693 0.2199 l
c
fill
n
0.2523 0.2199 m
0.2523 0.2369 l
0.2693 0.2369 l
0.2693 0.2199 l
0.2523 0.2199 l
c
s
%%Trailer
%%BoundingBox: 7 36 708 532
%%DocumentNeededResources: font Times-Roman
%%EOF
