%!PS-Adobe-3.0 EPSF-3.0
%%BoundingBox: (atend)
%%LanguageLevel: 2
%%Creator: Grace-5.1.22
%%CreationDate: Wed Mar 28 13:25:42 2012
%%DocumentData: Clean8Bit
%%Orientation: Portrait
%%Title: /home/xavier/files/papers/2012_octopus_psik/img/poisson.agr
%%For: xavier
%%DocumentNeededResources: (atend)
%%EndComments
%%BeginProlog
/m {moveto} def
/l {lineto} def
/s {stroke} def
/n {newpath} def
/c {closepath} def
/RL {rlineto} def
/SLW {setlinewidth} def
/GS {gsave} def
/GR {grestore} def
/SC {setcolor} def
/SGRY {setgray} def
/SRGB {setrgbcolor} def
/SD {setdash} def
/SLC {setlinecap} def
/SLJ {setlinejoin} def
/SCS {setcolorspace} def
/FFSF {findfont setfont} def
/CC {concat} def
/PXL {n m 0 0 RL s} def
/Color0 {1.0000 1.0000 1.0000} def
/Color1 {0.0000 0.0000 0.0000} def
/Color2 {1.0000 0.0000 0.0000} def
/Color3 {0.0000 1.0000 0.0000} def
/Color4 {0.0000 0.0000 1.0000} def
/Color5 {1.0000 1.0000 0.0000} def
/Color6 {0.7373 0.5608 0.5608} def
/Color7 {0.8627 0.8627 0.8627} def
/Color8 {0.5804 0.0000 0.8275} def
/Color9 {0.0000 1.0000 1.0000} def
/Color10 {1.0000 0.0000 1.0000} def
/Color11 {1.0000 0.6471 0.0000} def
/Color12 {0.4471 0.1294 0.7373} def
/Color13 {0.4039 0.0275 0.2824} def
/Color14 {0.2510 0.8784 0.8157} def
/Color15 {0.0000 0.5451 0.0000} def
/Color16 {0.7529 0.7529 0.7529} def
/Color17 {0.5059 0.5059 0.5059} def
/Color18 {0.2588 0.2588 0.2588} def
/PTRN {
 /pat_bits exch def 
 <<
  /PaintType 2
  /PatternType 1 /TilingType 1
  /BBox[0 0 16 16]
  /XStep 16 /YStep 16
  /PaintProc {
   pop
   16 16 true [-1 0 0 -1 16 16] pat_bits imagemask
  }
 >>
 [0.0016 0 0 0.0016 0 0]
 makepattern
} def
/Pattern0 {<0000000000000000000000000000000000000000000000000000000000000000> PTRN} bind def
/Pattern1 {<ffffffffffffffffffffffffffffffffffffffffffffffffffffffffffffffff> PTRN} bind def
/Pattern2 {<eeeeffffbbbbffffeeeeffffbbbbffffeeeeffffbbbbffffeeeeffffbbbbffff> PTRN} bind def
/Pattern3 {<eeeebbbbeeeebbbbeeeebbbbeeeebbbbeeeebbbbeeeebbbbeeeebbbbeeeebbbb> PTRN} bind def
/Pattern4 {<5555aaaa5555aaaa5555aaaa5555aaaa5555aaaa5555aaaa5555aaaa5555aaaa> PTRN} bind def
/Pattern5 {<1111444411114444111144441111444411114444111144441111444411114444> PTRN} bind def
/Pattern6 {<1111000044440000111100004444000011110000444400001111000044440000> PTRN} bind def
/Pattern7 {<1010000000000000010100000000000010100000000000000101000000000000> PTRN} bind def
/Pattern8 {<0000000000000000000000000000000000000000000000000000000000000000> PTRN} bind def
/Pattern9 {<1e1e0f0f8787c3c3e1e1f0f078783c3c1e1e0f0f8787c3c3e1e1f0f078783c3c> PTRN} bind def
/Pattern10 {<7878f0f0e1e1c3c387870f0f1e1e3c3c7878f0f0e1e1c3c387870f0f1e1e3c3c> PTRN} bind def
/Pattern11 {<3333333333333333333333333333333333333333333333333333333333333333> PTRN} bind def
/Pattern12 {<ffffffff00000000ffffffff00000000ffffffff00000000ffffffff00000000> PTRN} bind def
/Pattern13 {<8181424224241818181824244242818181814242242418181818242442428181> PTRN} bind def
/Pattern14 {<8080404020201010080804040202010180804040202010100808040402020101> PTRN} bind def
/Pattern15 {<0101020204040808101020204040808001010202040408081010202040408080> PTRN} bind def
/Pattern16 {<2222222222222222222222222222222222222222222222222222222222222222> PTRN} bind def
/Pattern17 {<0000ffff000000000000ffff000000000000ffff000000000000ffff00000000> PTRN} bind def
/Pattern18 {<2222ffff222222222222ffff222222222222ffff222222222222ffff22222222> PTRN} bind def
/Pattern19 {<ffffffff33333333ffffffff33333333ffffffff33333333ffffffff33333333> PTRN} bind def
/Pattern20 {<0f0f0f0f0f0f0f0ff0f0f0f0f0f0f0f00f0f0f0f0f0f0f0ff0f0f0f0f0f0f0f0> PTRN} bind def
/Pattern21 {<ff00ff00ff00ff00ff00ff00ff00ff0000ff00ff00ff00ff00ff00ff00ff00ff> PTRN} bind def
/Pattern22 {<8001800180018001800180018001ffffffff8001800180018001800180018001> PTRN} bind def
/Pattern23 {<c003c003c003c003c003c003ffffffffffffffffc003c003c003c003c003c003> PTRN} bind def
/Pattern24 {<040404040404ffff404040404040ffff040404040404ffff404040404040ffff> PTRN} bind def
/Pattern25 {<180018001800180018001800ffffffff001800180018001800180018ffffffff> PTRN} bind def
/Pattern26 {<1111b8b87c7c3a3a1111a3a3c7c78b8b1111b8b87c7c3a3a1111a3a3c7c78b8b> PTRN} bind def
/Pattern27 {<101010102828c7c70101010182827c7c101010102828c7c70101010182827c7c> PTRN} bind def
/Pattern28 {<1c1c121211112121c1c12121111112121c1c121211112121c1c1212111111212> PTRN} bind def
/Pattern29 {<3e3e414180808080e3e31414080808083e3e414180808080e3e3141408080808> PTRN} bind def
/Pattern30 {<4848888884848383848488884848383848488888848483838484888848483838> PTRN} bind def
/Pattern31 {<03030404080808080c0c12122121c0c003030404080808080c0c12122121c0c0> PTRN} bind def
/ellipsedict 8 dict def
ellipsedict /mtrx matrix put
/EARC {
 ellipsedict begin
  /endangle exch def
  /startangle exch def
  /yrad exch def
  /xrad exch def
  /y exch def
  /x exch def
  /savematrix mtrx currentmatrix def
  x y translate
  xrad yrad scale
  0 0 1 startangle endangle arc
  savematrix setmatrix
 end
} def
/TL {
  /kcomp exch def
  /linewidth exch def
  /offset exch def
  GS
  0 offset rmoveto
  linewidth SLW
  dup stringwidth exch kcomp add exch RL s
  GR
} def
/KINIT
{
 /kvector exch def
 /kid 0 def
} def
/KPROC
{
 pop pop
 kvector kid get
 0 rmoveto
 /kid 1 kid add def
} def
/DefEncoding [
 /.notdef
 /.notdef
 /.notdef
 /.notdef
 /.notdef
 /.notdef
 /.notdef
 /.notdef
 /.notdef
 /.notdef
 /.notdef
 /.notdef
 /.notdef
 /.notdef
 /.notdef
 /.notdef
 /.notdef
 /.notdef
 /.notdef
 /.notdef
 /.notdef
 /.notdef
 /.notdef
 /.notdef
 /.notdef
 /.notdef
 /.notdef
 /.notdef
 /.notdef
 /.notdef
 /.notdef
 /.notdef
 /space
 /exclam
 /quotedbl
 /numbersign
 /dollar
 /percent
 /ampersand
 /quoteright
 /parenleft
 /parenright
 /asterisk
 /plus
 /comma
 /hyphen
 /period
 /slash
 /zero
 /one
 /two
 /three
 /four
 /five
 /six
 /seven
 /eight
 /nine
 /colon
 /semicolon
 /less
 /equal
 /greater
 /question
 /at
 /A
 /B
 /C
 /D
 /E
 /F
 /G
 /H
 /I
 /J
 /K
 /L
 /M
 /N
 /O
 /P
 /Q
 /R
 /S
 /T
 /U
 /V
 /W
 /X
 /Y
 /Z
 /bracketleft
 /backslash
 /bracketright
 /asciicircum
 /underscore
 /grave
 /a
 /b
 /c
 /d
 /e
 /f
 /g
 /h
 /i
 /j
 /k
 /l
 /m
 /n
 /o
 /p
 /q
 /r
 /s
 /t
 /u
 /v
 /w
 /x
 /y
 /z
 /braceleft
 /bar
 /braceright
 /asciitilde
 /.notdef
 /.notdef
 /.notdef
 /.notdef
 /.notdef
 /.notdef
 /.notdef
 /.notdef
 /.notdef
 /.notdef
 /.notdef
 /.notdef
 /.notdef
 /.notdef
 /.notdef
 /.notdef
 /.notdef
 /.notdef
 /.notdef
 /.notdef
 /.notdef
 /.notdef
 /.notdef
 /.notdef
 /.notdef
 /.notdef
 /.notdef
 /.notdef
 /.notdef
 /.notdef
 /.notdef
 /.notdef
 /.notdef
 /space
 /exclamdown
 /cent
 /sterling
 /currency
 /yen
 /brokenbar
 /section
 /dieresis
 /copyright
 /ordfeminine
 /guillemotleft
 /logicalnot
 /hyphen
 /registered
 /macron
 /degree
 /plusminus
 /twosuperior
 /threesuperior
 /acute
 /mu
 /paragraph
 /periodcentered
 /cedilla
 /onesuperior
 /ordmasculine
 /guillemotright
 /onequarter
 /onehalf
 /threequarters
 /questiondown
 /Agrave
 /Aacute
 /Acircumflex
 /Atilde
 /Adieresis
 /Aring
 /AE
 /Ccedilla
 /Egrave
 /Eacute
 /Ecircumflex
 /Edieresis
 /Igrave
 /Iacute
 /Icircumflex
 /Idieresis
 /Eth
 /Ntilde
 /Ograve
 /Oacute
 /Ocircumflex
 /Otilde
 /Odieresis
 /multiply
 /Oslash
 /Ugrave
 /Uacute
 /Ucircumflex
 /Udieresis
 /Yacute
 /Thorn
 /germandbls
 /agrave
 /aacute
 /acircumflex
 /atilde
 /adieresis
 /aring
 /ae
 /ccedilla
 /egrave
 /eacute
 /ecircumflex
 /edieresis
 /igrave
 /iacute
 /icircumflex
 /idieresis
 /eth
 /ntilde
 /ograve
 /oacute
 /ocircumflex
 /otilde
 /odieresis
 /divide
 /oslash
 /ugrave
 /uacute
 /ucircumflex
 /udieresis
 /yacute
 /thorn
 /ydieresis
] def
%%EndProlog
%%BeginSetup
%%EndSetup
612.00 612.00 scale
n
0.0000 0.0000 m
0.0000 1.0000 l
1.2941 1.0000 l
1.2941 0.0000 l
c
[/DeviceRGB] SCS
Color0 SC
fill
[/DeviceRGB] SCS
Color1 SC
[] 0 SD
0.0037 SLW
0 SLC
0 SLJ
n
0.1654 0.5953 m
0.2456 0.5557 l
0.3257 0.5265 l
0.4058 0.4848 l
0.4859 0.4637 l
0.5661 0.4595 l
0.6462 0.4481 l
0.7263 0.4380 l
0.8064 0.4372 l
0.8866 0.4237 l
0.9667 0.4281 l
1.0468 0.4326 l
s
n
0.1654 0.5953 0.0100 0.0100 0 360 EARC c
fill
[] 0 SD
0.0015 SLW
n 0.1654 0.5953 0.0100 0.0100 0 360 EARC s
n
0.2456 0.5557 0.0100 0.0100 0 360 EARC c
fill
n 0.2456 0.5557 0.0100 0.0100 0 360 EARC s
n
0.3257 0.5265 0.0100 0.0100 0 360 EARC c
fill
n 0.3257 0.5265 0.0100 0.0100 0 360 EARC s
n
0.4058 0.4848 0.0100 0.0100 0 360 EARC c
fill
n 0.4058 0.4848 0.0100 0.0100 0 360 EARC s
n
0.4859 0.4637 0.0100 0.0100 0 360 EARC c
fill
n 0.4859 0.4637 0.0100 0.0100 0 360 EARC s
n
0.5661 0.4595 0.0100 0.0100 0 360 EARC c
fill
n 0.5661 0.4595 0.0100 0.0100 0 360 EARC s
n
0.6462 0.4481 0.0100 0.0100 0 360 EARC c
fill
n 0.6462 0.4481 0.0100 0.0100 0 360 EARC s
n
0.7263 0.4380 0.0100 0.0100 0 360 EARC c
fill
n 0.7263 0.4380 0.0100 0.0100 0 360 EARC s
n
0.8064 0.4372 0.0100 0.0100 0 360 EARC c
fill
n 0.8064 0.4372 0.0100 0.0100 0 360 EARC s
n
0.8866 0.4237 0.0100 0.0100 0 360 EARC c
fill
n 0.8866 0.4237 0.0100 0.0100 0 360 EARC s
n
0.9667 0.4281 0.0100 0.0100 0 360 EARC c
fill
n 0.9667 0.4281 0.0100 0.0100 0 360 EARC s
n
1.0468 0.4326 0.0100 0.0100 0 360 EARC c
fill
n 1.0468 0.4326 0.0100 0.0100 0 360 EARC s
[/DeviceRGB] SCS
Color4 SC
[0.0187 0.0112 ] 0 SD
0.0037 SLW
n
0.2456 0.6293 m
0.3257 0.5952 l
0.4058 0.5458 l
0.4859 0.4981 l
0.5661 0.4641 l
0.6462 0.4195 l
0.7263 0.3703 l
0.8064 0.3272 l
0.8866 0.2796 l
0.9667 0.2353 l
1.0468 0.2006 l
1.1269 0.1922 l
s
n
0.2371 0.6208 m
0.2371 0.6378 l
0.2541 0.6378 l
0.2541 0.6208 l
c
fill
[] 0 SD
0.0015 SLW
n
0.2371 0.6208 m
0.2371 0.6378 l
0.2541 0.6378 l
0.2541 0.6208 l
0.2371 0.6208 l
c
s
n
0.3172 0.5867 m
0.3172 0.6037 l
0.3342 0.6037 l
0.3342 0.5867 l
c
fill
n
0.3172 0.5867 m
0.3172 0.6037 l
0.3342 0.6037 l
0.3342 0.5867 l
0.3172 0.5867 l
c
s
n
0.3973 0.5373 m
0.3973 0.5543 l
0.4143 0.5543 l
0.4143 0.5373 l
c
fill
n
0.3973 0.5373 m
0.3973 0.5543 l
0.4143 0.5543 l
0.4143 0.5373 l
0.3973 0.5373 l
c
s
n
0.4774 0.4896 m
0.4774 0.5066 l
0.4944 0.5066 l
0.4944 0.4896 l
c
fill
n
0.4774 0.4896 m
0.4774 0.5066 l
0.4944 0.5066 l
0.4944 0.4896 l
0.4774 0.4896 l
c
s
n
0.5576 0.4556 m
0.5576 0.4726 l
0.5746 0.4726 l
0.5746 0.4556 l
c
fill
n
0.5576 0.4556 m
0.5576 0.4726 l
0.5746 0.4726 l
0.5746 0.4556 l
0.5576 0.4556 l
c
s
n
0.6377 0.4110 m
0.6377 0.4280 l
0.6547 0.4280 l
0.6547 0.4110 l
c
fill
n
0.6377 0.4110 m
0.6377 0.4280 l
0.6547 0.4280 l
0.6547 0.4110 l
0.6377 0.4110 l
c
s
n
0.7178 0.3618 m
0.7178 0.3788 l
0.7348 0.3788 l
0.7348 0.3618 l
c
fill
n
0.7178 0.3618 m
0.7178 0.3788 l
0.7348 0.3788 l
0.7348 0.3618 l
0.7178 0.3618 l
c
s
n
0.7979 0.3187 m
0.7979 0.3357 l
0.8149 0.3357 l
0.8149 0.3187 l
c
fill
n
0.7979 0.3187 m
0.7979 0.3357 l
0.8149 0.3357 l
0.8149 0.3187 l
0.7979 0.3187 l
c
s
n
0.8781 0.2711 m
0.8781 0.2881 l
0.8951 0.2881 l
0.8951 0.2711 l
c
fill
n
0.8781 0.2711 m
0.8781 0.2881 l
0.8951 0.2881 l
0.8951 0.2711 l
0.8781 0.2711 l
c
s
n
0.9582 0.2268 m
0.9582 0.2438 l
0.9752 0.2438 l
0.9752 0.2268 l
c
fill
n
0.9582 0.2268 m
0.9582 0.2438 l
0.9752 0.2438 l
0.9752 0.2268 l
0.9582 0.2268 l
c
s
n
1.0383 0.1921 m
1.0383 0.2091 l
1.0553 0.2091 l
1.0553 0.1921 l
c
fill
n
1.0383 0.1921 m
1.0383 0.2091 l
1.0553 0.2091 l
1.0553 0.1921 l
1.0383 0.1921 l
c
s
n
1.1184 0.1837 m
1.1184 0.2007 l
1.1354 0.2007 l
1.1354 0.1837 l
c
fill
n
1.1184 0.1837 m
1.1184 0.2007 l
1.1354 0.2007 l
1.1354 0.1837 l
1.1184 0.1837 l
c
s
[/DeviceRGB] SCS
Color2 SC
[0.0045 0.0135 ] 0 SD
0.0045 SLW
n
0.2456 0.8352 m
0.3257 0.7862 l
0.4058 0.7364 l
0.4859 0.6878 l
0.5661 0.6400 l
0.6462 0.5933 l
0.7263 0.5459 l
0.8064 0.5009 l
0.8866 0.4589 l
0.9667 0.4223 l
1.0468 0.4051 l
1.1269 0.4014 l
s
n
0.2456 0.8452 m
0.2356 0.8352 l
0.2456 0.8252 l
0.2556 0.8352 l
c
fill
[] 0 SD
0.0015 SLW
n
0.2456 0.8452 m
0.2356 0.8352 l
0.2456 0.8252 l
0.2556 0.8352 l
0.2456 0.8452 l
c
s
n
0.3257 0.7962 m
0.3157 0.7862 l
0.3257 0.7762 l
0.3357 0.7862 l
c
fill
n
0.3257 0.7962 m
0.3157 0.7862 l
0.3257 0.7762 l
0.3357 0.7862 l
0.3257 0.7962 l
c
s
n
0.4058 0.7464 m
0.3958 0.7364 l
0.4058 0.7264 l
0.4158 0.7364 l
c
fill
n
0.4058 0.7464 m
0.3958 0.7364 l
0.4058 0.7264 l
0.4158 0.7364 l
0.4058 0.7464 l
c
s
n
0.4859 0.6978 m
0.4759 0.6878 l
0.4859 0.6778 l
0.4959 0.6878 l
c
fill
n
0.4859 0.6978 m
0.4759 0.6878 l
0.4859 0.6778 l
0.4959 0.6878 l
0.4859 0.6978 l
c
s
n
0.5661 0.6500 m
0.5561 0.6400 l
0.5661 0.6300 l
0.5761 0.6400 l
c
fill
n
0.5661 0.6500 m
0.5561 0.6400 l
0.5661 0.6300 l
0.5761 0.6400 l
0.5661 0.6500 l
c
s
n
0.6462 0.6033 m
0.6362 0.5933 l
0.6462 0.5833 l
0.6562 0.5933 l
c
fill
n
0.6462 0.6033 m
0.6362 0.5933 l
0.6462 0.5833 l
0.6562 0.5933 l
0.6462 0.6033 l
c
s
n
0.7263 0.5559 m
0.7163 0.5459 l
0.7263 0.5359 l
0.7363 0.5459 l
c
fill
n
0.7263 0.5559 m
0.7163 0.5459 l
0.7263 0.5359 l
0.7363 0.5459 l
0.7263 0.5559 l
c
s
n
0.8064 0.5109 m
0.7964 0.5009 l
0.8064 0.4909 l
0.8164 0.5009 l
c
fill
n
0.8064 0.5109 m
0.7964 0.5009 l
0.8064 0.4909 l
0.8164 0.5009 l
0.8064 0.5109 l
c
s
n
0.8866 0.4689 m
0.8766 0.4589 l
0.8866 0.4489 l
0.8966 0.4589 l
c
fill
n
0.8866 0.4689 m
0.8766 0.4589 l
0.8866 0.4489 l
0.8966 0.4589 l
0.8866 0.4689 l
c
s
n
0.9667 0.4323 m
0.9567 0.4223 l
0.9667 0.4123 l
0.9767 0.4223 l
c
fill
n
0.9667 0.4323 m
0.9567 0.4223 l
0.9667 0.4123 l
0.9767 0.4223 l
0.9667 0.4323 l
c
s
n
1.0468 0.4151 m
1.0368 0.4051 l
1.0468 0.3951 l
1.0568 0.4051 l
c
fill
n
1.0468 0.4151 m
1.0368 0.4051 l
1.0468 0.3951 l
1.0568 0.4051 l
1.0468 0.4151 l
c
s
n
1.1269 0.4114 m
1.1169 0.4014 l
1.1269 0.3914 l
1.1369 0.4014 l
c
fill
n
1.1269 0.4114 m
1.1169 0.4014 l
1.1269 0.3914 l
1.1369 0.4014 l
1.1269 0.4114 l
c
s
[/DeviceRGB] SCS
Color1 SC
n
0.1500 0.1500 m
1.1500 0.1500 l
s
n
0.1500 0.8500 m
1.1500 0.8500 l
s
n
0.1654 0.1500 m
0.1654 0.1600 l
s
n
0.1654 0.8500 m
0.1654 0.8400 l
s
n
0.1912 0.1500 m
0.1912 0.1600 l
s
n
0.1912 0.8500 m
0.1912 0.8400 l
s
n
0.2123 0.1500 m
0.2123 0.1600 l
s
n
0.2123 0.8500 m
0.2123 0.8400 l
s
n
0.2301 0.1500 m
0.2301 0.1600 l
s
n
0.2301 0.8500 m
0.2301 0.8400 l
s
n
0.2456 0.1500 m
0.2456 0.1600 l
s
n
0.2456 0.8500 m
0.2456 0.8400 l
s
n
0.2592 0.1500 m
0.2592 0.1600 l
s
n
0.2592 0.8500 m
0.2592 0.8400 l
s
n
0.2714 0.1500 m
0.2714 0.1600 l
s
n
0.2714 0.8500 m
0.2714 0.8400 l
s
n
0.2456 0.1500 m
0.2456 0.1600 l
s
n
0.2456 0.8500 m
0.2456 0.8400 l
s
n
0.2924 0.1500 m
0.2924 0.1600 l
s
n
0.2924 0.8500 m
0.2924 0.8400 l
s
n
0.3257 0.1500 m
0.3257 0.1600 l
s
n
0.3257 0.8500 m
0.3257 0.8400 l
s
n
0.3515 0.1500 m
0.3515 0.1600 l
s
n
0.3515 0.8500 m
0.3515 0.8400 l
s
n
0.3726 0.1500 m
0.3726 0.1600 l
s
n
0.3726 0.8500 m
0.3726 0.8400 l
s
n
0.3904 0.1500 m
0.3904 0.1600 l
s
n
0.3904 0.8500 m
0.3904 0.8400 l
s
n
0.4058 0.1500 m
0.4058 0.1600 l
s
n
0.4058 0.8500 m
0.4058 0.8400 l
s
n
0.4194 0.1500 m
0.4194 0.1600 l
s
n
0.4194 0.8500 m
0.4194 0.8400 l
s
n
0.4316 0.1500 m
0.4316 0.1600 l
s
n
0.4316 0.8500 m
0.4316 0.8400 l
s
n
0.4058 0.1500 m
0.4058 0.1600 l
s
n
0.4058 0.8500 m
0.4058 0.8400 l
s
n
0.4527 0.1500 m
0.4527 0.1600 l
s
n
0.4527 0.8500 m
0.4527 0.8400 l
s
n
0.4859 0.1500 m
0.4859 0.1600 l
s
n
0.4859 0.8500 m
0.4859 0.8400 l
s
n
0.5117 0.1500 m
0.5117 0.1600 l
s
n
0.5117 0.8500 m
0.5117 0.8400 l
s
n
0.5328 0.1500 m
0.5328 0.1600 l
s
n
0.5328 0.8500 m
0.5328 0.8400 l
s
n
0.5506 0.1500 m
0.5506 0.1600 l
s
n
0.5506 0.8500 m
0.5506 0.8400 l
s
n
0.5661 0.1500 m
0.5661 0.1600 l
s
n
0.5661 0.8500 m
0.5661 0.8400 l
s
n
0.5797 0.1500 m
0.5797 0.1600 l
s
n
0.5797 0.8500 m
0.5797 0.8400 l
s
n
0.5919 0.1500 m
0.5919 0.1600 l
s
n
0.5919 0.8500 m
0.5919 0.8400 l
s
n
0.5661 0.1500 m
0.5661 0.1600 l
s
n
0.5661 0.8500 m
0.5661 0.8400 l
s
n
0.6129 0.1500 m
0.6129 0.1600 l
s
n
0.6129 0.8500 m
0.6129 0.8400 l
s
n
0.6462 0.1500 m
0.6462 0.1600 l
s
n
0.6462 0.8500 m
0.6462 0.8400 l
s
n
0.6720 0.1500 m
0.6720 0.1600 l
s
n
0.6720 0.8500 m
0.6720 0.8400 l
s
n
0.6931 0.1500 m
0.6931 0.1600 l
s
n
0.6931 0.8500 m
0.6931 0.8400 l
s
n
0.7109 0.1500 m
0.7109 0.1600 l
s
n
0.7109 0.8500 m
0.7109 0.8400 l
s
n
0.7263 0.1500 m
0.7263 0.1600 l
s
n
0.7263 0.8500 m
0.7263 0.8400 l
s
n
0.7399 0.1500 m
0.7399 0.1600 l
s
n
0.7399 0.8500 m
0.7399 0.8400 l
s
n
0.7521 0.1500 m
0.7521 0.1600 l
s
n
0.7521 0.8500 m
0.7521 0.8400 l
s
n
0.7263 0.1500 m
0.7263 0.1600 l
s
n
0.7263 0.8500 m
0.7263 0.8400 l
s
n
0.7732 0.1500 m
0.7732 0.1600 l
s
n
0.7732 0.8500 m
0.7732 0.8400 l
s
n
0.8064 0.1500 m
0.8064 0.1600 l
s
n
0.8064 0.8500 m
0.8064 0.8400 l
s
n
0.8322 0.1500 m
0.8322 0.1600 l
s
n
0.8322 0.8500 m
0.8322 0.8400 l
s
n
0.8533 0.1500 m
0.8533 0.1600 l
s
n
0.8533 0.8500 m
0.8533 0.8400 l
s
n
0.8711 0.1500 m
0.8711 0.1600 l
s
n
0.8711 0.8500 m
0.8711 0.8400 l
s
n
0.8866 0.1500 m
0.8866 0.1600 l
s
n
0.8866 0.8500 m
0.8866 0.8400 l
s
n
0.9002 0.1500 m
0.9002 0.1600 l
s
n
0.9002 0.8500 m
0.9002 0.8400 l
s
n
0.9124 0.1500 m
0.9124 0.1600 l
s
n
0.9124 0.8500 m
0.9124 0.8400 l
s
n
0.8866 0.1500 m
0.8866 0.1600 l
s
n
0.8866 0.8500 m
0.8866 0.8400 l
s
n
0.9334 0.1500 m
0.9334 0.1600 l
s
n
0.9334 0.8500 m
0.9334 0.8400 l
s
n
0.9667 0.1500 m
0.9667 0.1600 l
s
n
0.9667 0.8500 m
0.9667 0.8400 l
s
n
0.9925 0.1500 m
0.9925 0.1600 l
s
n
0.9925 0.8500 m
0.9925 0.8400 l
s
n
1.0136 0.1500 m
1.0136 0.1600 l
s
n
1.0136 0.8500 m
1.0136 0.8400 l
s
n
1.0314 0.1500 m
1.0314 0.1600 l
s
n
1.0314 0.8500 m
1.0314 0.8400 l
s
n
1.0468 0.1500 m
1.0468 0.1600 l
s
n
1.0468 0.8500 m
1.0468 0.8400 l
s
n
1.0604 0.1500 m
1.0604 0.1600 l
s
n
1.0604 0.8500 m
1.0604 0.8400 l
s
n
1.0726 0.1500 m
1.0726 0.1600 l
s
n
1.0726 0.8500 m
1.0726 0.8400 l
s
n
1.0468 0.1500 m
1.0468 0.1600 l
s
n
1.0468 0.8500 m
1.0468 0.8400 l
s
n
1.0937 0.1500 m
1.0937 0.1600 l
s
n
1.0937 0.8500 m
1.0937 0.8400 l
s
n
1.1269 0.1500 m
1.1269 0.1600 l
s
n
1.1269 0.8500 m
1.1269 0.8400 l
s
n
0.1654 0.1500 m
0.1654 0.1700 l
s
n
0.1654 0.8500 m
0.1654 0.8300 l
s
n
0.3257 0.1500 m
0.3257 0.1700 l
s
n
0.3257 0.8500 m
0.3257 0.8300 l
s
n
0.4859 0.1500 m
0.4859 0.1700 l
s
n
0.4859 0.8500 m
0.4859 0.8300 l
s
n
0.6462 0.1500 m
0.6462 0.1700 l
s
n
0.6462 0.8500 m
0.6462 0.8300 l
s
n
0.8064 0.1500 m
0.8064 0.1700 l
s
n
0.8064 0.8500 m
0.8064 0.8300 l
s
n
0.9667 0.1500 m
0.9667 0.1700 l
s
n
0.9667 0.8500 m
0.9667 0.8300 l
s
n
1.1269 0.1500 m
1.1269 0.1700 l
s
n
1.1269 0.8500 m
1.1269 0.8300 l
s
/Times-Roman findfont
dup length dict begin
 {1 index /FID ne {def} {pop pop} ifelse} forall
 /Encoding DefEncoding def
 currentdict
end
/Font35 exch definefont pop
/Font35 FFSF
0.1568 0.1153 m
GS
[0.0367 0.0000 0.0000 0.0367 0 0] CC
(4) show
GR
/Font35 FFSF
0.3078 0.1149 m
GS
[0.0367 0.0000 0.0000 0.0367 0 0] CC
(16) show
GR
/Font35 FFSF
0.4681 0.1149 m
GS
[0.0367 0.0000 0.0000 0.0367 0 0] CC
(64) show
GR
/Font35 FFSF
0.6191 0.1149 m
GS
[0.0367 0.0000 0.0000 0.0367 0 0] CC
(256) show
GR
/Font35 FFSF
0.7704 0.1153 m
GS
[0.0367 0.0000 0.0000 0.0367 0 0] CC
(1024) show
GR
/Font35 FFSF
0.9306 0.1149 m
GS
[0.0367 0.0000 0.0000 0.0367 0 0] CC
(4096) show
GR
/Font35 FFSF
1.0817 0.1149 m
GS
[0.0367 0.0000 0.0000 0.0367 0 0] CC
(16384) show
GR
/Font35 FFSF
0.5275 0.0790 m
GS
[0.0367 0.0000 0.0000 0.0367 0 0] CC
(Number of cores) show
GR
n
0.1500 0.1500 m
0.1500 0.8500 l
s
n
1.1500 0.1500 m
1.1500 0.8500 l
s
n
0.1500 0.1712 m
0.1600 0.1712 l
s
n
1.1500 0.1712 m
1.1400 0.1712 l
s
n
0.1500 0.2011 m
0.1600 0.2011 l
s
n
1.1500 0.2011 m
1.1400 0.2011 l
s
n
0.1500 0.2223 m
0.1600 0.2223 l
s
n
1.1500 0.2223 m
1.1400 0.2223 l
s
n
0.1500 0.2387 m
0.1600 0.2387 l
s
n
1.1500 0.2387 m
1.1400 0.2387 l
s
n
0.1500 0.2522 m
0.1600 0.2522 l
s
n
1.1500 0.2522 m
1.1400 0.2522 l
s
n
0.1500 0.2635 m
0.1600 0.2635 l
s
n
1.1500 0.2635 m
1.1400 0.2635 l
s
n
0.1500 0.2734 m
0.1600 0.2734 l
s
n
1.1500 0.2734 m
1.1400 0.2734 l
s
n
0.1500 0.2821 m
0.1600 0.2821 l
s
n
1.1500 0.2821 m
1.1400 0.2821 l
s
n
0.1500 0.2898 m
0.1600 0.2898 l
s
n
1.1500 0.2898 m
1.1400 0.2898 l
s
n
0.1500 0.3409 m
0.1600 0.3409 l
s
n
1.1500 0.3409 m
1.1400 0.3409 l
s
n
0.1500 0.3708 m
0.1600 0.3708 l
s
n
1.1500 0.3708 m
1.1400 0.3708 l
s
n
0.1500 0.3920 m
0.1600 0.3920 l
s
n
1.1500 0.3920 m
1.1400 0.3920 l
s
n
0.1500 0.4084 m
0.1600 0.4084 l
s
n
1.1500 0.4084 m
1.1400 0.4084 l
s
n
0.1500 0.4219 m
0.1600 0.4219 l
s
n
1.1500 0.4219 m
1.1400 0.4219 l
s
n
0.1500 0.4332 m
0.1600 0.4332 l
s
n
1.1500 0.4332 m
1.1400 0.4332 l
s
n
0.1500 0.4431 m
0.1600 0.4431 l
s
n
1.1500 0.4431 m
1.1400 0.4431 l
s
n
0.1500 0.4518 m
0.1600 0.4518 l
s
n
1.1500 0.4518 m
1.1400 0.4518 l
s
n
0.1500 0.4595 m
0.1600 0.4595 l
s
n
1.1500 0.4595 m
1.1400 0.4595 l
s
n
0.1500 0.5106 m
0.1600 0.5106 l
s
n
1.1500 0.5106 m
1.1400 0.5106 l
s
n
0.1500 0.5405 m
0.1600 0.5405 l
s
n
1.1500 0.5405 m
1.1400 0.5405 l
s
n
0.1500 0.5617 m
0.1600 0.5617 l
s
n
1.1500 0.5617 m
1.1400 0.5617 l
s
n
0.1500 0.5781 m
0.1600 0.5781 l
s
n
1.1500 0.5781 m
1.1400 0.5781 l
s
n
0.1500 0.5916 m
0.1600 0.5916 l
s
n
1.1500 0.5916 m
1.1400 0.5916 l
s
n
0.1500 0.6029 m
0.1600 0.6029 l
s
n
1.1500 0.6029 m
1.1400 0.6029 l
s
n
0.1500 0.6128 m
0.1600 0.6128 l
s
n
1.1500 0.6128 m
1.1400 0.6128 l
s
n
0.1500 0.6215 m
0.1600 0.6215 l
s
n
1.1500 0.6215 m
1.1400 0.6215 l
s
n
0.1500 0.6292 m
0.1600 0.6292 l
s
n
1.1500 0.6292 m
1.1400 0.6292 l
s
n
0.1500 0.6803 m
0.1600 0.6803 l
s
n
1.1500 0.6803 m
1.1400 0.6803 l
s
n
0.1500 0.7102 m
0.1600 0.7102 l
s
n
1.1500 0.7102 m
1.1400 0.7102 l
s
n
0.1500 0.7314 m
0.1600 0.7314 l
s
n
1.1500 0.7314 m
1.1400 0.7314 l
s
n
0.1500 0.7478 m
0.1600 0.7478 l
s
n
1.1500 0.7478 m
1.1400 0.7478 l
s
n
0.1500 0.7613 m
0.1600 0.7613 l
s
n
1.1500 0.7613 m
1.1400 0.7613 l
s
n
0.1500 0.7726 m
0.1600 0.7726 l
s
n
1.1500 0.7726 m
1.1400 0.7726 l
s
n
0.1500 0.7825 m
0.1600 0.7825 l
s
n
1.1500 0.7825 m
1.1400 0.7825 l
s
n
0.1500 0.7912 m
0.1600 0.7912 l
s
n
1.1500 0.7912 m
1.1400 0.7912 l
s
n
0.1500 0.7989 m
0.1600 0.7989 l
s
n
1.1500 0.7989 m
1.1400 0.7989 l
s
n
0.1500 0.8500 m
0.1600 0.8500 l
s
n
1.1500 0.8500 m
1.1400 0.8500 l
s
n
0.1500 0.2898 m
0.1700 0.2898 l
s
n
1.1500 0.2898 m
1.1300 0.2898 l
s
n
0.1500 0.4595 m
0.1700 0.4595 l
s
n
1.1500 0.4595 m
1.1300 0.4595 l
s
n
0.1500 0.6292 m
0.1700 0.6292 l
s
n
1.1500 0.6292 m
1.1300 0.6292 l
s
n
0.1500 0.7989 m
0.1700 0.7989 l
s
n
1.1500 0.7989 m
1.1300 0.7989 l
s
/Font35 FFSF
0.0980 0.2777 m
GS
[0.0367 0.0000 0.0000 0.0367 0 0] CC
(0.1) show
GR
/Font35 FFSF
0.1255 0.4472 m
GS
[0.0367 0.0000 0.0000 0.0367 0 0] CC
(1) show
GR
/Font35 FFSF
0.1039 0.6171 m
GS
[0.0367 0.0000 0.0000 0.0367 0 0] CC
(10) show
GR
/Font35 FFSF
0.0855 0.7868 m
GS
[0.0367 0.0000 0.0000 0.0367 0 0] CC
(100) show
GR
/Font35 FFSF
0.0696 0.4390 m
GS
[0.0000 0.0367 -0.0367 0.0000 0 0] CC
(Time [s]) show
GR
n
0.1500 0.1500 m
0.1500 0.8500 l
1.1500 0.8500 l
1.1500 0.1500 l
0.1500 0.1500 l
c
s
n
0.8200 0.8000 m
0.8200 0.6835 l
1.0951 0.6835 l
1.0951 0.8000 l
c
[/DeviceRGB] SCS
Color0 SC
fill
[/DeviceRGB] SCS
Color1 SC
n
0.8200 0.8000 m
0.8200 0.6835 l
1.0951 0.6835 l
1.0951 0.8000 l
0.8200 0.8000 l
c
s
/Font35 FFSF
0.9008 0.7649 m
GS
[0.0367 0.0000 0.0000 0.0367 0 0] CC
(ISF solver) show
GR
[] 0 SD
0.0037 SLW
n
0.8407 0.7773 m
0.8808 0.7773 l
s
n
0.8407 0.7773 0.0100 0.0100 0 360 EARC c
fill
[] 0 SD
0.0015 SLW
n 0.8407 0.7773 0.0100 0.0100 0 360 EARC s
n
0.8808 0.7773 0.0100 0.0100 0 360 EARC c
fill
n 0.8808 0.7773 0.0100 0.0100 0 360 EARC s
/Font35 FFSF
0.9008 0.7294 m
GS
[0.0367 0.0000 0.0000 0.0367 0 0] CC
(PFFT solver) show
GR
[/DeviceRGB] SCS
Color4 SC
[0.0187 0.0112 ] 0 SD
0.0037 SLW
n
0.8407 0.7418 m
0.8808 0.7418 l
s
n
0.8323 0.7333 m
0.8323 0.7503 l
0.8492 0.7503 l
0.8492 0.7333 l
c
fill
[] 0 SD
0.0015 SLW
n
0.8323 0.7333 m
0.8323 0.7503 l
0.8492 0.7503 l
0.8492 0.7333 l
0.8323 0.7333 l
c
s
n
0.8723 0.7333 m
0.8723 0.7503 l
0.8892 0.7503 l
0.8892 0.7333 l
c
fill
n
0.8723 0.7333 m
0.8723 0.7503 l
0.8892 0.7503 l
0.8892 0.7333 l
0.8723 0.7333 l
c
s
/Font35 FFSF
[/DeviceRGB] SCS
Color1 SC
0.9008 0.6939 m
GS
[0.0367 0.0000 0.0000 0.0367 0 0] CC
(FMM solver) show
GR
[/DeviceRGB] SCS
Color2 SC
[0.0045 0.0135 ] 0 SD
0.0045 SLW
n
0.8407 0.7063 m
0.8808 0.7063 l
s
n
0.8407 0.7163 m
0.8307 0.7063 l
0.8407 0.6963 l
0.8508 0.7063 l
c
fill
[] 0 SD
0.0015 SLW
n
0.8407 0.7163 m
0.8307 0.7063 l
0.8407 0.6963 l
0.8508 0.7063 l
0.8407 0.7163 l
c
s
n
0.8808 0.7163 m
0.8708 0.7063 l
0.8808 0.6963 l
0.8908 0.7063 l
c
fill
n
0.8808 0.7163 m
0.8708 0.7063 l
0.8808 0.6963 l
0.8908 0.7063 l
0.8808 0.7163 l
c
s
%%Trailer
%%BoundingBox: 26 47 719 522
%%DocumentNeededResources: font Times-Roman
%%EOF
