%!PS-Adobe-3.0 EPSF-3.0
%%BoundingBox: (atend)
%%LanguageLevel: 2
%%Creator: Grace-5.1.22
%%CreationDate: Tue Apr  3 10:36:06 2012
%%DocumentData: Clean8Bit
%%Orientation: Portrait
%%Title: /home/xavier/files/papers/2012_octopus_psik/img/tdbg2.agr
%%For: xavier
%%DocumentNeededResources: (atend)
%%EndComments
%%BeginProlog
/m {moveto} def
/l {lineto} def
/s {stroke} def
/n {newpath} def
/c {closepath} def
/RL {rlineto} def
/SLW {setlinewidth} def
/GS {gsave} def
/GR {grestore} def
/SC {setcolor} def
/SGRY {setgray} def
/SRGB {setrgbcolor} def
/SD {setdash} def
/SLC {setlinecap} def
/SLJ {setlinejoin} def
/SCS {setcolorspace} def
/FFSF {findfont setfont} def
/CC {concat} def
/PXL {n m 0 0 RL s} def
/Color0 {1.0000 1.0000 1.0000} def
/Color1 {0.0000 0.0000 0.0000} def
/Color2 {1.0000 0.0000 0.0000} def
/Color3 {0.0000 1.0000 0.0000} def
/Color4 {0.0000 0.0000 1.0000} def
/Color5 {1.0000 1.0000 0.0000} def
/Color6 {0.7373 0.5608 0.5608} def
/Color7 {0.8627 0.8627 0.8627} def
/Color8 {0.5804 0.0000 0.8275} def
/Color9 {0.0000 1.0000 1.0000} def
/Color10 {1.0000 0.0000 1.0000} def
/Color11 {1.0000 0.6471 0.0000} def
/Color12 {0.4471 0.1294 0.7373} def
/Color13 {0.4039 0.0275 0.2824} def
/Color14 {0.2510 0.8784 0.8157} def
/Color15 {0.0000 0.5451 0.0000} def
/Color16 {0.7529 0.7529 0.7529} def
/Color17 {0.5059 0.5059 0.5059} def
/Color18 {0.2588 0.2588 0.2588} def
/PTRN {
 /pat_bits exch def 
 <<
  /PaintType 2
  /PatternType 1 /TilingType 1
  /BBox[0 0 16 16]
  /XStep 16 /YStep 16
  /PaintProc {
   pop
   16 16 true [-1 0 0 -1 16 16] pat_bits imagemask
  }
 >>
 [0.0016 0 0 0.0016 0 0]
 makepattern
} def
/Pattern0 {<0000000000000000000000000000000000000000000000000000000000000000> PTRN} bind def
/Pattern1 {<ffffffffffffffffffffffffffffffffffffffffffffffffffffffffffffffff> PTRN} bind def
/Pattern2 {<eeeeffffbbbbffffeeeeffffbbbbffffeeeeffffbbbbffffeeeeffffbbbbffff> PTRN} bind def
/Pattern3 {<eeeebbbbeeeebbbbeeeebbbbeeeebbbbeeeebbbbeeeebbbbeeeebbbbeeeebbbb> PTRN} bind def
/Pattern4 {<5555aaaa5555aaaa5555aaaa5555aaaa5555aaaa5555aaaa5555aaaa5555aaaa> PTRN} bind def
/Pattern5 {<1111444411114444111144441111444411114444111144441111444411114444> PTRN} bind def
/Pattern6 {<1111000044440000111100004444000011110000444400001111000044440000> PTRN} bind def
/Pattern7 {<1010000000000000010100000000000010100000000000000101000000000000> PTRN} bind def
/Pattern8 {<0000000000000000000000000000000000000000000000000000000000000000> PTRN} bind def
/Pattern9 {<1e1e0f0f8787c3c3e1e1f0f078783c3c1e1e0f0f8787c3c3e1e1f0f078783c3c> PTRN} bind def
/Pattern10 {<7878f0f0e1e1c3c387870f0f1e1e3c3c7878f0f0e1e1c3c387870f0f1e1e3c3c> PTRN} bind def
/Pattern11 {<3333333333333333333333333333333333333333333333333333333333333333> PTRN} bind def
/Pattern12 {<ffffffff00000000ffffffff00000000ffffffff00000000ffffffff00000000> PTRN} bind def
/Pattern13 {<8181424224241818181824244242818181814242242418181818242442428181> PTRN} bind def
/Pattern14 {<8080404020201010080804040202010180804040202010100808040402020101> PTRN} bind def
/Pattern15 {<0101020204040808101020204040808001010202040408081010202040408080> PTRN} bind def
/Pattern16 {<2222222222222222222222222222222222222222222222222222222222222222> PTRN} bind def
/Pattern17 {<0000ffff000000000000ffff000000000000ffff000000000000ffff00000000> PTRN} bind def
/Pattern18 {<2222ffff222222222222ffff222222222222ffff222222222222ffff22222222> PTRN} bind def
/Pattern19 {<ffffffff33333333ffffffff33333333ffffffff33333333ffffffff33333333> PTRN} bind def
/Pattern20 {<0f0f0f0f0f0f0f0ff0f0f0f0f0f0f0f00f0f0f0f0f0f0f0ff0f0f0f0f0f0f0f0> PTRN} bind def
/Pattern21 {<ff00ff00ff00ff00ff00ff00ff00ff0000ff00ff00ff00ff00ff00ff00ff00ff> PTRN} bind def
/Pattern22 {<8001800180018001800180018001ffffffff8001800180018001800180018001> PTRN} bind def
/Pattern23 {<c003c003c003c003c003c003ffffffffffffffffc003c003c003c003c003c003> PTRN} bind def
/Pattern24 {<040404040404ffff404040404040ffff040404040404ffff404040404040ffff> PTRN} bind def
/Pattern25 {<180018001800180018001800ffffffff001800180018001800180018ffffffff> PTRN} bind def
/Pattern26 {<1111b8b87c7c3a3a1111a3a3c7c78b8b1111b8b87c7c3a3a1111a3a3c7c78b8b> PTRN} bind def
/Pattern27 {<101010102828c7c70101010182827c7c101010102828c7c70101010182827c7c> PTRN} bind def
/Pattern28 {<1c1c121211112121c1c12121111112121c1c121211112121c1c1212111111212> PTRN} bind def
/Pattern29 {<3e3e414180808080e3e31414080808083e3e414180808080e3e3141408080808> PTRN} bind def
/Pattern30 {<4848888884848383848488884848383848488888848483838484888848483838> PTRN} bind def
/Pattern31 {<03030404080808080c0c12122121c0c003030404080808080c0c12122121c0c0> PTRN} bind def
/ellipsedict 8 dict def
ellipsedict /mtrx matrix put
/EARC {
 ellipsedict begin
  /endangle exch def
  /startangle exch def
  /yrad exch def
  /xrad exch def
  /y exch def
  /x exch def
  /savematrix mtrx currentmatrix def
  x y translate
  xrad yrad scale
  0 0 1 startangle endangle arc
  savematrix setmatrix
 end
} def
/TL {
  /kcomp exch def
  /linewidth exch def
  /offset exch def
  GS
  0 offset rmoveto
  linewidth SLW
  dup stringwidth exch kcomp add exch RL s
  GR
} def
/KINIT
{
 /kvector exch def
 /kid 0 def
} def
/KPROC
{
 pop pop
 kvector kid get
 0 rmoveto
 /kid 1 kid add def
} def
/DefEncoding [
 /.notdef
 /.notdef
 /.notdef
 /.notdef
 /.notdef
 /.notdef
 /.notdef
 /.notdef
 /.notdef
 /.notdef
 /.notdef
 /.notdef
 /.notdef
 /.notdef
 /.notdef
 /.notdef
 /.notdef
 /.notdef
 /.notdef
 /.notdef
 /.notdef
 /.notdef
 /.notdef
 /.notdef
 /.notdef
 /.notdef
 /.notdef
 /.notdef
 /.notdef
 /.notdef
 /.notdef
 /.notdef
 /space
 /exclam
 /quotedbl
 /numbersign
 /dollar
 /percent
 /ampersand
 /quoteright
 /parenleft
 /parenright
 /asterisk
 /plus
 /comma
 /hyphen
 /period
 /slash
 /zero
 /one
 /two
 /three
 /four
 /five
 /six
 /seven
 /eight
 /nine
 /colon
 /semicolon
 /less
 /equal
 /greater
 /question
 /at
 /A
 /B
 /C
 /D
 /E
 /F
 /G
 /H
 /I
 /J
 /K
 /L
 /M
 /N
 /O
 /P
 /Q
 /R
 /S
 /T
 /U
 /V
 /W
 /X
 /Y
 /Z
 /bracketleft
 /backslash
 /bracketright
 /asciicircum
 /underscore
 /grave
 /a
 /b
 /c
 /d
 /e
 /f
 /g
 /h
 /i
 /j
 /k
 /l
 /m
 /n
 /o
 /p
 /q
 /r
 /s
 /t
 /u
 /v
 /w
 /x
 /y
 /z
 /braceleft
 /bar
 /braceright
 /asciitilde
 /.notdef
 /.notdef
 /.notdef
 /.notdef
 /.notdef
 /.notdef
 /.notdef
 /.notdef
 /.notdef
 /.notdef
 /.notdef
 /.notdef
 /.notdef
 /.notdef
 /.notdef
 /.notdef
 /.notdef
 /.notdef
 /.notdef
 /.notdef
 /.notdef
 /.notdef
 /.notdef
 /.notdef
 /.notdef
 /.notdef
 /.notdef
 /.notdef
 /.notdef
 /.notdef
 /.notdef
 /.notdef
 /.notdef
 /space
 /exclamdown
 /cent
 /sterling
 /currency
 /yen
 /brokenbar
 /section
 /dieresis
 /copyright
 /ordfeminine
 /guillemotleft
 /logicalnot
 /hyphen
 /registered
 /macron
 /degree
 /plusminus
 /twosuperior
 /threesuperior
 /acute
 /mu
 /paragraph
 /periodcentered
 /cedilla
 /onesuperior
 /ordmasculine
 /guillemotright
 /onequarter
 /onehalf
 /threequarters
 /questiondown
 /Agrave
 /Aacute
 /Acircumflex
 /Atilde
 /Adieresis
 /Aring
 /AE
 /Ccedilla
 /Egrave
 /Eacute
 /Ecircumflex
 /Edieresis
 /Igrave
 /Iacute
 /Icircumflex
 /Idieresis
 /Eth
 /Ntilde
 /Ograve
 /Oacute
 /Ocircumflex
 /Otilde
 /Odieresis
 /multiply
 /Oslash
 /Ugrave
 /Uacute
 /Ucircumflex
 /Udieresis
 /Yacute
 /Thorn
 /germandbls
 /agrave
 /aacute
 /acircumflex
 /atilde
 /adieresis
 /aring
 /ae
 /ccedilla
 /egrave
 /eacute
 /ecircumflex
 /edieresis
 /igrave
 /iacute
 /icircumflex
 /idieresis
 /eth
 /ntilde
 /ograve
 /oacute
 /ocircumflex
 /otilde
 /odieresis
 /divide
 /oslash
 /ugrave
 /uacute
 /ucircumflex
 /udieresis
 /yacute
 /thorn
 /ydieresis
] def
%%EndProlog
%%BeginSetup
%%EndSetup
612.00 612.00 scale
n
0.0000 0.0000 m
0.0000 1.0000 l
1.2941 1.0000 l
1.2941 0.0000 l
c
[/DeviceRGB] SCS
Color0 SC
fill
[/DeviceRGB] SCS
Color11 SC
[] 0 SD
0.0037 SLW
0 SLC
0 SLJ
n
0.1888 0.1771 m
0.2822 0.2425 l
0.3756 0.3080 l
0.4691 0.3734 l
0.5625 0.4388 l
0.6559 0.5042 l
0.7494 0.5696 l
0.8428 0.6350 l
0.9363 0.7004 l
1.0297 0.7658 l
1.1231 0.8312 l
s
[/DeviceRGB] SCS
Color1 SC
[] 0 SD
0.0045 SLW
n
0.1888 0.1771 m
0.2822 0.2359 l
0.3756 0.2996 l
0.4691 0.3625 l
0.5625 0.4259 l
0.6559 0.4852 l
0.7494 0.5395 l
0.8428 0.5811 l
0.9363 0.6100 l
1.0297 0.6595 l
1.1231 0.6929 l
s
n
0.1888 0.1771 0.0100 0.0100 0 360 EARC c
fill
[] 0 SD
0.0015 SLW
n 0.1888 0.1771 0.0100 0.0100 0 360 EARC s
n
0.2822 0.2359 0.0100 0.0100 0 360 EARC c
fill
n 0.2822 0.2359 0.0100 0.0100 0 360 EARC s
n
0.3756 0.2996 0.0100 0.0100 0 360 EARC c
fill
n 0.3756 0.2996 0.0100 0.0100 0 360 EARC s
n
0.4691 0.3625 0.0100 0.0100 0 360 EARC c
fill
n 0.4691 0.3625 0.0100 0.0100 0 360 EARC s
n
0.5625 0.4259 0.0100 0.0100 0 360 EARC c
fill
n 0.5625 0.4259 0.0100 0.0100 0 360 EARC s
n
0.6559 0.4852 0.0100 0.0100 0 360 EARC c
fill
n 0.6559 0.4852 0.0100 0.0100 0 360 EARC s
n
0.7494 0.5395 0.0100 0.0100 0 360 EARC c
fill
n 0.7494 0.5395 0.0100 0.0100 0 360 EARC s
n
0.8428 0.5811 0.0100 0.0100 0 360 EARC c
fill
n 0.8428 0.5811 0.0100 0.0100 0 360 EARC s
n
0.9363 0.6100 0.0100 0.0100 0 360 EARC c
fill
n 0.9363 0.6100 0.0100 0.0100 0 360 EARC s
n
1.0297 0.6595 0.0100 0.0100 0 360 EARC c
fill
n 1.0297 0.6595 0.0100 0.0100 0 360 EARC s
n
1.1231 0.6929 0.0100 0.0100 0 360 EARC c
fill
n 1.1231 0.6929 0.0100 0.0100 0 360 EARC s
[/DeviceRGB] SCS
Color4 SC
[0.0225 0.0135 ] 0 SD
0.0045 SLW
n
0.5625 0.4388 m
0.6559 0.4990 l
0.7494 0.5581 l
0.8428 0.6113 l
0.9363 0.6635 l
1.0297 0.7011 l
1.1231 0.7539 l
s
n
0.5540 0.4303 m
0.5540 0.4473 l
0.5710 0.4473 l
0.5710 0.4303 l
c
fill
[] 0 SD
0.0015 SLW
n
0.5540 0.4303 m
0.5540 0.4473 l
0.5710 0.4473 l
0.5710 0.4303 l
0.5540 0.4303 l
c
s
n
0.6474 0.4905 m
0.6474 0.5075 l
0.6644 0.5075 l
0.6644 0.4905 l
c
fill
n
0.6474 0.4905 m
0.6474 0.5075 l
0.6644 0.5075 l
0.6644 0.4905 l
0.6474 0.4905 l
c
s
n
0.7409 0.5496 m
0.7409 0.5666 l
0.7579 0.5666 l
0.7579 0.5496 l
c
fill
n
0.7409 0.5496 m
0.7409 0.5666 l
0.7579 0.5666 l
0.7579 0.5496 l
0.7409 0.5496 l
c
s
n
0.8343 0.6028 m
0.8343 0.6198 l
0.8513 0.6198 l
0.8513 0.6028 l
c
fill
n
0.8343 0.6028 m
0.8343 0.6198 l
0.8513 0.6198 l
0.8513 0.6028 l
0.8343 0.6028 l
c
s
n
0.9278 0.6550 m
0.9278 0.6720 l
0.9448 0.6720 l
0.9448 0.6550 l
c
fill
n
0.9278 0.6550 m
0.9278 0.6720 l
0.9448 0.6720 l
0.9448 0.6550 l
0.9278 0.6550 l
c
s
n
1.0212 0.6926 m
1.0212 0.7096 l
1.0382 0.7096 l
1.0382 0.6926 l
c
fill
n
1.0212 0.6926 m
1.0212 0.7096 l
1.0382 0.7096 l
1.0382 0.6926 l
1.0212 0.6926 l
c
s
n
1.1146 0.7454 m
1.1146 0.7624 l
1.1316 0.7624 l
1.1316 0.7454 l
c
fill
n
1.1146 0.7454 m
1.1146 0.7624 l
1.1316 0.7624 l
1.1316 0.7454 l
1.1146 0.7454 l
c
s
[/DeviceRGB] SCS
Color2 SC
[0.0060 0.0180 ] 0 SD
0.0060 SLW
n
0.7494 0.5696 m
0.8428 0.6237 l
0.9363 0.6825 l
1.0297 0.7352 l
1.1231 0.7990 l
s
n
0.7494 0.5811 m
0.7394 0.5638 l
0.7594 0.5638 l
c
fill
[] 0 SD
0.0015 SLW
n
0.7494 0.5811 m
0.7394 0.5638 l
0.7594 0.5638 l
0.7494 0.5811 l
c
s
n
0.8428 0.6353 m
0.8328 0.6180 l
0.8528 0.6180 l
c
fill
n
0.8428 0.6353 m
0.8328 0.6180 l
0.8528 0.6180 l
0.8428 0.6353 l
c
s
n
0.9363 0.6941 m
0.9263 0.6767 l
0.9463 0.6767 l
c
fill
n
0.9363 0.6941 m
0.9263 0.6767 l
0.9463 0.6767 l
0.9363 0.6941 l
c
s
n
1.0297 0.7468 m
1.0197 0.7294 l
1.0397 0.7294 l
c
fill
n
1.0297 0.7468 m
1.0197 0.7294 l
1.0397 0.7294 l
1.0297 0.7468 l
c
s
n
1.1231 0.8105 m
1.1131 0.7932 l
1.1331 0.7932 l
c
fill
n
1.1231 0.8105 m
1.1131 0.7932 l
1.1331 0.7932 l
1.1231 0.8105 l
c
s
[/DeviceRGB] SCS
Color1 SC
n
0.1500 0.1500 m
1.1500 0.1500 l
s
n
0.1500 0.8500 m
1.1500 0.8500 l
s
n
0.1500 0.1500 m
0.1500 0.1600 l
s
n
0.1500 0.8500 m
0.1500 0.8400 l
s
n
0.1888 0.1500 m
0.1888 0.1600 l
s
n
0.1888 0.8500 m
0.1888 0.8400 l
s
n
0.2189 0.1500 m
0.2189 0.1600 l
s
n
0.2189 0.8500 m
0.2189 0.8400 l
s
n
0.2434 0.1500 m
0.2434 0.1600 l
s
n
0.2434 0.8500 m
0.2434 0.8400 l
s
n
0.2642 0.1500 m
0.2642 0.1600 l
s
n
0.2642 0.8500 m
0.2642 0.8400 l
s
n
0.2822 0.1500 m
0.2822 0.1600 l
s
n
0.2822 0.8500 m
0.2822 0.8400 l
s
n
0.2981 0.1500 m
0.2981 0.1600 l
s
n
0.2981 0.8500 m
0.2981 0.8400 l
s
n
0.3123 0.1500 m
0.3123 0.1600 l
s
n
0.3123 0.8500 m
0.3123 0.8400 l
s
n
0.2822 0.1500 m
0.2822 0.1600 l
s
n
0.2822 0.8500 m
0.2822 0.8400 l
s
n
0.3369 0.1500 m
0.3369 0.1600 l
s
n
0.3369 0.8500 m
0.3369 0.8400 l
s
n
0.3756 0.1500 m
0.3756 0.1600 l
s
n
0.3756 0.8500 m
0.3756 0.8400 l
s
n
0.4057 0.1500 m
0.4057 0.1600 l
s
n
0.4057 0.8500 m
0.4057 0.8400 l
s
n
0.4303 0.1500 m
0.4303 0.1600 l
s
n
0.4303 0.8500 m
0.4303 0.8400 l
s
n
0.4511 0.1500 m
0.4511 0.1600 l
s
n
0.4511 0.8500 m
0.4511 0.8400 l
s
n
0.4691 0.1500 m
0.4691 0.1600 l
s
n
0.4691 0.8500 m
0.4691 0.8400 l
s
n
0.4850 0.1500 m
0.4850 0.1600 l
s
n
0.4850 0.8500 m
0.4850 0.8400 l
s
n
0.4992 0.1500 m
0.4992 0.1600 l
s
n
0.4992 0.8500 m
0.4992 0.8400 l
s
n
0.4691 0.1500 m
0.4691 0.1600 l
s
n
0.4691 0.8500 m
0.4691 0.8400 l
s
n
0.5237 0.1500 m
0.5237 0.1600 l
s
n
0.5237 0.8500 m
0.5237 0.8400 l
s
n
0.5625 0.1500 m
0.5625 0.1600 l
s
n
0.5625 0.8500 m
0.5625 0.8400 l
s
n
0.5926 0.1500 m
0.5926 0.1600 l
s
n
0.5926 0.8500 m
0.5926 0.8400 l
s
n
0.6172 0.1500 m
0.6172 0.1600 l
s
n
0.6172 0.8500 m
0.6172 0.8400 l
s
n
0.6379 0.1500 m
0.6379 0.1600 l
s
n
0.6379 0.8500 m
0.6379 0.8400 l
s
n
0.6559 0.1500 m
0.6559 0.1600 l
s
n
0.6559 0.8500 m
0.6559 0.8400 l
s
n
0.6718 0.1500 m
0.6718 0.1600 l
s
n
0.6718 0.8500 m
0.6718 0.8400 l
s
n
0.6860 0.1500 m
0.6860 0.1600 l
s
n
0.6860 0.8500 m
0.6860 0.8400 l
s
n
0.6559 0.1500 m
0.6559 0.1600 l
s
n
0.6559 0.8500 m
0.6559 0.8400 l
s
n
0.7106 0.1500 m
0.7106 0.1600 l
s
n
0.7106 0.8500 m
0.7106 0.8400 l
s
n
0.7494 0.1500 m
0.7494 0.1600 l
s
n
0.7494 0.8500 m
0.7494 0.8400 l
s
n
0.7795 0.1500 m
0.7795 0.1600 l
s
n
0.7795 0.8500 m
0.7795 0.8400 l
s
n
0.8040 0.1500 m
0.8040 0.1600 l
s
n
0.8040 0.8500 m
0.8040 0.8400 l
s
n
0.8248 0.1500 m
0.8248 0.1600 l
s
n
0.8248 0.8500 m
0.8248 0.8400 l
s
n
0.8428 0.1500 m
0.8428 0.1600 l
s
n
0.8428 0.8500 m
0.8428 0.8400 l
s
n
0.8587 0.1500 m
0.8587 0.1600 l
s
n
0.8587 0.8500 m
0.8587 0.8400 l
s
n
0.8729 0.1500 m
0.8729 0.1600 l
s
n
0.8729 0.8500 m
0.8729 0.8400 l
s
n
0.8428 0.1500 m
0.8428 0.1600 l
s
n
0.8428 0.8500 m
0.8428 0.8400 l
s
n
0.8975 0.1500 m
0.8975 0.1600 l
s
n
0.8975 0.8500 m
0.8975 0.8400 l
s
n
0.9363 0.1500 m
0.9363 0.1600 l
s
n
0.9363 0.8500 m
0.9363 0.8400 l
s
n
0.9663 0.1500 m
0.9663 0.1600 l
s
n
0.9663 0.8500 m
0.9663 0.8400 l
s
n
0.9909 0.1500 m
0.9909 0.1600 l
s
n
0.9909 0.8500 m
0.9909 0.8400 l
s
n
1.0117 0.1500 m
1.0117 0.1600 l
s
n
1.0117 0.8500 m
1.0117 0.8400 l
s
n
1.0297 0.1500 m
1.0297 0.1600 l
s
n
1.0297 0.8500 m
1.0297 0.8400 l
s
n
1.0456 0.1500 m
1.0456 0.1600 l
s
n
1.0456 0.8500 m
1.0456 0.8400 l
s
n
1.0598 0.1500 m
1.0598 0.1600 l
s
n
1.0598 0.8500 m
1.0598 0.8400 l
s
n
1.0297 0.1500 m
1.0297 0.1600 l
s
n
1.0297 0.8500 m
1.0297 0.8400 l
s
n
1.0843 0.1500 m
1.0843 0.1600 l
s
n
1.0843 0.8500 m
1.0843 0.8400 l
s
n
1.1231 0.1500 m
1.1231 0.1600 l
s
n
1.1231 0.8500 m
1.1231 0.8400 l
s
n
0.1888 0.1500 m
0.1888 0.1700 l
s
n
0.1888 0.8500 m
0.1888 0.8300 l
s
n
0.3756 0.1500 m
0.3756 0.1700 l
s
n
0.3756 0.8500 m
0.3756 0.8300 l
s
n
0.5625 0.1500 m
0.5625 0.1700 l
s
n
0.5625 0.8500 m
0.5625 0.8300 l
s
n
0.7494 0.1500 m
0.7494 0.1700 l
s
n
0.7494 0.8500 m
0.7494 0.8300 l
s
n
0.9363 0.1500 m
0.9363 0.1700 l
s
n
0.9363 0.8500 m
0.9363 0.8300 l
s
n
1.1231 0.1500 m
1.1231 0.1700 l
s
n
1.1231 0.8500 m
1.1231 0.8300 l
s
/Times-Roman findfont
dup length dict begin
 {1 index /FID ne {def} {pop pop} ifelse} forall
 /Encoding DefEncoding def
 currentdict
end
/Font35 exch definefont pop
/Font35 FFSF
0.1652 0.1067 m
GS
[0.0490 0.0000 0.0000 0.0490 0 0] CC
(16) show
GR
/Font35 FFSF
0.3519 0.1067 m
GS
[0.0490 0.0000 0.0000 0.0490 0 0] CC
(64) show
GR
/Font35 FFSF
0.5266 0.1063 m
GS
[0.0490 0.0000 0.0000 0.0490 0 0] CC
(256) show
GR
/Font35 FFSF
0.7011 0.1067 m
GS
[0.0490 0.0000 0.0000 0.0490 0 0] CC
(1024) show
GR
/Font35 FFSF
0.8882 0.1067 m
GS
[0.0490 0.0000 0.0000 0.0490 0 0] CC
(4096) show
GR
/Font35 FFSF
1.0625 0.1067 m
GS
[0.0490 0.0000 0.0000 0.0490 0 0] CC
(16384) show
GR
/Font35 FFSF
0.4863 0.0618 m
GS
[0.0490 0.0000 0.0000 0.0490 0 0] CC
(Number of cores) show
GR
n
0.1500 0.1500 m
0.1500 0.8500 l
s
n
1.1500 0.1500 m
1.1500 0.8500 l
s
n
0.1500 0.1982 m
0.1600 0.1982 l
s
n
1.1500 0.1982 m
1.1400 0.1982 l
s
n
0.1500 0.2365 m
0.1600 0.2365 l
s
n
1.1500 0.2365 m
1.1400 0.2365 l
s
n
0.1500 0.2636 m
0.1600 0.2636 l
s
n
1.1500 0.2636 m
1.1400 0.2636 l
s
n
0.1500 0.2847 m
0.1600 0.2847 l
s
n
1.1500 0.2847 m
1.1400 0.2847 l
s
n
0.1500 0.3019 m
0.1600 0.3019 l
s
n
1.1500 0.3019 m
1.1400 0.3019 l
s
n
0.1500 0.3164 m
0.1600 0.3164 l
s
n
1.1500 0.3164 m
1.1400 0.3164 l
s
n
0.1500 0.3290 m
0.1600 0.3290 l
s
n
1.1500 0.3290 m
1.1400 0.3290 l
s
n
0.1500 0.3401 m
0.1600 0.3401 l
s
n
1.1500 0.3401 m
1.1400 0.3401 l
s
n
0.1500 0.3501 m
0.1600 0.3501 l
s
n
1.1500 0.3501 m
1.1400 0.3501 l
s
n
0.1500 0.4155 m
0.1600 0.4155 l
s
n
1.1500 0.4155 m
1.1400 0.4155 l
s
n
0.1500 0.4537 m
0.1600 0.4537 l
s
n
1.1500 0.4537 m
1.1400 0.4537 l
s
n
0.1500 0.4809 m
0.1600 0.4809 l
s
n
1.1500 0.4809 m
1.1400 0.4809 l
s
n
0.1500 0.5019 m
0.1600 0.5019 l
s
n
1.1500 0.5019 m
1.1400 0.5019 l
s
n
0.1500 0.5191 m
0.1600 0.5191 l
s
n
1.1500 0.5191 m
1.1400 0.5191 l
s
n
0.1500 0.5337 m
0.1600 0.5337 l
s
n
1.1500 0.5337 m
1.1400 0.5337 l
s
n
0.1500 0.5463 m
0.1600 0.5463 l
s
n
1.1500 0.5463 m
1.1400 0.5463 l
s
n
0.1500 0.5574 m
0.1600 0.5574 l
s
n
1.1500 0.5574 m
1.1400 0.5574 l
s
n
0.1500 0.5673 m
0.1600 0.5673 l
s
n
1.1500 0.5673 m
1.1400 0.5673 l
s
n
0.1500 0.6327 m
0.1600 0.6327 l
s
n
1.1500 0.6327 m
1.1400 0.6327 l
s
n
0.1500 0.6710 m
0.1600 0.6710 l
s
n
1.1500 0.6710 m
1.1400 0.6710 l
s
n
0.1500 0.6981 m
0.1600 0.6981 l
s
n
1.1500 0.6981 m
1.1400 0.6981 l
s
n
0.1500 0.7192 m
0.1600 0.7192 l
s
n
1.1500 0.7192 m
1.1400 0.7192 l
s
n
0.1500 0.7364 m
0.1600 0.7364 l
s
n
1.1500 0.7364 m
1.1400 0.7364 l
s
n
0.1500 0.7509 m
0.1600 0.7509 l
s
n
1.1500 0.7509 m
1.1400 0.7509 l
s
n
0.1500 0.7635 m
0.1600 0.7635 l
s
n
1.1500 0.7635 m
1.1400 0.7635 l
s
n
0.1500 0.7747 m
0.1600 0.7747 l
s
n
1.1500 0.7747 m
1.1400 0.7747 l
s
n
0.1500 0.7846 m
0.1600 0.7846 l
s
n
1.1500 0.7846 m
1.1400 0.7846 l
s
n
0.1500 0.8500 m
0.1600 0.8500 l
s
n
1.1500 0.8500 m
1.1400 0.8500 l
s
n
0.1500 0.3501 m
0.1700 0.3501 l
s
n
1.1500 0.3501 m
1.1300 0.3501 l
s
n
0.1500 0.5673 m
0.1700 0.5673 l
s
n
1.1500 0.5673 m
1.1300 0.5673 l
s
n
0.1500 0.7846 m
0.1700 0.7846 l
s
n
1.1500 0.7846 m
1.1300 0.7846 l
s
/Font35 FFSF
0.0745 0.3242 m
GS
[0.0490 0.0000 0.0000 0.0490 0 0] CC
(10) show
GR
/Font35 FFSF
0.1235 0.3536 m
GS
[0.0346 0.0000 0.0000 0.0346 0 0] CC
(2) show
GR
/Font35 FFSF
0.0761 0.5415 m
GS
[0.0490 0.0000 0.0000 0.0490 0 0] CC
(10) show
GR
/Font35 FFSF
0.1251 0.5709 m
GS
[0.0346 0.0000 0.0000 0.0346 0 0] CC
(3) show
GR
/Font35 FFSF
0.0745 0.7587 m
GS
[0.0490 0.0000 0.0000 0.0490 0 0] CC
(10) show
GR
/Font35 FFSF
0.1235 0.7881 m
GS
[0.0346 0.0000 0.0000 0.0346 0 0] CC
(4) show
GR
/Font35 FFSF
0.0539 0.4082 m
GS
[0.0000 0.0490 -0.0490 0.0000 0 0] CC
(Speed-up) show
GR
n
0.1500 0.1500 m
0.1500 0.8500 l
1.1500 0.8500 l
1.1500 0.1500 l
0.1500 0.1500 l
c
s
n
0.7950 0.3800 m
0.7950 0.1931 l
1.1112 0.1931 l
1.1112 0.3800 l
c
[/DeviceRGB] SCS
Color0 SC
fill
[/DeviceRGB] SCS
Color1 SC
n
0.7950 0.3800 m
0.7950 0.1931 l
1.1112 0.1931 l
1.1112 0.3800 l
0.7950 0.3800 l
c
s
/Font35 FFSF
0.8758 0.3367 m
GS
[0.0490 0.0000 0.0000 0.0490 0 0] CC
(Ideal) show
GR
[/DeviceRGB] SCS
Color11 SC
[] 0 SD
0.0037 SLW
n
0.8158 0.3531 m
0.8558 0.3531 l
s
/Font35 FFSF
[/DeviceRGB] SCS
Color1 SC
0.8758 0.2929 m
GS
[0.0490 0.0000 0.0000 0.0490 0 0] CC
(180 atoms) show
GR
[] 0 SD
0.0045 SLW
n
0.8158 0.3092 m
0.8558 0.3092 l
s
n
0.8158 0.3092 0.0100 0.0100 0 360 EARC c
fill
[] 0 SD
0.0015 SLW
n 0.8158 0.3092 0.0100 0.0100 0 360 EARC s
n
0.8558 0.3092 0.0100 0.0100 0 360 EARC c
fill
n 0.8558 0.3092 0.0100 0.0100 0 360 EARC s
/Font35 FFSF
0.8758 0.2484 m
GS
[0.0490 0.0000 0.0000 0.0490 0 0] CC
(650 atoms) show
GR
[/DeviceRGB] SCS
Color4 SC
[0.0225 0.0135 ] 0 SD
0.0045 SLW
n
0.8158 0.2649 m
0.8558 0.2649 l
s
n
0.8073 0.2564 m
0.8073 0.2734 l
0.8243 0.2734 l
0.8243 0.2564 l
c
fill
[] 0 SD
0.0015 SLW
n
0.8073 0.2564 m
0.8073 0.2734 l
0.8243 0.2734 l
0.8243 0.2564 l
0.8073 0.2564 l
c
s
n
0.8473 0.2564 m
0.8473 0.2734 l
0.8643 0.2734 l
0.8643 0.2564 l
c
fill
n
0.8473 0.2564 m
0.8473 0.2734 l
0.8643 0.2734 l
0.8643 0.2564 l
0.8473 0.2564 l
c
s
/Font35 FFSF
[/DeviceRGB] SCS
Color1 SC
0.8758 0.2039 m
GS
[0.0490 0.0000 0.0000 0.0490 0 0] CC
(1365 atoms) show
GR
[/DeviceRGB] SCS
Color2 SC
[0.0060 0.0180 ] 0 SD
0.0060 SLW
n
0.8158 0.2204 m
0.8558 0.2204 l
s
n
0.8158 0.2319 m
0.8058 0.2146 l
0.8258 0.2146 l
c
fill
[] 0 SD
0.0015 SLW
n
0.8158 0.2319 m
0.8058 0.2146 l
0.8258 0.2146 l
0.8158 0.2319 l
c
s
n
0.8558 0.2319 m
0.8458 0.2146 l
0.8658 0.2146 l
c
fill
n
0.8558 0.2319 m
0.8458 0.2146 l
0.8658 0.2146 l
0.8558 0.2319 l
c
s
%%Trailer
%%BoundingBox: 11 36 726 522
%%DocumentNeededResources: font Times-Roman
%%EOF
