<?xml version="1.0" encoding="UTF-8" standalone="no"?>
<!-- Created with Inkscape (http://www.inkscape.org/) -->

<svg
   xmlns:dc="http://purl.org/dc/elements/1.1/"
   xmlns:cc="http://creativecommons.org/ns#"
   xmlns:rdf="http://www.w3.org/1999/02/22-rdf-syntax-ns#"
   xmlns:svg="http://www.w3.org/2000/svg"
   xmlns="http://www.w3.org/2000/svg"
   xmlns:sodipodi="http://sodipodi.sourceforge.net/DTD/sodipodi-0.dtd"
   xmlns:inkscape="http://www.inkscape.org/namespaces/inkscape"
   width="200.90871mm"
   height="99.72448mm"
   viewBox="0 0 200.90871 99.72448"
   version="1.1"
   id="svg8"
   inkscape:version="0.92.4 (5da689c313, 2019-01-14)"
   sodipodi:docname="batch_layout.svg">
  <defs
     id="defs2">
    <marker
       inkscape:isstock="true"
       style="overflow:visible"
       id="marker7461"
       refX="0"
       refY="0"
       orient="auto"
       inkscape:stockid="Arrow2Mend">
      <path
         transform="scale(-0.6)"
         d="M 8.7185878,4.0337352 -2.2072895,0.01601326 8.7185884,-4.0017078 c -1.7454984,2.3720609 -1.7354408,5.6174519 -6e-7,8.035443 z"
         style="fill:#000000;fill-opacity:1;fill-rule:evenodd;stroke:#000000;stroke-width:0.625;stroke-linejoin:round;stroke-opacity:1"
         id="path7459"
         inkscape:connector-curvature="0" />
    </marker>
    <marker
       inkscape:isstock="true"
       style="overflow:visible"
       id="marker7355"
       refX="0"
       refY="0"
       orient="auto"
       inkscape:stockid="Arrow1Mend">
      <path
         transform="matrix(-0.4,0,0,-0.4,-4,0)"
         style="fill:#000000;fill-opacity:1;fill-rule:evenodd;stroke:#000000;stroke-width:1.00000003pt;stroke-opacity:1"
         d="M 0,0 5,-5 -12.5,0 5,5 Z"
         id="path7353"
         inkscape:connector-curvature="0" />
    </marker>
    <marker
       inkscape:stockid="Arrow1Mend"
       orient="auto"
       refY="0"
       refX="0"
       id="Arrow1Mend"
       style="overflow:visible"
       inkscape:isstock="true"
       inkscape:collect="always">
      <path
         id="path1633"
         d="M 0,0 5,-5 -12.5,0 5,5 Z"
         style="fill:#000000;fill-opacity:1;fill-rule:evenodd;stroke:#000000;stroke-width:1.00000003pt;stroke-opacity:1"
         transform="matrix(-0.4,0,0,-0.4,-4,0)"
         inkscape:connector-curvature="0" />
    </marker>
    <marker
       inkscape:stockid="Arrow1Send"
       orient="auto"
       refY="0"
       refX="0"
       id="marker2488"
       style="overflow:visible"
       inkscape:isstock="true">
      <path
         id="path2486"
         d="M 0,0 5,-5 -12.5,0 5,5 Z"
         style="fill:#000000;fill-opacity:1;fill-rule:evenodd;stroke:#000000;stroke-width:1.00000003pt;stroke-opacity:1"
         transform="matrix(-0.2,0,0,-0.2,-1.2,0)"
         inkscape:connector-curvature="0" />
    </marker>
    <marker
       inkscape:stockid="Arrow2Mend"
       orient="auto"
       refY="0"
       refX="0"
       id="Arrow2Mend"
       style="overflow:visible"
       inkscape:isstock="true"
       inkscape:collect="always">
      <path
         id="path1651"
         style="fill:#000000;fill-opacity:1;fill-rule:evenodd;stroke:#000000;stroke-width:0.625;stroke-linejoin:round;stroke-opacity:1"
         d="M 8.7185878,4.0337352 -2.2072895,0.01601326 8.7185884,-4.0017078 c -1.7454984,2.3720609 -1.7354408,5.6174519 -6e-7,8.035443 z"
         transform="scale(-0.6)"
         inkscape:connector-curvature="0" />
    </marker>
    <marker
       inkscape:stockid="Arrow1Send"
       orient="auto"
       refY="0"
       refX="0"
       id="Arrow1Send"
       style="overflow:visible"
       inkscape:isstock="true">
      <path
         id="path1639"
         d="M 0,0 5,-5 -12.5,0 5,5 Z"
         style="fill:#000000;fill-opacity:1;fill-rule:evenodd;stroke:#000000;stroke-width:1.00000003pt;stroke-opacity:1"
         transform="matrix(-0.2,0,0,-0.2,-1.2,0)"
         inkscape:connector-curvature="0" />
    </marker>
    <marker
       inkscape:stockid="Arrow1Mend"
       orient="auto"
       refY="0"
       refX="0"
       id="Arrow1Mend-2"
       style="overflow:visible"
       inkscape:isstock="true">
      <path
         inkscape:connector-curvature="0"
         id="path1633-6"
         d="M 0,0 5,-5 -12.5,0 5,5 Z"
         style="fill:#000000;fill-opacity:1;fill-rule:evenodd;stroke:#000000;stroke-width:1.00000003pt;stroke-opacity:1"
         transform="matrix(-0.4,0,0,-0.4,-4,0)" />
    </marker>
    <marker
       inkscape:stockid="Arrow1Mend"
       orient="auto"
       refY="0"
       refX="0"
       id="Arrow1Mend-0"
       style="overflow:visible"
       inkscape:isstock="true">
      <path
         inkscape:connector-curvature="0"
         id="path1633-61"
         d="M 0,0 5,-5 -12.5,0 5,5 Z"
         style="fill:#000000;fill-opacity:1;fill-rule:evenodd;stroke:#000000;stroke-width:1.00000003pt;stroke-opacity:1"
         transform="matrix(-0.4,0,0,-0.4,-4,0)" />
    </marker>
    <marker
       inkscape:stockid="Arrow1Mend"
       orient="auto"
       refY="0"
       refX="0"
       id="Arrow1Mend-0-9"
       style="overflow:visible"
       inkscape:isstock="true">
      <path
         inkscape:connector-curvature="0"
         id="path1633-61-0"
         d="M 0,0 5,-5 -12.5,0 5,5 Z"
         style="fill:#000000;fill-opacity:1;fill-rule:evenodd;stroke:#000000;stroke-width:1.00000003pt;stroke-opacity:1"
         transform="matrix(-0.4,0,0,-0.4,-4,0)" />
    </marker>
    <marker
       inkscape:stockid="Arrow1Mend"
       orient="auto"
       refY="0"
       refX="0"
       id="Arrow1Mend-2-9"
       style="overflow:visible"
       inkscape:isstock="true">
      <path
         inkscape:connector-curvature="0"
         id="path1633-6-1"
         d="M 0,0 5,-5 -12.5,0 5,5 Z"
         style="fill:#000000;fill-opacity:1;fill-rule:evenodd;stroke:#000000;stroke-width:1.00000003pt;stroke-opacity:1"
         transform="matrix(-0.4,0,0,-0.4,-4,0)" />
    </marker>
    <marker
       inkscape:stockid="Arrow1Mend"
       orient="auto"
       refY="0"
       refX="0"
       id="Arrow1Mend-7"
       style="overflow:visible"
       inkscape:isstock="true">
      <path
         inkscape:connector-curvature="0"
         id="path1633-7"
         d="M 0,0 5,-5 -12.5,0 5,5 Z"
         style="fill:#000000;fill-opacity:1;fill-rule:evenodd;stroke:#000000;stroke-width:1.00000003pt;stroke-opacity:1"
         transform="matrix(-0.4,0,0,-0.4,-4,0)" />
    </marker>
    <marker
       inkscape:stockid="Arrow2Mend"
       orient="auto"
       refY="0"
       refX="0"
       id="Arrow2Mend-1"
       style="overflow:visible"
       inkscape:isstock="true">
      <path
         inkscape:connector-curvature="0"
         id="path1651-1"
         style="fill:#000000;fill-opacity:1;fill-rule:evenodd;stroke:#000000;stroke-width:0.625;stroke-linejoin:round;stroke-opacity:1"
         d="M 8.7185878,4.0337352 -2.2072895,0.01601326 8.7185884,-4.0017078 c -1.7454984,2.3720609 -1.7354408,5.6174519 -6e-7,8.035443 z"
         transform="scale(-0.6)" />
    </marker>
    <marker
       inkscape:stockid="Arrow2Mend"
       orient="auto"
       refY="0"
       refX="0"
       id="Arrow2Mend-2"
       style="overflow:visible"
       inkscape:isstock="true">
      <path
         inkscape:connector-curvature="0"
         id="path1651-4"
         style="fill:#000000;fill-opacity:1;fill-rule:evenodd;stroke:#000000;stroke-width:0.625;stroke-linejoin:round;stroke-opacity:1"
         d="M 8.7185878,4.0337352 -2.2072895,0.01601326 8.7185884,-4.0017078 c -1.7454984,2.3720609 -1.7354408,5.6174519 -6e-7,8.035443 z"
         transform="scale(-0.6)" />
    </marker>
    <marker
       inkscape:stockid="Arrow2Mend"
       orient="auto"
       refY="0"
       refX="0"
       id="Arrow2Mend-2-8"
       style="overflow:visible"
       inkscape:isstock="true">
      <path
         inkscape:connector-curvature="0"
         id="path1651-4-1"
         style="fill:#000000;fill-opacity:1;fill-rule:evenodd;stroke:#000000;stroke-width:0.625;stroke-linejoin:round;stroke-opacity:1"
         d="M 8.7185878,4.0337352 -2.2072895,0.01601326 8.7185884,-4.0017078 c -1.7454984,2.3720609 -1.7354408,5.6174519 -6e-7,8.035443 z"
         transform="scale(-0.6)" />
    </marker>
    <marker
       inkscape:stockid="Arrow1Mend"
       orient="auto"
       refY="0"
       refX="0"
       id="Arrow1Mend-0-98"
       style="overflow:visible"
       inkscape:isstock="true">
      <path
         inkscape:connector-curvature="0"
         id="path1633-61-6"
         d="M 0,0 5,-5 -12.5,0 5,5 Z"
         style="fill:#000000;fill-opacity:1;fill-rule:evenodd;stroke:#000000;stroke-width:1.00000003pt;stroke-opacity:1"
         transform="matrix(-0.4,0,0,-0.4,-4,0)" />
    </marker>
    <marker
       inkscape:stockid="Arrow1Mend"
       orient="auto"
       refY="0"
       refX="0"
       id="Arrow1Mend-0-98-0"
       style="overflow:visible"
       inkscape:isstock="true">
      <path
         inkscape:connector-curvature="0"
         id="path1633-61-6-4"
         d="M 0,0 5,-5 -12.5,0 5,5 Z"
         style="fill:#000000;fill-opacity:1;fill-rule:evenodd;stroke:#000000;stroke-width:1.00000003pt;stroke-opacity:1"
         transform="matrix(-0.4,0,0,-0.4,-4,0)" />
    </marker>
    <marker
       inkscape:stockid="Arrow1Mend"
       orient="auto"
       refY="0"
       refX="0"
       id="Arrow1Mend-0-98-4"
       style="overflow:visible"
       inkscape:isstock="true">
      <path
         inkscape:connector-curvature="0"
         id="path1633-61-6-8"
         d="M 0,0 5,-5 -12.5,0 5,5 Z"
         style="fill:#000000;fill-opacity:1;fill-rule:evenodd;stroke:#000000;stroke-width:1.00000003pt;stroke-opacity:1"
         transform="matrix(-0.4,0,0,-0.4,-4,0)" />
    </marker>
    <marker
       inkscape:stockid="Arrow1Mend"
       orient="auto"
       refY="0"
       refX="0"
       id="Arrow1Mend-0-98-6"
       style="overflow:visible"
       inkscape:isstock="true">
      <path
         inkscape:connector-curvature="0"
         id="path1633-61-6-85"
         d="M 0,0 5,-5 -12.5,0 5,5 Z"
         style="fill:#000000;fill-opacity:1;fill-rule:evenodd;stroke:#000000;stroke-width:1.00000003pt;stroke-opacity:1"
         transform="matrix(-0.4,0,0,-0.4,-4,0)" />
    </marker>
  </defs>
  <sodipodi:namedview
     id="base"
     pagecolor="#ffffff"
     bordercolor="#666666"
     borderopacity="1.0"
     inkscape:pageopacity="0.0"
     inkscape:pageshadow="2"
     inkscape:zoom="0.98994949"
     inkscape:cx="350.76422"
     inkscape:cy="0.2291396"
     inkscape:document-units="mm"
     inkscape:current-layer="layer1"
     showgrid="false"
     inkscape:window-width="1916"
     inkscape:window-height="1176"
     inkscape:window-x="0"
     inkscape:window-y="20"
     inkscape:window-maximized="1"
     fit-margin-top="0"
     fit-margin-left="0"
     fit-margin-right="0"
     fit-margin-bottom="0" />
  <metadata
     id="metadata5">
    <rdf:RDF>
      <cc:Work
         rdf:about="">
        <dc:format>image/svg+xml</dc:format>
        <dc:type
           rdf:resource="http://purl.org/dc/dcmitype/StillImage" />
        <dc:title></dc:title>
      </cc:Work>
    </rdf:RDF>
  </metadata>
  <g
     inkscape:label="Layer 1"
     inkscape:groupmode="layer"
     id="layer1"
     transform="translate(-6.4707999,-1.9810018)">
    <text
       xml:space="preserve"
       style="font-style:normal;font-variant:normal;font-weight:normal;font-stretch:normal;font-size:10.58333302px;line-height:1.25;font-family:Lato;-inkscape-font-specification:Lato;letter-spacing:0px;word-spacing:0px;fill:#000000;fill-opacity:1;stroke:none;stroke-width:0.26458332"
       x="6.3072872"
       y="43.274166"
       id="text907-5-2"><tspan
         sodipodi:role="line"
         id="tspan905-3-9"
         x="6.3072872"
         y="43.274166"
         style="font-size:6.3499999px;stroke-width:0.26458332">Orbital 1</tspan></text>
    <text
       xml:space="preserve"
       style="font-style:normal;font-variant:normal;font-weight:normal;font-stretch:normal;font-size:10.58333302px;line-height:1.25;font-family:Lato;-inkscape-font-specification:Lato;letter-spacing:0px;word-spacing:0px;fill:#000000;fill-opacity:1;stroke:none;stroke-width:0.26458332"
       x="43.758347"
       y="33.608978"
       id="text907-5-2-1"><tspan
         sodipodi:role="line"
         id="tspan905-3-9-2"
         x="43.758347"
         y="33.608978"
         style="font-size:6.3499999px;stroke-width:0.26458332">Mesh index</tspan></text>
    <path
       style="fill:none;stroke:#000000;stroke-width:0.465;stroke-linecap:butt;stroke-linejoin:miter;stroke-miterlimit:4;stroke-dasharray:none;stroke-opacity:1;marker-end:url(#Arrow2Mend)"
       d="M 79.379049,31.334089 H 92.207985"
       id="path1622"
       inkscape:connector-curvature="0" />
    <text
       xml:space="preserve"
       style="font-style:normal;font-variant:normal;font-weight:normal;font-stretch:normal;font-size:10.58333302px;line-height:1.25;font-family:Lato;-inkscape-font-specification:Lato;letter-spacing:0px;word-spacing:0px;fill:#000000;fill-opacity:1;stroke:none;stroke-width:0.26458332"
       x="6.2564869"
       y="57.858757"
       id="text907-5-2-7"><tspan
         sodipodi:role="line"
         id="tspan905-3-9-0"
         x="6.2564869"
         y="57.858757"
         style="font-size:6.3499999px;stroke-width:0.26458332">Orbital 2</tspan></text>
    <g
       id="g3799"
       transform="translate(-1.6036172,2.4054257)">
      <rect
         y="34.680344"
         x="39.491047"
         height="7.7508144"
         width="75.904541"
         id="rect817-2-6"
         style="fill:#00ff00;fill-opacity:1;stroke:#000000;stroke-width:0.40000001;stroke-miterlimit:4;stroke-dasharray:none;stroke-opacity:1" />
      <path
         inkscape:connector-curvature="0"
         id="path1962"
         d="m 45.311884,34.680346 v 7.750813"
         style="fill:none;stroke:#000000;stroke-width:0.26458332px;stroke-linecap:butt;stroke-linejoin:miter;stroke-opacity:1" />
      <path
         inkscape:connector-curvature="0"
         id="path1962-9"
         d="m 50.915898,34.680346 v 7.750813"
         style="fill:none;stroke:#000000;stroke-width:0.26458332px;stroke-linecap:butt;stroke-linejoin:miter;stroke-opacity:1" />
      <path
         inkscape:connector-curvature="0"
         id="path1962-9-3"
         d="m 56.519908,34.680346 v 7.750813"
         style="fill:none;stroke:#000000;stroke-width:0.26458332px;stroke-linecap:butt;stroke-linejoin:miter;stroke-opacity:1" />
      <path
         inkscape:connector-curvature="0"
         id="path1962-9-3-6"
         d="m 62.123924,34.680346 v 7.750813"
         style="fill:none;stroke:#000000;stroke-width:0.26458332px;stroke-linecap:butt;stroke-linejoin:miter;stroke-opacity:1" />
      <path
         inkscape:connector-curvature="0"
         id="path1962-9-3-0"
         d="m 67.727938,34.680345 v 7.750814"
         style="fill:none;stroke:#000000;stroke-width:0.26458332px;stroke-linecap:butt;stroke-linejoin:miter;stroke-opacity:1" />
      <path
         inkscape:connector-curvature="0"
         id="path1962-9-3-62"
         d="m 78.935957,34.680345 v 7.750814"
         style="fill:none;stroke:#000000;stroke-width:0.26458332px;stroke-linecap:butt;stroke-linejoin:miter;stroke-opacity:1" />
      <path
         inkscape:connector-curvature="0"
         id="path1962-9-3-61"
         d="m 84.539972,34.680346 v 7.750813"
         style="fill:none;stroke:#000000;stroke-width:0.26458332px;stroke-linecap:butt;stroke-linejoin:miter;stroke-opacity:1" />
      <path
         inkscape:connector-curvature="0"
         id="path1962-9-3-8"
         d="m 90.143987,34.680346 v 7.750813"
         style="fill:none;stroke:#000000;stroke-width:0.26458332px;stroke-linecap:butt;stroke-linejoin:miter;stroke-opacity:1" />
      <path
         inkscape:connector-curvature="0"
         id="path1962-9-3-7"
         d="m 73.33195,34.680346 v 7.750813"
         style="fill:none;stroke:#000000;stroke-width:0.26458332px;stroke-linecap:butt;stroke-linejoin:miter;stroke-opacity:1" />
      <text
         id="text907-5-2-8"
         y="39.101498"
         x="99.092857"
         style="font-style:normal;font-variant:normal;font-weight:normal;font-stretch:normal;font-size:10.58333302px;line-height:1.25;font-family:Lato;-inkscape-font-specification:Lato;letter-spacing:0px;word-spacing:0px;fill:#000000;fill-opacity:1;stroke:none;stroke-width:0.26458332"
         xml:space="preserve"><tspan
           style="font-size:9.87777805px;stroke-width:0.26458332"
           y="39.101498"
           x="99.092857"
           id="tspan905-3-9-9"
           sodipodi:role="line">...</tspan></text>
      <text
         id="text907-5-2-6"
         y="40.8354"
         x="40.486259"
         style="font-style:normal;font-variant:normal;font-weight:normal;font-stretch:normal;font-size:10.58333302px;line-height:1.25;font-family:Lato;-inkscape-font-specification:Lato;letter-spacing:0px;word-spacing:0px;fill:#000000;fill-opacity:1;stroke:none;stroke-width:0.26458332"
         xml:space="preserve"><tspan
           style="font-size:6.3499999px;stroke-width:0.26458332"
           y="40.8354"
           x="40.486259"
           id="tspan905-3-9-1"
           sodipodi:role="line">1</tspan></text>
      <text
         id="text907-5-2-6-2"
         y="40.856037"
         x="46.568142"
         style="font-style:normal;font-variant:normal;font-weight:normal;font-stretch:normal;font-size:10.58333302px;line-height:1.25;font-family:Lato;-inkscape-font-specification:Lato;letter-spacing:0px;word-spacing:0px;fill:#000000;fill-opacity:1;stroke:none;stroke-width:0.26458332"
         xml:space="preserve"><tspan
           style="font-size:6.3499999px;stroke-width:0.26458332"
           y="40.856037"
           x="46.568142"
           id="tspan905-3-9-1-9"
           sodipodi:role="line">2</tspan></text>
      <text
         id="text907-5-2-6-3"
         y="40.830639"
         x="52.047169"
         style="font-style:normal;font-variant:normal;font-weight:normal;font-stretch:normal;font-size:10.58333302px;line-height:1.25;font-family:Lato;-inkscape-font-specification:Lato;letter-spacing:0px;word-spacing:0px;fill:#000000;fill-opacity:1;stroke:none;stroke-width:0.26458332"
         xml:space="preserve"><tspan
           style="font-size:6.3499999px;stroke-width:0.26458332"
           y="40.830639"
           x="52.047169"
           id="tspan905-3-9-1-1"
           sodipodi:role="line">3</tspan></text>
    </g>
    <g
       id="g3965"
       transform="translate(-1.6036172,2.4054257)">
      <rect
         y="49.264935"
         x="39.491047"
         height="7.7508144"
         width="75.904541"
         id="rect817-2-6-9"
         style="fill:#ff0000;fill-opacity:1;stroke:#000000;stroke-width:0.40000001;stroke-miterlimit:4;stroke-dasharray:none;stroke-opacity:1" />
      <g
         id="g3944">
        <path
           style="fill:none;stroke:#000000;stroke-width:0.26458332px;stroke-linecap:butt;stroke-linejoin:miter;stroke-opacity:1"
           d="m 45.311885,49.264938 v 7.750813"
           id="path1962-4"
           inkscape:connector-curvature="0" />
        <path
           style="fill:none;stroke:#000000;stroke-width:0.26458332px;stroke-linecap:butt;stroke-linejoin:miter;stroke-opacity:1"
           d="m 50.915899,49.264938 v 7.750813"
           id="path1962-9-7"
           inkscape:connector-curvature="0" />
        <path
           style="fill:none;stroke:#000000;stroke-width:0.26458332px;stroke-linecap:butt;stroke-linejoin:miter;stroke-opacity:1"
           d="m 56.519909,49.264938 v 7.750813"
           id="path1962-9-3-84"
           inkscape:connector-curvature="0" />
        <path
           style="fill:none;stroke:#000000;stroke-width:0.26458332px;stroke-linecap:butt;stroke-linejoin:miter;stroke-opacity:1"
           d="m 62.123925,49.264938 v 7.750813"
           id="path1962-9-3-6-5"
           inkscape:connector-curvature="0" />
        <path
           style="fill:none;stroke:#000000;stroke-width:0.26458332px;stroke-linecap:butt;stroke-linejoin:miter;stroke-opacity:1"
           d="m 67.727939,49.264937 v 7.750814"
           id="path1962-9-3-0-0"
           inkscape:connector-curvature="0" />
        <path
           style="fill:none;stroke:#000000;stroke-width:0.26458332px;stroke-linecap:butt;stroke-linejoin:miter;stroke-opacity:1"
           d="m 78.935961,49.264937 v 7.750814"
           id="path1962-9-3-62-3"
           inkscape:connector-curvature="0" />
        <path
           style="fill:none;stroke:#000000;stroke-width:0.26458332px;stroke-linecap:butt;stroke-linejoin:miter;stroke-opacity:1"
           d="m 84.539971,49.264938 v 7.750813"
           id="path1962-9-3-61-6"
           inkscape:connector-curvature="0" />
        <path
           style="fill:none;stroke:#000000;stroke-width:0.26458332px;stroke-linecap:butt;stroke-linejoin:miter;stroke-opacity:1"
           d="m 90.143991,49.264938 v 7.750813"
           id="path1962-9-3-8-1"
           inkscape:connector-curvature="0" />
        <path
           style="fill:none;stroke:#000000;stroke-width:0.26458332px;stroke-linecap:butt;stroke-linejoin:miter;stroke-opacity:1"
           d="m 73.331951,49.264938 v 7.750813"
           id="path1962-9-3-7-0"
           inkscape:connector-curvature="0" />
        <text
           xml:space="preserve"
           style="font-style:normal;font-variant:normal;font-weight:normal;font-stretch:normal;font-size:10.58333302px;line-height:1.25;font-family:Lato;-inkscape-font-specification:Lato;letter-spacing:0px;word-spacing:0px;fill:#000000;fill-opacity:1;stroke:none;stroke-width:0.26458332"
           x="99.09285"
           y="53.686089"
           id="text907-5-2-8-6"><tspan
             sodipodi:role="line"
             id="tspan905-3-9-9-3"
             x="99.09285"
             y="53.686089"
             style="font-size:9.87777805px;stroke-width:0.26458332">...</tspan></text>
        <text
           xml:space="preserve"
           style="font-style:normal;font-variant:normal;font-weight:normal;font-stretch:normal;font-size:10.58333302px;line-height:1.25;font-family:Lato;-inkscape-font-specification:Lato;letter-spacing:0px;word-spacing:0px;fill:#000000;fill-opacity:1;stroke:none;stroke-width:0.26458332"
           x="40.486263"
           y="55.419991"
           id="text907-5-2-6-20"><tspan
             sodipodi:role="line"
             id="tspan905-3-9-1-6"
             x="40.486263"
             y="55.419991"
             style="font-size:6.3499999px;stroke-width:0.26458332">1</tspan></text>
        <text
           xml:space="preserve"
           style="font-style:normal;font-variant:normal;font-weight:normal;font-stretch:normal;font-size:10.58333302px;line-height:1.25;font-family:Lato;-inkscape-font-specification:Lato;letter-spacing:0px;word-spacing:0px;fill:#000000;fill-opacity:1;stroke:none;stroke-width:0.26458332"
           x="46.568142"
           y="55.440628"
           id="text907-5-2-6-2-1"><tspan
             sodipodi:role="line"
             id="tspan905-3-9-1-9-5"
             x="46.568142"
             y="55.440628"
             style="font-size:6.3499999px;stroke-width:0.26458332">2</tspan></text>
        <text
           xml:space="preserve"
           style="font-style:normal;font-variant:normal;font-weight:normal;font-stretch:normal;font-size:10.58333302px;line-height:1.25;font-family:Lato;-inkscape-font-specification:Lato;letter-spacing:0px;word-spacing:0px;fill:#000000;fill-opacity:1;stroke:none;stroke-width:0.26458332"
           x="52.047169"
           y="55.41523"
           id="text907-5-2-6-3-5"><tspan
             sodipodi:role="line"
             id="tspan905-3-9-1-1-4"
             x="52.047169"
             y="55.41523"
             style="font-size:6.3499999px;stroke-width:0.26458332">3</tspan></text>
      </g>
    </g>
    <g
       id="g3985"
       transform="translate(-1.6036172,2.4054257)">
      <rect
         y="63.849525"
         x="39.491047"
         height="7.7508144"
         width="75.904541"
         id="rect817-2-6-7"
         style="fill:#ffff00;fill-opacity:1;stroke:#000000;stroke-width:0.40000001;stroke-miterlimit:4;stroke-dasharray:none;stroke-opacity:1" />
      <path
         inkscape:connector-curvature="0"
         id="path1962-6"
         d="m 45.311885,63.849531 v 7.750813"
         style="fill:none;stroke:#000000;stroke-width:0.26458332px;stroke-linecap:butt;stroke-linejoin:miter;stroke-opacity:1" />
      <path
         inkscape:connector-curvature="0"
         id="path1962-9-5"
         d="m 50.915899,63.849531 v 7.750813"
         style="fill:none;stroke:#000000;stroke-width:0.26458332px;stroke-linecap:butt;stroke-linejoin:miter;stroke-opacity:1" />
      <path
         inkscape:connector-curvature="0"
         id="path1962-9-3-69"
         d="m 56.519909,63.849531 v 7.750813"
         style="fill:none;stroke:#000000;stroke-width:0.26458332px;stroke-linecap:butt;stroke-linejoin:miter;stroke-opacity:1" />
      <path
         inkscape:connector-curvature="0"
         id="path1962-9-3-6-3"
         d="m 62.123925,63.849531 v 7.750813"
         style="fill:none;stroke:#000000;stroke-width:0.26458332px;stroke-linecap:butt;stroke-linejoin:miter;stroke-opacity:1" />
      <path
         inkscape:connector-curvature="0"
         id="path1962-9-3-0-7"
         d="m 67.727939,63.84953 v 7.750814"
         style="fill:none;stroke:#000000;stroke-width:0.26458332px;stroke-linecap:butt;stroke-linejoin:miter;stroke-opacity:1" />
      <path
         inkscape:connector-curvature="0"
         id="path1962-9-3-62-4"
         d="m 78.935959,63.84953 v 7.750814"
         style="fill:none;stroke:#000000;stroke-width:0.26458332px;stroke-linecap:butt;stroke-linejoin:miter;stroke-opacity:1" />
      <path
         inkscape:connector-curvature="0"
         id="path1962-9-3-61-5"
         d="m 84.539974,63.849531 v 7.750813"
         style="fill:none;stroke:#000000;stroke-width:0.26458332px;stroke-linecap:butt;stroke-linejoin:miter;stroke-opacity:1" />
      <path
         inkscape:connector-curvature="0"
         id="path1962-9-3-8-2"
         d="m 90.143989,63.849531 v 7.750813"
         style="fill:none;stroke:#000000;stroke-width:0.26458332px;stroke-linecap:butt;stroke-linejoin:miter;stroke-opacity:1" />
      <path
         inkscape:connector-curvature="0"
         id="path1962-9-3-7-5"
         d="m 73.331952,63.849531 v 7.750813"
         style="fill:none;stroke:#000000;stroke-width:0.26458332px;stroke-linecap:butt;stroke-linejoin:miter;stroke-opacity:1" />
      <text
         id="text907-5-2-8-4"
         y="68.270683"
         x="99.09285"
         style="font-style:normal;font-variant:normal;font-weight:normal;font-stretch:normal;font-size:10.58333302px;line-height:1.25;font-family:Lato;-inkscape-font-specification:Lato;letter-spacing:0px;word-spacing:0px;fill:#000000;fill-opacity:1;stroke:none;stroke-width:0.26458332"
         xml:space="preserve"><tspan
           style="font-size:9.87777805px;stroke-width:0.26458332"
           y="68.270683"
           x="99.09285"
           id="tspan905-3-9-9-7"
           sodipodi:role="line">...</tspan></text>
      <text
         id="text907-5-2-6-4"
         y="70.004585"
         x="40.486259"
         style="font-style:normal;font-variant:normal;font-weight:normal;font-stretch:normal;font-size:10.58333302px;line-height:1.25;font-family:Lato;-inkscape-font-specification:Lato;letter-spacing:0px;word-spacing:0px;fill:#000000;fill-opacity:1;stroke:none;stroke-width:0.26458332"
         xml:space="preserve"><tspan
           style="font-size:6.3499999px;stroke-width:0.26458332"
           y="70.004585"
           x="40.486259"
           id="tspan905-3-9-1-4"
           sodipodi:role="line">1</tspan></text>
      <text
         id="text907-5-2-6-2-3"
         y="70.025223"
         x="46.568142"
         style="font-style:normal;font-variant:normal;font-weight:normal;font-stretch:normal;font-size:10.58333302px;line-height:1.25;font-family:Lato;-inkscape-font-specification:Lato;letter-spacing:0px;word-spacing:0px;fill:#000000;fill-opacity:1;stroke:none;stroke-width:0.26458332"
         xml:space="preserve"><tspan
           style="font-size:6.3499999px;stroke-width:0.26458332"
           y="70.025223"
           x="46.568142"
           id="tspan905-3-9-1-9-0"
           sodipodi:role="line">2</tspan></text>
      <text
         id="text907-5-2-6-3-7"
         y="69.999825"
         x="52.047173"
         style="font-style:normal;font-variant:normal;font-weight:normal;font-stretch:normal;font-size:10.58333302px;line-height:1.25;font-family:Lato;-inkscape-font-specification:Lato;letter-spacing:0px;word-spacing:0px;fill:#000000;fill-opacity:1;stroke:none;stroke-width:0.26458332"
         xml:space="preserve"><tspan
           style="font-size:6.3499999px;stroke-width:0.26458332"
           y="69.999825"
           x="52.047173"
           id="tspan905-3-9-1-1-8"
           sodipodi:role="line">3</tspan></text>
    </g>
    <g
       id="g6840"
       transform="translate(-1.6036172,2.4054257)">
      <rect
         y="78.43412"
         x="39.491047"
         height="7.7508144"
         width="75.904541"
         id="rect817-2-6-6"
         style="fill:#2a7fff;fill-opacity:1;stroke:#000000;stroke-width:0.40000001;stroke-miterlimit:4;stroke-dasharray:none;stroke-opacity:1" />
      <path
         inkscape:connector-curvature="0"
         id="path1962-8"
         d="m 45.311884,78.434121 v 7.750813"
         style="fill:none;stroke:#000000;stroke-width:0.26458332px;stroke-linecap:butt;stroke-linejoin:miter;stroke-opacity:1" />
      <path
         inkscape:connector-curvature="0"
         id="path1962-9-8"
         d="m 50.915898,78.434121 v 7.750813"
         style="fill:none;stroke:#000000;stroke-width:0.26458332px;stroke-linecap:butt;stroke-linejoin:miter;stroke-opacity:1" />
      <path
         inkscape:connector-curvature="0"
         id="path1962-9-3-4"
         d="m 56.519908,78.434121 v 7.750813"
         style="fill:none;stroke:#000000;stroke-width:0.26458332px;stroke-linecap:butt;stroke-linejoin:miter;stroke-opacity:1" />
      <path
         inkscape:connector-curvature="0"
         id="path1962-9-3-6-31"
         d="m 62.123924,78.434121 v 7.750813"
         style="fill:none;stroke:#000000;stroke-width:0.26458332px;stroke-linecap:butt;stroke-linejoin:miter;stroke-opacity:1" />
      <path
         inkscape:connector-curvature="0"
         id="path1962-9-3-0-4"
         d="m 67.727938,78.43412 v 7.750814"
         style="fill:none;stroke:#000000;stroke-width:0.26458332px;stroke-linecap:butt;stroke-linejoin:miter;stroke-opacity:1" />
      <path
         inkscape:connector-curvature="0"
         id="path1962-9-3-62-9"
         d="m 78.935958,78.43412 v 7.750814"
         style="fill:none;stroke:#000000;stroke-width:0.26458332px;stroke-linecap:butt;stroke-linejoin:miter;stroke-opacity:1" />
      <path
         inkscape:connector-curvature="0"
         id="path1962-9-3-61-2"
         d="m 84.539973,78.434121 v 7.750813"
         style="fill:none;stroke:#000000;stroke-width:0.26458332px;stroke-linecap:butt;stroke-linejoin:miter;stroke-opacity:1" />
      <path
         inkscape:connector-curvature="0"
         id="path1962-9-3-8-0"
         d="m 90.143988,78.434121 v 7.750813"
         style="fill:none;stroke:#000000;stroke-width:0.26458332px;stroke-linecap:butt;stroke-linejoin:miter;stroke-opacity:1" />
      <path
         inkscape:connector-curvature="0"
         id="path1962-9-3-7-6"
         d="m 73.331951,78.434121 v 7.750813"
         style="fill:none;stroke:#000000;stroke-width:0.26458332px;stroke-linecap:butt;stroke-linejoin:miter;stroke-opacity:1" />
      <text
         id="text907-5-2-8-8"
         y="82.855278"
         x="99.092857"
         style="font-style:normal;font-variant:normal;font-weight:normal;font-stretch:normal;font-size:10.58333302px;line-height:1.25;font-family:Lato;-inkscape-font-specification:Lato;letter-spacing:0px;word-spacing:0px;fill:#000000;fill-opacity:1;stroke:none;stroke-width:0.26458332"
         xml:space="preserve"><tspan
           style="font-size:9.87777805px;stroke-width:0.26458332"
           y="82.855278"
           x="99.092857"
           id="tspan905-3-9-9-9"
           sodipodi:role="line">...</tspan></text>
      <text
         id="text907-5-2-6-26"
         y="84.58918"
         x="40.486259"
         style="font-style:normal;font-variant:normal;font-weight:normal;font-stretch:normal;font-size:10.58333302px;line-height:1.25;font-family:Lato;-inkscape-font-specification:Lato;letter-spacing:0px;word-spacing:0px;fill:#000000;fill-opacity:1;stroke:none;stroke-width:0.26458332"
         xml:space="preserve"><tspan
           style="font-size:6.3499999px;stroke-width:0.26458332"
           y="84.58918"
           x="40.486259"
           id="tspan905-3-9-1-64"
           sodipodi:role="line">1</tspan></text>
      <text
         id="text907-5-2-6-2-9"
         y="84.609818"
         x="46.568142"
         style="font-style:normal;font-variant:normal;font-weight:normal;font-stretch:normal;font-size:10.58333302px;line-height:1.25;font-family:Lato;-inkscape-font-specification:Lato;letter-spacing:0px;word-spacing:0px;fill:#000000;fill-opacity:1;stroke:none;stroke-width:0.26458332"
         xml:space="preserve"><tspan
           style="font-size:6.3499999px;stroke-width:0.26458332"
           y="84.609818"
           x="46.568142"
           id="tspan905-3-9-1-9-50"
           sodipodi:role="line">2</tspan></text>
      <text
         id="text907-5-2-6-3-4"
         y="84.584419"
         x="52.047169"
         style="font-style:normal;font-variant:normal;font-weight:normal;font-stretch:normal;font-size:10.58333302px;line-height:1.25;font-family:Lato;-inkscape-font-specification:Lato;letter-spacing:0px;word-spacing:0px;fill:#000000;fill-opacity:1;stroke:none;stroke-width:0.26458332"
         xml:space="preserve"><tspan
           style="font-size:6.3499999px;stroke-width:0.26458332"
           y="84.584419"
           x="52.047169"
           id="tspan905-3-9-1-1-87"
           sodipodi:role="line">3</tspan></text>
    </g>
    <text
       xml:space="preserve"
       style="font-style:normal;font-variant:normal;font-weight:normal;font-stretch:normal;font-size:10.58333302px;line-height:1.25;font-family:Lato;-inkscape-font-specification:Lato;letter-spacing:0px;word-spacing:0px;fill:#000000;fill-opacity:1;stroke:none;stroke-width:0.26458332"
       x="6.2596626"
       y="72.443344"
       id="text907-5-2-7-1"><tspan
         sodipodi:role="line"
         id="tspan905-3-9-0-7"
         x="6.2596626"
         y="72.443344"
         style="font-size:6.3499999px;stroke-width:0.26458332">Orbital 3</tspan></text>
    <text
       xml:space="preserve"
       style="font-style:normal;font-variant:normal;font-weight:normal;font-stretch:normal;font-size:10.58333302px;line-height:1.25;font-family:Lato;-inkscape-font-specification:Lato;letter-spacing:0px;word-spacing:0px;fill:#000000;fill-opacity:1;stroke:none;stroke-width:0.26458332"
       x="6.1723499"
       y="87.027939"
       id="text907-5-2-7-2"><tspan
         sodipodi:role="line"
         id="tspan905-3-9-0-72"
         x="6.1723499"
         y="87.027939"
         style="font-size:6.3499999px;stroke-width:0.26458332">Orbital 4</tspan></text>
    <path
       style="fill:none;stroke:#000000;stroke-width:0.36500001;stroke-linecap:butt;stroke-linejoin:miter;stroke-miterlimit:4;stroke-dasharray:none;stroke-opacity:1;marker-end:url(#Arrow1Mend)"
       d="m 114.0571,40.869712 h 6.61458 v 7.74851 H 33.359181 v 7.748514 h 4.157737"
       id="path2484"
       inkscape:connector-curvature="0"
       sodipodi:nodetypes="cccccc" />
    <path
       style="fill:none;stroke:#000000;stroke-width:0.36500001;stroke-linecap:butt;stroke-linejoin:miter;stroke-miterlimit:4;stroke-dasharray:none;stroke-opacity:1;marker-end:url(#Arrow1Mend-2)"
       d="m 113.79196,55.37453 h 6.61458 v 7.74851 H 33.094047 v 7.748514 h 4.15773"
       id="path2484-1"
       inkscape:connector-curvature="0"
       sodipodi:nodetypes="cccccc" />
    <path
       style="fill:none;stroke:#000000;stroke-width:0.36500001;stroke-linecap:butt;stroke-linejoin:miter;stroke-miterlimit:4;stroke-dasharray:none;stroke-opacity:1;marker-end:url(#Arrow1Mend-0)"
       d="m 113.67912,70.055311 h 6.61458 v 7.74851 H 32.981204 v 7.748514 h 4.157737"
       id="path2484-5"
       inkscape:connector-curvature="0"
       sodipodi:nodetypes="cccccc" />
    <text
       xml:space="preserve"
       style="font-style:normal;font-variant:normal;font-weight:normal;font-stretch:normal;font-size:10.58333302px;line-height:1.25;font-family:Lato;-inkscape-font-specification:Lato;letter-spacing:0px;word-spacing:0px;fill:#000000;fill-opacity:1;stroke:none;stroke-width:0.26458332"
       x="34.973354"
       y="21.638056"
       id="text907-5-2-1-9"><tspan
         sodipodi:role="line"
         id="tspan905-3-9-2-4"
         x="34.973354"
         y="21.638056"
         style="font-style:normal;font-variant:normal;font-weight:600;font-stretch:normal;font-size:7.76111126px;font-family:Lato;-inkscape-font-specification:'Lato Semi-Bold';stroke-width:0.26458332">Unpacked layout</tspan></text>
    <text
       xml:space="preserve"
       style="font-style:normal;font-variant:normal;font-weight:normal;font-stretch:normal;font-size:10.58333302px;line-height:1.25;font-family:Lato;-inkscape-font-specification:Lato;letter-spacing:0px;word-spacing:0px;fill:#000000;fill-opacity:1;stroke:none;stroke-width:0.26458332"
       x="-56.276291"
       y="139.82982"
       id="text907-5-2-1-7"
       transform="rotate(-90)"><tspan
         sodipodi:role="line"
         id="tspan905-3-9-2-6"
         x="-56.276291"
         y="139.82982"
         style="font-size:6.3499999px;stroke-width:0.26458332">Mesh index</tspan></text>
    <path
       style="fill:none;stroke:#000000;stroke-width:0.465;stroke-linecap:butt;stroke-linejoin:miter;stroke-miterlimit:4;stroke-dasharray:none;stroke-opacity:1;marker-end:url(#Arrow2Mend-1)"
       d="M 137.65402,58.527 V 71.35594"
       id="path1622-7"
       inkscape:connector-curvature="0" />
    <text
       xml:space="preserve"
       style="font-style:normal;font-variant:normal;font-weight:normal;font-stretch:normal;font-size:10.58333302px;line-height:1.25;font-family:Lato;-inkscape-font-specification:Lato;letter-spacing:0px;word-spacing:0px;fill:#000000;fill-opacity:1;stroke:none;stroke-width:0.26458332"
       x="145.10147"
       y="7.7242241"
       id="text907-5-2-1-9-0"><tspan
         sodipodi:role="line"
         id="tspan905-3-9-2-4-5"
         x="145.10147"
         y="7.7242241"
         style="font-style:normal;font-variant:normal;font-weight:600;font-stretch:normal;font-size:7.76111126px;font-family:Lato;-inkscape-font-specification:'Lato Semi-Bold';stroke-width:0.26458332">Packed layout</tspan></text>
    <text
       xml:space="preserve"
       style="font-style:normal;font-variant:normal;font-weight:normal;font-stretch:normal;font-size:10.58333302px;line-height:1.25;font-family:Lato;-inkscape-font-specification:Lato;letter-spacing:0px;word-spacing:0px;fill:#000000;fill-opacity:1;stroke:none;stroke-width:0.26458332"
       x="148.24341"
       y="16.362278"
       id="text907-5-2-1-77"><tspan
         sodipodi:role="line"
         id="tspan905-3-9-2-5"
         x="148.24341"
         y="16.362278"
         style="font-size:6.3499999px;stroke-width:0.26458332">Orbital index</tspan></text>
    <path
       style="fill:none;stroke:#000000;stroke-width:0.465;stroke-linecap:butt;stroke-linejoin:miter;stroke-miterlimit:4;stroke-dasharray:none;stroke-opacity:1;marker-end:url(#Arrow2Mend-2)"
       d="m 184.92245,14.087405 h 12.82894"
       id="path1622-4"
       inkscape:connector-curvature="0" />
    <g
       id="g6593"
       transform="translate(108.10858,-97.553386)">
      <rect
         y="121.81592"
         x="46.516003"
         height="10.94142"
         width="11.153926"
         id="rect817-2-6-93"
         style="fill:#00ff00;fill-opacity:1;stroke:#000000;stroke-width:0.6362986;stroke-miterlimit:4;stroke-dasharray:none;stroke-opacity:1" />
      <rect
         y="121.81592"
         x="57.66993"
         height="10.94142"
         width="11.153926"
         id="rect817-2-6-93-2"
         style="fill:#ff0000;fill-opacity:1;stroke:#000000;stroke-width:0.6362986;stroke-miterlimit:4;stroke-dasharray:none;stroke-opacity:1" />
      <rect
         y="121.81593"
         x="68.823853"
         height="10.94142"
         width="11.153926"
         id="rect817-2-6-93-9"
         style="fill:#ffff00;fill-opacity:1;stroke:#000000;stroke-width:0.6362986;stroke-miterlimit:4;stroke-dasharray:none;stroke-opacity:1" />
      <rect
         y="121.81593"
         x="79.977776"
         height="10.94142"
         width="11.153926"
         id="rect817-2-6-93-90"
         style="fill:#2a7fff;fill-opacity:1;stroke:#000000;stroke-width:0.6362986;stroke-miterlimit:4;stroke-dasharray:none;stroke-opacity:1" />
      <text
         id="text907-5-2-6-20-38"
         y="129.81956"
         x="50.008049"
         style="font-style:normal;font-variant:normal;font-weight:normal;font-stretch:normal;font-size:10.58333302px;line-height:1.25;font-family:Lato;-inkscape-font-specification:Lato;letter-spacing:0px;word-spacing:0px;fill:#000000;fill-opacity:1;stroke:none;stroke-width:0.26458332"
         xml:space="preserve"><tspan
           style="font-size:7.05555534px;stroke-width:0.26458332"
           y="129.81956"
           x="50.008049"
           id="tspan905-3-9-1-6-0"
           sodipodi:role="line">1</tspan></text>
      <text
         id="text907-5-2-6-20-38-0"
         y="129.81956"
         x="61.161976"
         style="font-style:normal;font-variant:normal;font-weight:normal;font-stretch:normal;font-size:10.58333302px;line-height:1.25;font-family:Lato;-inkscape-font-specification:Lato;letter-spacing:0px;word-spacing:0px;fill:#000000;fill-opacity:1;stroke:none;stroke-width:0.26458332"
         xml:space="preserve"><tspan
           style="font-size:7.05555534px;stroke-width:0.26458332"
           y="129.81956"
           x="61.161976"
           id="tspan905-3-9-1-6-0-0"
           sodipodi:role="line">1</tspan></text>
      <text
         id="text907-5-2-6-20-38-4"
         y="129.81958"
         x="72.315895"
         style="font-style:normal;font-variant:normal;font-weight:normal;font-stretch:normal;font-size:10.58333302px;line-height:1.25;font-family:Lato;-inkscape-font-specification:Lato;letter-spacing:0px;word-spacing:0px;fill:#000000;fill-opacity:1;stroke:none;stroke-width:0.26458332"
         xml:space="preserve"><tspan
           style="font-size:7.05555534px;stroke-width:0.26458332"
           y="129.81958"
           x="72.315895"
           id="tspan905-3-9-1-6-0-6"
           sodipodi:role="line">1</tspan></text>
      <text
         id="text907-5-2-6-20-38-2"
         y="129.81958"
         x="83.469818"
         style="font-style:normal;font-variant:normal;font-weight:normal;font-stretch:normal;font-size:10.58333302px;line-height:1.25;font-family:Lato;-inkscape-font-specification:Lato;letter-spacing:0px;word-spacing:0px;fill:#000000;fill-opacity:1;stroke:none;stroke-width:0.26458332"
         xml:space="preserve"><tspan
           style="font-size:7.05555534px;stroke-width:0.26458332"
           y="129.81958"
           x="83.469818"
           id="tspan905-3-9-1-6-0-67"
           sodipodi:role="line">1</tspan></text>
    </g>
    <g
       id="g6784"
       transform="translate(108.7787,-98.876292)">
      <rect
         y="140.70203"
         x="45.845879"
         height="10.94142"
         width="11.153926"
         id="rect817-2-6-93-6"
         style="fill:#00ff00;fill-opacity:1;stroke:#000000;stroke-width:0.6362986;stroke-miterlimit:4;stroke-dasharray:none;stroke-opacity:1" />
      <rect
         y="140.70203"
         x="56.999805"
         height="10.94142"
         width="11.153926"
         id="rect817-2-6-93-2-9"
         style="fill:#ff0000;fill-opacity:1;stroke:#000000;stroke-width:0.6362986;stroke-miterlimit:4;stroke-dasharray:none;stroke-opacity:1" />
      <rect
         y="140.70204"
         x="68.153732"
         height="10.94142"
         width="11.153926"
         id="rect817-2-6-93-9-8"
         style="fill:#ffff00;fill-opacity:1;stroke:#000000;stroke-width:0.6362986;stroke-miterlimit:4;stroke-dasharray:none;stroke-opacity:1" />
      <rect
         y="140.70204"
         x="79.307655"
         height="10.94142"
         width="11.153926"
         id="rect817-2-6-93-90-7"
         style="fill:#2a7fff;fill-opacity:1;stroke:#000000;stroke-width:0.6362986;stroke-miterlimit:4;stroke-dasharray:none;stroke-opacity:1" />
      <text
         id="text907-5-2-6-20-38-28"
         y="148.70567"
         x="49.337925"
         style="font-style:normal;font-variant:normal;font-weight:normal;font-stretch:normal;font-size:10.58333302px;line-height:1.25;font-family:Lato;-inkscape-font-specification:Lato;letter-spacing:0px;word-spacing:0px;fill:#000000;fill-opacity:1;stroke:none;stroke-width:0.26458332"
         xml:space="preserve"><tspan
           style="font-size:7.05555534px;stroke-width:0.26458332"
           y="148.70567"
           x="49.337925"
           id="tspan905-3-9-1-6-0-2"
           sodipodi:role="line">2</tspan></text>
      <text
         id="text907-5-2-6-20-38-0-9"
         y="148.70567"
         x="60.491852"
         style="font-style:normal;font-variant:normal;font-weight:normal;font-stretch:normal;font-size:10.58333302px;line-height:1.25;font-family:Lato;-inkscape-font-specification:Lato;letter-spacing:0px;word-spacing:0px;fill:#000000;fill-opacity:1;stroke:none;stroke-width:0.26458332"
         xml:space="preserve"><tspan
           style="font-size:7.05555534px;stroke-width:0.26458332"
           y="148.70567"
           x="60.491852"
           id="tspan905-3-9-1-6-0-0-9"
           sodipodi:role="line">2</tspan></text>
      <text
         id="text907-5-2-6-20-38-4-6"
         y="148.70569"
         x="71.645775"
         style="font-style:normal;font-variant:normal;font-weight:normal;font-stretch:normal;font-size:10.58333302px;line-height:1.25;font-family:Lato;-inkscape-font-specification:Lato;letter-spacing:0px;word-spacing:0px;fill:#000000;fill-opacity:1;stroke:none;stroke-width:0.26458332"
         xml:space="preserve"><tspan
           style="font-size:7.05555534px;stroke-width:0.26458332"
           y="148.70569"
           x="71.645775"
           id="tspan905-3-9-1-6-0-6-0"
           sodipodi:role="line">2</tspan></text>
      <text
         id="text907-5-2-6-20-38-2-2"
         y="148.70569"
         x="82.799698"
         style="font-style:normal;font-variant:normal;font-weight:normal;font-stretch:normal;font-size:10.58333302px;line-height:1.25;font-family:Lato;-inkscape-font-specification:Lato;letter-spacing:0px;word-spacing:0px;fill:#000000;fill-opacity:1;stroke:none;stroke-width:0.26458332"
         xml:space="preserve"><tspan
           style="font-size:7.05555534px;stroke-width:0.26458332"
           y="148.70569"
           x="82.799698"
           id="tspan905-3-9-1-6-0-67-7"
           sodipodi:role="line">2</tspan></text>
    </g>
    <g
       id="g6770"
       transform="translate(108.7787,-100.19921)">
      <rect
         y="159.58815"
         x="45.845879"
         height="10.94142"
         width="11.153926"
         id="rect817-2-6-93-1"
         style="fill:#00ff00;fill-opacity:1;stroke:#000000;stroke-width:0.6362986;stroke-miterlimit:4;stroke-dasharray:none;stroke-opacity:1" />
      <rect
         y="159.58815"
         x="56.999805"
         height="10.94142"
         width="11.153926"
         id="rect817-2-6-93-2-3"
         style="fill:#ff0000;fill-opacity:1;stroke:#000000;stroke-width:0.6362986;stroke-miterlimit:4;stroke-dasharray:none;stroke-opacity:1" />
      <rect
         y="159.58817"
         x="68.153732"
         height="10.94142"
         width="11.153926"
         id="rect817-2-6-93-9-2"
         style="fill:#ffff00;fill-opacity:1;stroke:#000000;stroke-width:0.6362986;stroke-miterlimit:4;stroke-dasharray:none;stroke-opacity:1" />
      <rect
         y="159.58817"
         x="79.307655"
         height="10.94142"
         width="11.153926"
         id="rect817-2-6-93-90-1"
         style="fill:#2a7fff;fill-opacity:1;stroke:#000000;stroke-width:0.6362986;stroke-miterlimit:4;stroke-dasharray:none;stroke-opacity:1" />
      <text
         id="text907-5-2-6-20-38-5"
         y="167.5918"
         x="49.337925"
         style="font-style:normal;font-variant:normal;font-weight:normal;font-stretch:normal;font-size:10.58333302px;line-height:1.25;font-family:Lato;-inkscape-font-specification:Lato;letter-spacing:0px;word-spacing:0px;fill:#000000;fill-opacity:1;stroke:none;stroke-width:0.26458332"
         xml:space="preserve"><tspan
           style="font-size:7.05555534px;stroke-width:0.26458332"
           y="167.5918"
           x="49.337925"
           id="tspan905-3-9-1-6-0-9"
           sodipodi:role="line">3</tspan></text>
      <text
         id="text907-5-2-6-20-38-0-91"
         y="167.5918"
         x="60.491852"
         style="font-style:normal;font-variant:normal;font-weight:normal;font-stretch:normal;font-size:10.58333302px;line-height:1.25;font-family:Lato;-inkscape-font-specification:Lato;letter-spacing:0px;word-spacing:0px;fill:#000000;fill-opacity:1;stroke:none;stroke-width:0.26458332"
         xml:space="preserve"><tspan
           style="font-size:7.05555534px;stroke-width:0.26458332"
           y="167.5918"
           x="60.491852"
           id="tspan905-3-9-1-6-0-0-4"
           sodipodi:role="line">3</tspan></text>
      <text
         id="text907-5-2-6-20-38-4-9"
         y="167.59181"
         x="71.645775"
         style="font-style:normal;font-variant:normal;font-weight:normal;font-stretch:normal;font-size:10.58333302px;line-height:1.25;font-family:Lato;-inkscape-font-specification:Lato;letter-spacing:0px;word-spacing:0px;fill:#000000;fill-opacity:1;stroke:none;stroke-width:0.26458332"
         xml:space="preserve"><tspan
           style="font-size:7.05555534px;stroke-width:0.26458332"
           y="167.59181"
           x="71.645775"
           id="tspan905-3-9-1-6-0-6-1"
           sodipodi:role="line">3</tspan></text>
      <text
         id="text907-5-2-6-20-38-2-0"
         y="167.59181"
         x="82.799698"
         style="font-style:normal;font-variant:normal;font-weight:normal;font-stretch:normal;font-size:10.58333302px;line-height:1.25;font-family:Lato;-inkscape-font-specification:Lato;letter-spacing:0px;word-spacing:0px;fill:#000000;fill-opacity:1;stroke:none;stroke-width:0.26458332"
         xml:space="preserve"><tspan
           style="font-size:7.05555534px;stroke-width:0.26458332"
           y="167.59181"
           x="82.799698"
           id="tspan905-3-9-1-6-0-67-75"
           sodipodi:role="line">3</tspan></text>
    </g>
    <g
       id="g6756"
       transform="translate(108.7787,-88.028377)">
      <rect
         y="178.47427"
         x="45.845879"
         height="10.94142"
         width="11.153926"
         id="rect817-2-6-93-7"
         style="fill:#00ff00;fill-opacity:1;stroke:#000000;stroke-width:0.6362986;stroke-miterlimit:4;stroke-dasharray:none;stroke-opacity:1" />
      <rect
         y="178.47427"
         x="56.999805"
         height="10.94142"
         width="11.153926"
         id="rect817-2-6-93-2-0"
         style="fill:#ff0000;fill-opacity:1;stroke:#000000;stroke-width:0.6362986;stroke-miterlimit:4;stroke-dasharray:none;stroke-opacity:1" />
      <rect
         y="178.47429"
         x="68.153732"
         height="10.94142"
         width="11.153926"
         id="rect817-2-6-93-9-4"
         style="fill:#ffff00;fill-opacity:1;stroke:#000000;stroke-width:0.6362986;stroke-miterlimit:4;stroke-dasharray:none;stroke-opacity:1" />
      <rect
         y="178.47429"
         x="79.307655"
         height="10.94142"
         width="11.153926"
         id="rect817-2-6-93-90-8"
         style="fill:#2a7fff;fill-opacity:1;stroke:#000000;stroke-width:0.6362986;stroke-miterlimit:4;stroke-dasharray:none;stroke-opacity:1" />
    </g>
    <flowRoot
       xml:space="preserve"
       id="flowRoot6744"
       style="font-style:normal;font-variant:normal;font-weight:normal;font-stretch:normal;font-size:40px;line-height:1.25;font-family:Lato;-inkscape-font-specification:Lato;letter-spacing:0px;word-spacing:0px;fill:#000000;fill-opacity:1;stroke:none"
       transform="scale(0.26458333)"><flowRegion
         id="flowRegion6746"><rect
           id="rect6748"
           width="257.14285"
           height="100.71429"
           x="125.71429"
           y="657.51971" /></flowRegion><flowPara
         id="flowPara6750"></flowPara></flowRoot>    <text
       xml:space="preserve"
       style="font-style:normal;font-variant:normal;font-weight:normal;font-stretch:normal;font-size:10.58333302px;line-height:1.25;font-family:Lato;-inkscape-font-specification:Lato;letter-spacing:0px;word-spacing:0px;fill:#000000;fill-opacity:1;stroke:none;stroke-width:0.26458332"
       x="172.55849"
       y="81.874817"
       id="text907-5-2-8-8-3"><tspan
         sodipodi:role="line"
         id="tspan905-3-9-9-9-7"
         x="172.55849"
         y="81.874817"
         style="font-size:9.87777805px;stroke-width:0.26458332">...</tspan></text>
    <path
       style="fill:none;stroke:#000000;stroke-width:0.465;stroke-linecap:butt;stroke-linejoin:miter;stroke-miterlimit:4;stroke-dasharray:none;stroke-opacity:1;marker-end:url(#Arrow1Mend-0-98)"
       d="m 199.49299,29.829805 h 7.65401 v 8.88244 h -59.90922 v 8.40997 h 6.28524"
       id="path7327"
       inkscape:connector-curvature="0"
       sodipodi:nodetypes="cccccc" />
    <path
       style="fill:none;stroke:#000000;stroke-width:0.465;stroke-linecap:butt;stroke-linejoin:miter;stroke-miterlimit:4;stroke-dasharray:none;stroke-opacity:1;marker-end:url(#Arrow1Mend-0-98-0)"
       d="m 199.49299,47.599025 h 7.65401 v 8.88244 h -59.90922 v 8.40997 h 6.28524"
       id="path7327-8"
       inkscape:connector-curvature="0"
       sodipodi:nodetypes="cccccc" />
    <path
       style="fill:none;stroke:#000000;stroke-width:0.465;stroke-linecap:butt;stroke-linejoin:miter;stroke-miterlimit:4;stroke-dasharray:none;stroke-opacity:1;marker-end:url(#Arrow1Mend-0-98-4)"
       d="m 199.49299,64.720385 h 7.65401 v 8.88244 h -59.90922 v 8.40997 h 6.28524"
       id="path7327-1"
       inkscape:connector-curvature="0"
       sodipodi:nodetypes="cccccc" />
    <path
       style="fill:none;stroke:#000000;stroke-width:0.465;stroke-linecap:butt;stroke-linejoin:miter;stroke-miterlimit:4;stroke-dasharray:none;stroke-opacity:1;marker-end:url(#Arrow1Mend-0-98-6)"
       d="m 199.49299,78.741295 h 7.65402 v 8.88244 h -59.90923 v 8.40997 h 6.28524"
       id="path7327-2"
       inkscape:connector-curvature="0"
       sodipodi:nodetypes="cccccc" />
  </g>
</svg>
